sim/VCD/first_successful_fsm.vcd
$date
   Tue Dec 12 20:22:57 2023
$end
$version
  2023.1
$end
$timescale
  1ps
$end
$scope module fsm_tb $end
$var reg 1 ! clk_in $end
$var reg 1 " rst_in $end
$var reg 1 # fft_out_valid $end
$var reg 1 $ fft_out_last $end
$var reg 32 % fft_out_data [31:0] $end
$var reg 3 & tone_ident [2:0] $end
$var reg 1 ' fft_out_ready $end
$var reg 1 ( tone_valid $end
$var reg 1 ) fft_valid $end
$var reg 32 * fft_length [31:0] $end
$var reg 11 + fft_data_count [10:0] $end
$scope module tone_detection $end
$var wire 1 , clk_in $end
$var wire 1 - rst_in $end
$var wire 1 . external_valid $end
$var wire 1 / valid_in_signal $end
$var wire 1 0 fft_last $end
$var wire 32 1 recording_length [31:0] $end
$var wire 32 2 fft_data [31:0] $end
$var reg 3 & tone_ident [2:0] $end
$var reg 1 ' ready_signal $end
$var reg 1 ( valid_signal $end
$var reg 32 3 fft_data_reg_1 [31:0] $end
$var reg 32 4 fft_data_reg_2 [31:0] $end
$var reg 32 5 fft_data_reg_3 [31:0] $end
$var reg 32 6 fft_data_reg_4 [31:0] $end
$var reg 33 7 change_1 [32:0] $end
$var reg 33 8 change_2 [32:0] $end
$var reg 33 9 change_3 [32:0] $end
$var reg 62 : quo_1 [61:0] $end
$var reg 62 ; quo_2 [61:0] $end
$var reg 62 < quo_3 [61:0] $end
$var reg 6 = tone [5:0] $end
$var reg 3 > fft_counter [2:0] $end
$var reg 32 ? cycle_counter [31:0] $end
$var reg 1 @ ready_to_div $end
$var reg 32 A state $end
$scope module first_div $end
$var wire 1 B aclk $end
$var wire 1 C s_axis_divisor_tvalid $end
$var wire 32 D s_axis_divisor_tdata $end
$var wire 1 E s_axis_dividend_tvalid $end
$var wire 32 F s_axis_dividend_tdata $end
$var wire 1 G m_axis_dout_tvalid $end
$var wire 64 H m_axis_dout_tdata $end
$upscope $end
$scope module second_div $end
$var wire 1 I aclk $end
$var wire 1 J s_axis_divisor_tvalid $end
$var wire 32 K s_axis_divisor_tdata $end
$var wire 1 L s_axis_dividend_tvalid $end
$var wire 32 M s_axis_dividend_tdata $end
$var wire 1 N m_axis_dout_tvalid $end
$var wire 64 O m_axis_dout_tdata $end
$upscope $end
$scope module third_div $end
$var wire 1 P aclk $end
$var wire 1 Q s_axis_divisor_tvalid $end
$var wire 32 R s_axis_divisor_tdata $end
$var wire 1 S s_axis_dividend_tvalid $end
$var wire 32 T s_axis_dividend_tdata $end
$var wire 1 U m_axis_dout_tvalid $end
$var wire 64 V m_axis_dout_tdata $end
$upscope $end
$upscope $end
$scope begin Block73_5 $end
$var reg 32 W i [31:0] $end
$upscope $end
$scope begin Block77_6 $end
$var reg 32 X i [31:0] $end
$upscope $end
$scope begin Block81_7 $end
$var reg 32 Y i [31:0] $end
$upscope $end
$upscope $end
$enddefinitions $end
#0
$dumpvars
0!
0"
0#
0$
b0 %
b111 &
0'
0(
0)
bx *
b0 +
0,
0-
0.
0/
00
bx 1
b0 2
bx 3
bx 4
bx 5
bx 6
bx 7
bx 8
bx 9
b0 :
b0 ;
b0 <
bx =
bx >
bx ?
x@
b0 A
0B
1C
bx D
xE
bx F
0G
b0 H
0I
1J
bx K
xL
bx M
0N
b0 O
0P
1Q
bx R
xS
bx T
0U
b0 V
b0 W
b0 X
b0 Y
$end
#5000
1!
1,
1B
1I
1P
#10000
0!
1"
b1 +
0,
1-
0B
0I
0P
#15000
1!
b0 &
1'
1,
b0 3
b0 =
b0 >
b0 ?
0@
1B
b0 D
1I
1P
#20000
0!
0"
b111111111111 %
b1100001101010 *
b10 +
0,
0-
b1100001101010 1
b111111111111 2
0B
0I
0P
#25000
1!
1,
b1 ?
1B
1I
1P
#30000
0!
b11 +
0,
0B
0I
0P
b1 W
#35000
1!
1,
b10 ?
1B
1I
1P
#40000
0!
b100 +
0,
0B
0I
0P
b10 W
#45000
1!
1,
b11 ?
1B
1I
1P
#50000
0!
b101 +
0,
0B
0I
0P
b11 W
#55000
1!
1,
b100 ?
1B
1I
1P
#60000
0!
b110 +
0,
0B
0I
0P
b100 W
#65000
1!
1,
b101 ?
1B
1I
1P
#70000
0!
b111 +
0,
0B
0I
0P
b101 W
#75000
1!
1,
b110 ?
1B
1I
1P
#80000
0!
b1000 +
0,
0B
0I
0P
b110 W
#85000
1!
1,
b111 ?
1B
1I
1P
#90000
0!
b1001 +
0,
0B
0I
0P
b111 W
#95000
1!
1,
b1000 ?
1B
1I
1P
#100000
0!
b1010 +
0,
0B
0I
0P
b1000 W
#105000
1!
1,
b1001 ?
1B
1I
1P
#110000
0!
b1011 +
0,
0B
0I
0P
b1001 W
#115000
1!
1,
b1010 ?
1B
1I
1P
#120000
0!
b1100 +
0,
0B
0I
0P
b1010 W
#125000
1!
1,
b1011 ?
1B
1I
1P
#130000
0!
b1101 +
0,
0B
0I
0P
b1011 W
#135000
1!
1,
b1100 ?
1B
1I
1P
#140000
0!
b1110 +
0,
0B
0I
0P
b1100 W
#145000
1!
1,
b1101 ?
1B
1I
1P
#150000
0!
b1111 +
0,
0B
0I
0P
b1101 W
#155000
1!
1,
b1110 ?
1B
1I
1P
#160000
0!
b10000 +
0,
0B
0I
0P
b1110 W
#165000
1!
1,
b1111 ?
1B
1I
1P
#170000
0!
b10001 +
0,
0B
0I
0P
b1111 W
#175000
1!
1,
b10000 ?
1B
1I
1P
#180000
0!
b10010 +
0,
0B
0I
0P
b10000 W
#185000
1!
1,
b10001 ?
1B
1I
1P
#190000
0!
b10011 +
0,
0B
0I
0P
b10001 W
#195000
1!
1,
b10010 ?
1B
1I
1P
#200000
0!
b10100 +
0,
0B
0I
0P
b10010 W
#205000
1!
1,
b10011 ?
1B
1I
1P
#210000
0!
b10101 +
0,
0B
0I
0P
b10011 W
#215000
1!
1,
b10100 ?
1B
1I
1P
#220000
0!
b10110 +
0,
0B
0I
0P
b10100 W
#225000
1!
1,
b10101 ?
1B
1I
1P
#230000
0!
b10111 +
0,
0B
0I
0P
b10101 W
#235000
1!
1,
b10110 ?
1B
1I
1P
#240000
0!
b11000 +
0,
0B
0I
0P
b10110 W
#245000
1!
1,
b10111 ?
1B
1I
1P
#250000
0!
b11001 +
0,
0B
0I
0P
b10111 W
#255000
1!
1,
b11000 ?
1B
1I
1P
#260000
0!
b11010 +
0,
0B
0I
0P
b11000 W
#265000
1!
1,
b11001 ?
1B
1I
1P
#270000
0!
b11011 +
0,
0B
0I
0P
b11001 W
#275000
1!
1,
b11010 ?
1B
1I
1P
#280000
0!
b11100 +
0,
0B
0I
0P
b11010 W
#285000
1!
1,
b11011 ?
1B
1I
1P
#290000
0!
b11101 +
0,
0B
0I
0P
b11011 W
#295000
1!
1,
b11100 ?
1B
1I
1P
#300000
0!
b11110 +
0,
0B
0I
0P
b11100 W
#305000
1!
1,
b11101 ?
1B
1I
1P
#310000
0!
b11111 +
0,
0B
0I
0P
b11101 W
#315000
1!
1,
b11110 ?
1B
1I
1P
#320000
0!
b100000 +
0,
0B
0I
0P
b11110 W
#325000
1!
1,
b11111 ?
1B
1I
1P
#330000
0!
b100001 +
0,
0B
0I
0P
b11111 W
#335000
1!
1,
b100000 ?
1B
1I
1P
#340000
0!
b100010 +
0,
0B
0I
0P
b100000 W
#345000
1!
1,
b100001 ?
1B
1I
1P
#350000
0!
b100011 +
0,
0B
0I
0P
b100001 W
#355000
1!
1,
b100010 ?
1B
1I
1P
#360000
0!
b100100 +
0,
0B
0I
0P
b100010 W
#365000
1!
1,
b100011 ?
1B
1I
1P
#370000
0!
b100101 +
0,
0B
0I
0P
b100011 W
#375000
1!
1,
b100100 ?
1B
1I
1P
#380000
0!
b100110 +
0,
0B
0I
0P
b100100 W
#385000
1!
1,
b100101 ?
1B
1I
1P
#390000
0!
b100111 +
0,
0B
0I
0P
b100101 W
#395000
1!
1,
b100110 ?
1B
1I
1P
#400000
0!
b101000 +
0,
0B
0I
0P
b100110 W
#405000
1!
1,
b100111 ?
1B
1I
1P
#410000
0!
b101001 +
0,
0B
0I
0P
b100111 W
#415000
1!
1,
b101000 ?
1B
1I
1P
#420000
0!
b101010 +
0,
0B
0I
0P
b101000 W
#425000
1!
1,
b101001 ?
1B
1I
1P
#430000
0!
b101011 +
0,
0B
0I
0P
b101001 W
#435000
1!
1,
b101010 ?
1B
1I
1P
#440000
0!
b101100 +
0,
0B
0I
0P
b101010 W
#445000
1!
1,
b101011 ?
1B
1I
1P
#450000
0!
b101101 +
0,
0B
0I
0P
b101011 W
#455000
1!
1,
b101100 ?
1B
1I
1P
#460000
0!
b101110 +
0,
0B
0I
0P
b101100 W
#465000
1!
1,
b101101 ?
1B
1I
1P
#470000
0!
b101111 +
0,
0B
0I
0P
b101101 W
#475000
1!
1,
b101110 ?
1B
1I
1P
#480000
0!
b110000 +
0,
0B
0I
0P
b101110 W
#485000
1!
1,
b101111 ?
1B
1I
1P
#490000
0!
b110001 +
0,
0B
0I
0P
b101111 W
#495000
1!
1,
b110000 ?
1B
1I
1P
#500000
0!
b110010 +
0,
0B
0I
0P
b110000 W
#505000
1!
1,
b110001 ?
1B
1I
1P
#510000
0!
b110011 +
0,
0B
0I
0P
b110001 W
#515000
1!
1,
b110010 ?
1B
1I
1P
#520000
0!
b110100 +
0,
0B
0I
0P
b110010 W
#525000
1!
1,
b110011 ?
1B
1I
1P
#530000
0!
b110101 +
0,
0B
0I
0P
b110011 W
#535000
1!
1,
b110100 ?
1B
1I
1P
#540000
0!
b110110 +
0,
0B
0I
0P
b110100 W
#545000
1!
1,
b110101 ?
1B
1I
1P
#550000
0!
b110111 +
0,
0B
0I
0P
b110101 W
#555000
1!
1,
b110110 ?
1B
1I
1P
#560000
0!
b111000 +
0,
0B
0I
0P
b110110 W
#565000
1!
1,
b110111 ?
1B
1I
1P
#570000
0!
b111001 +
0,
0B
0I
0P
b110111 W
#575000
1!
1,
b111000 ?
1B
1I
1P
#580000
0!
b111010 +
0,
0B
0I
0P
b111000 W
#585000
1!
1,
b111001 ?
1B
1I
1P
#590000
0!
b111011 +
0,
0B
0I
0P
b111001 W
#595000
1!
1,
b111010 ?
1B
1I
1P
#600000
0!
b111100 +
0,
0B
0I
0P
b111010 W
#605000
1!
1,
b111011 ?
1B
1I
1P
#610000
0!
b111101 +
0,
0B
0I
0P
b111011 W
#615000
1!
1,
b111100 ?
1B
1I
1P
#620000
0!
b111110 +
0,
0B
0I
0P
b111100 W
#625000
1!
1,
b111101 ?
1B
1I
1P
#630000
0!
b111111 +
0,
0B
0I
0P
b111101 W
#635000
1!
1,
b111110 ?
1B
1I
1P
#640000
0!
b1000000 +
0,
0B
0I
0P
b111110 W
#645000
1!
1,
b111111 ?
1B
1I
1P
#650000
0!
b1000001 +
0,
0B
0I
0P
b111111 W
#655000
1!
1,
b1000000 ?
1B
1I
1P
#660000
0!
b1000010 +
0,
0B
0I
0P
b1000000 W
#665000
1!
1,
b1000001 ?
1B
1I
1P
#670000
0!
b1000011 +
0,
0B
0I
0P
b1000001 W
#675000
1!
1,
bx :
bx ;
bx <
b1000010 ?
1B
bx H
1I
bx O
1P
bx V
#680000
0!
b1000100 +
0,
0B
0I
0P
b1000010 W
#685000
1!
1,
b1000011 ?
1B
1I
1P
#690000
0!
b1000101 +
0,
0B
0I
0P
b1000011 W
#695000
1!
1,
b1000100 ?
1B
1I
1P
#700000
0!
b1000110 +
0,
0B
0I
0P
b1000100 W
#705000
1!
1,
b1000101 ?
1B
1I
1P
#710000
0!
b1000111 +
0,
0B
0I
0P
b1000101 W
#715000
1!
1,
b1000110 ?
1B
1I
1P
#720000
0!
b1001000 +
0,
0B
0I
0P
b1000110 W
#725000
1!
1,
b1000111 ?
1B
1I
1P
#730000
0!
b1001001 +
0,
0B
0I
0P
b1000111 W
#735000
1!
1,
b1001000 ?
1B
1I
1P
#740000
0!
b1001010 +
0,
0B
0I
0P
b1001000 W
#745000
1!
1,
b1001001 ?
1B
1I
1P
#750000
0!
b1001011 +
0,
0B
0I
0P
b1001001 W
#755000
1!
1,
b1001010 ?
1B
1I
1P
#760000
0!
b1001100 +
0,
0B
0I
0P
b1001010 W
#765000
1!
1,
b1001011 ?
1B
1I
1P
#770000
0!
b1001101 +
0,
0B
0I
0P
b1001011 W
#775000
1!
1,
b1001100 ?
1B
1I
1P
#780000
0!
b1001110 +
0,
0B
0I
0P
b1001100 W
#785000
1!
1,
b1001101 ?
1B
1I
1P
#790000
0!
b1001111 +
0,
0B
0I
0P
b1001101 W
#795000
1!
1,
b1001110 ?
1B
1I
1P
#800000
0!
b1010000 +
0,
0B
0I
0P
b1001110 W
#805000
1!
1,
b1001111 ?
1B
1I
1P
#810000
0!
b1010001 +
0,
0B
0I
0P
b1001111 W
#815000
1!
1,
b1010000 ?
1B
1I
1P
#820000
0!
b1010010 +
0,
0B
0I
0P
b1010000 W
#825000
1!
1,
b1010001 ?
1B
1I
1P
#830000
0!
b1010011 +
0,
0B
0I
0P
b1010001 W
#835000
1!
1,
b1010010 ?
1B
1I
1P
#840000
0!
b1010100 +
0,
0B
0I
0P
b1010010 W
#845000
1!
1,
b1010011 ?
1B
1I
1P
#850000
0!
b1010101 +
0,
0B
0I
0P
b1010011 W
#855000
1!
1,
b1010100 ?
1B
1I
1P
#860000
0!
b1010110 +
0,
0B
0I
0P
b1010100 W
#865000
1!
1,
b1010101 ?
1B
1I
1P
#870000
0!
b1010111 +
0,
0B
0I
0P
b1010101 W
#875000
1!
1,
b1010110 ?
1B
1I
1P
#880000
0!
b1011000 +
0,
0B
0I
0P
b1010110 W
#885000
1!
1,
b1010111 ?
1B
1I
1P
#890000
0!
b1011001 +
0,
0B
0I
0P
b1010111 W
#895000
1!
1,
b1011000 ?
1B
1I
1P
#900000
0!
b1011010 +
0,
0B
0I
0P
b1011000 W
#905000
1!
1,
b1011001 ?
1B
1I
1P
#910000
0!
b1011011 +
0,
0B
0I
0P
b1011001 W
#915000
1!
1,
b1011010 ?
1B
1I
1P
#920000
0!
b1011100 +
0,
0B
0I
0P
b1011010 W
#925000
1!
1,
b1011011 ?
1B
1I
1P
#930000
0!
b1011101 +
0,
0B
0I
0P
b1011011 W
#935000
1!
1,
b1011100 ?
1B
1I
1P
#940000
0!
b1011110 +
0,
0B
0I
0P
b1011100 W
#945000
1!
1,
b1011101 ?
1B
1I
1P
#950000
0!
b1011111 +
0,
0B
0I
0P
b1011101 W
#955000
1!
1,
b1011110 ?
1B
1I
1P
#960000
0!
b1100000 +
0,
0B
0I
0P
b1011110 W
#965000
1!
1,
b1011111 ?
1B
1I
1P
#970000
0!
b1100001 +
0,
0B
0I
0P
b1011111 W
#975000
1!
1,
b1100000 ?
1B
1I
1P
#980000
0!
b1100010 +
0,
0B
0I
0P
b1100000 W
#985000
1!
1,
b1100001 ?
1B
1I
1P
#990000
0!
b1100011 +
0,
0B
0I
0P
b1100001 W
#995000
1!
1,
b1100010 ?
1B
1I
1P
#1000000
0!
b1100100 +
0,
0B
0I
0P
b1100010 W
#1005000
1!
1,
b1100011 ?
1B
1I
1P
#1010000
0!
b1100101 +
0,
0B
0I
0P
b1100011 W
#1015000
1!
1,
b1100100 ?
1B
1I
1P
#1020000
0!
b1100110 +
0,
0B
0I
0P
b1100100 W
#1025000
1!
1,
b1100101 ?
1B
1I
1P
#1030000
0!
b1100111 +
0,
0B
0I
0P
b1100101 W
#1035000
1!
1,
b1100110 ?
1B
1I
1P
#1040000
0!
b1101000 +
0,
0B
0I
0P
b1100110 W
#1045000
1!
1,
b1100111 ?
1B
1I
1P
#1050000
0!
b1101001 +
0,
0B
0I
0P
b1100111 W
#1055000
1!
1,
b1101000 ?
1B
1I
1P
#1060000
0!
b1101010 +
0,
0B
0I
0P
b1101000 W
#1065000
1!
1,
b1101001 ?
1B
1I
1P
#1070000
0!
b1101011 +
0,
0B
0I
0P
b1101001 W
#1075000
1!
1,
b1101010 ?
1B
1I
1P
#1080000
0!
b1101100 +
0,
0B
0I
0P
b1101010 W
#1085000
1!
1,
b1101011 ?
1B
1I
1P
#1090000
0!
b1101101 +
0,
0B
0I
0P
b1101011 W
#1095000
1!
1,
b1101100 ?
1B
1I
1P
#1100000
0!
b1101110 +
0,
0B
0I
0P
b1101100 W
#1105000
1!
1,
b1101101 ?
1B
1I
1P
#1110000
0!
b1101111 +
0,
0B
0I
0P
b1101101 W
#1115000
1!
1,
b1101110 ?
1B
1I
1P
#1120000
0!
b1110000 +
0,
0B
0I
0P
b1101110 W
#1125000
1!
1,
b1101111 ?
1B
1I
1P
#1130000
0!
b1110001 +
0,
0B
0I
0P
b1101111 W
#1135000
1!
1,
b1110000 ?
1B
1I
1P
#1140000
0!
b1110010 +
0,
0B
0I
0P
b1110000 W
#1145000
1!
1,
b1110001 ?
1B
1I
1P
#1150000
0!
b1110011 +
0,
0B
0I
0P
b1110001 W
#1155000
1!
1,
b1110010 ?
1B
1I
1P
#1160000
0!
b1110100 +
0,
0B
0I
0P
b1110010 W
#1165000
1!
1,
b1110011 ?
1B
1I
1P
#1170000
0!
b1110101 +
0,
0B
0I
0P
b1110011 W
#1175000
1!
1,
b1110100 ?
1B
1I
1P
#1180000
0!
b1110110 +
0,
0B
0I
0P
b1110100 W
#1185000
1!
1,
b1110101 ?
1B
1I
1P
#1190000
0!
b1110111 +
0,
0B
0I
0P
b1110101 W
#1195000
1!
1,
b1110110 ?
1B
1I
1P
#1200000
0!
b1111000 +
0,
0B
0I
0P
b1110110 W
#1205000
1!
1,
b1110111 ?
1B
1I
1P
#1210000
0!
b1111001 +
0,
0B
0I
0P
b1110111 W
#1215000
1!
1,
b1111000 ?
1B
1I
1P
#1220000
0!
b1111010 +
0,
0B
0I
0P
b1111000 W
#1225000
1!
1,
b1111001 ?
1B
1I
1P
#1230000
0!
b1111011 +
0,
0B
0I
0P
b1111001 W
#1235000
1!
1,
b1111010 ?
1B
1I
1P
#1240000
0!
b1111100 +
0,
0B
0I
0P
b1111010 W
#1245000
1!
1,
b1111011 ?
1B
1I
1P
#1250000
0!
b1111101 +
0,
0B
0I
0P
b1111011 W
#1255000
1!
1,
b1111100 ?
1B
1I
1P
#1260000
0!
b1111110 +
0,
0B
0I
0P
b1111100 W
#1265000
1!
1,
b1111101 ?
1B
1I
1P
#1270000
0!
b1111111 +
0,
0B
0I
0P
b1111101 W
#1275000
1!
1,
b1111110 ?
1B
1I
1P
#1280000
0!
b10000000 +
0,
0B
0I
0P
b1111110 W
#1285000
1!
1,
b1111111 ?
1B
1I
1P
#1290000
0!
b10000001 +
0,
0B
0I
0P
b1111111 W
#1295000
1!
1,
b10000000 ?
1B
1I
1P
#1300000
0!
b10000010 +
0,
0B
0I
0P
b10000000 W
#1305000
1!
1,
b10000001 ?
1B
1I
1P
#1310000
0!
b10000011 +
0,
0B
0I
0P
b10000001 W
#1315000
1!
1,
b10000010 ?
1B
1I
1P
#1320000
0!
b10000100 +
0,
0B
0I
0P
b10000010 W
#1325000
1!
1,
b10000011 ?
1B
1I
1P
#1330000
0!
b10000101 +
0,
0B
0I
0P
b10000011 W
#1335000
1!
1,
b10000100 ?
1B
1I
1P
#1340000
0!
b10000110 +
0,
0B
0I
0P
b10000100 W
#1345000
1!
1,
b10000101 ?
1B
1I
1P
#1350000
0!
b10000111 +
0,
0B
0I
0P
b10000101 W
#1355000
1!
1,
b10000110 ?
1B
1I
1P
#1360000
0!
b10001000 +
0,
0B
0I
0P
b10000110 W
#1365000
1!
1,
b10000111 ?
1B
1I
1P
#1370000
0!
b10001001 +
0,
0B
0I
0P
b10000111 W
#1375000
1!
1,
b10001000 ?
1B
1I
1P
#1380000
0!
b10001010 +
0,
0B
0I
0P
b10001000 W
#1385000
1!
1,
b10001001 ?
1B
1I
1P
#1390000
0!
b10001011 +
0,
0B
0I
0P
b10001001 W
#1395000
1!
1,
b10001010 ?
1B
1I
1P
#1400000
0!
b10001100 +
0,
0B
0I
0P
b10001010 W
#1405000
1!
1,
b10001011 ?
1B
1I
1P
#1410000
0!
b10001101 +
0,
0B
0I
0P
b10001011 W
#1415000
1!
1,
b10001100 ?
1B
1I
1P
#1420000
0!
b10001110 +
0,
0B
0I
0P
b10001100 W
#1425000
1!
1,
b10001101 ?
1B
1I
1P
#1430000
0!
b10001111 +
0,
0B
0I
0P
b10001101 W
#1435000
1!
1,
b10001110 ?
1B
1I
1P
#1440000
0!
b10010000 +
0,
0B
0I
0P
b10001110 W
#1445000
1!
1,
b10001111 ?
1B
1I
1P
#1450000
0!
b10010001 +
0,
0B
0I
0P
b10001111 W
#1455000
1!
1,
b10010000 ?
1B
1I
1P
#1460000
0!
b10010010 +
0,
0B
0I
0P
b10010000 W
#1465000
1!
1,
b10010001 ?
1B
1I
1P
#1470000
0!
b10010011 +
0,
0B
0I
0P
b10010001 W
#1475000
1!
1,
b10010010 ?
1B
1I
1P
#1480000
0!
b10010100 +
0,
0B
0I
0P
b10010010 W
#1485000
1!
1,
b10010011 ?
1B
1I
1P
#1490000
0!
b10010101 +
0,
0B
0I
0P
b10010011 W
#1495000
1!
1,
b10010100 ?
1B
1I
1P
#1500000
0!
b10010110 +
0,
0B
0I
0P
b10010100 W
#1505000
1!
1,
b10010101 ?
1B
1I
1P
#1510000
0!
b10010111 +
0,
0B
0I
0P
b10010101 W
#1515000
1!
1,
b10010110 ?
1B
1I
1P
#1520000
0!
b10011000 +
0,
0B
0I
0P
b10010110 W
#1525000
1!
1,
b10010111 ?
1B
1I
1P
#1530000
0!
b10011001 +
0,
0B
0I
0P
b10010111 W
#1535000
1!
1,
b10011000 ?
1B
1I
1P
#1540000
0!
b10011010 +
0,
0B
0I
0P
b10011000 W
#1545000
1!
1,
b10011001 ?
1B
1I
1P
#1550000
0!
b10011011 +
0,
0B
0I
0P
b10011001 W
#1555000
1!
1,
b10011010 ?
1B
1I
1P
#1560000
0!
b10011100 +
0,
0B
0I
0P
b10011010 W
#1565000
1!
1,
b10011011 ?
1B
1I
1P
#1570000
0!
b10011101 +
0,
0B
0I
0P
b10011011 W
#1575000
1!
1,
b10011100 ?
1B
1I
1P
#1580000
0!
b10011110 +
0,
0B
0I
0P
b10011100 W
#1585000
1!
1,
b10011101 ?
1B
1I
1P
#1590000
0!
b10011111 +
0,
0B
0I
0P
b10011101 W
#1595000
1!
1,
b10011110 ?
1B
1I
1P
#1600000
0!
b10100000 +
0,
0B
0I
0P
b10011110 W
#1605000
1!
1,
b10011111 ?
1B
1I
1P
#1610000
0!
b10100001 +
0,
0B
0I
0P
b10011111 W
#1615000
1!
1,
b10100000 ?
1B
1I
1P
#1620000
0!
b10100010 +
0,
0B
0I
0P
b10100000 W
#1625000
1!
1,
b10100001 ?
1B
1I
1P
#1630000
0!
b10100011 +
0,
0B
0I
0P
b10100001 W
#1635000
1!
1,
b10100010 ?
1B
1I
1P
#1640000
0!
b10100100 +
0,
0B
0I
0P
b10100010 W
#1645000
1!
1,
b10100011 ?
1B
1I
1P
#1650000
0!
b10100101 +
0,
0B
0I
0P
b10100011 W
#1655000
1!
1,
b10100100 ?
1B
1I
1P
#1660000
0!
b10100110 +
0,
0B
0I
0P
b10100100 W
#1665000
1!
1,
b10100101 ?
1B
1I
1P
#1670000
0!
b10100111 +
0,
0B
0I
0P
b10100101 W
#1675000
1!
1,
b10100110 ?
1B
1I
1P
#1680000
0!
b10101000 +
0,
0B
0I
0P
b10100110 W
#1685000
1!
1,
b10100111 ?
1B
1I
1P
#1690000
0!
b10101001 +
0,
0B
0I
0P
b10100111 W
#1695000
1!
1,
b10101000 ?
1B
1I
1P
#1700000
0!
b10101010 +
0,
0B
0I
0P
b10101000 W
#1705000
1!
1,
b10101001 ?
1B
1I
1P
#1710000
0!
b10101011 +
0,
0B
0I
0P
b10101001 W
#1715000
1!
1,
b10101010 ?
1B
1I
1P
#1720000
0!
b10101100 +
0,
0B
0I
0P
b10101010 W
#1725000
1!
1,
b10101011 ?
1B
1I
1P
#1730000
0!
b10101101 +
0,
0B
0I
0P
b10101011 W
#1735000
1!
1,
b10101100 ?
1B
1I
1P
#1740000
0!
b10101110 +
0,
0B
0I
0P
b10101100 W
#1745000
1!
1,
b10101101 ?
1B
1I
1P
#1750000
0!
b10101111 +
0,
0B
0I
0P
b10101101 W
#1755000
1!
1,
b10101110 ?
1B
1I
1P
#1760000
0!
b10110000 +
0,
0B
0I
0P
b10101110 W
#1765000
1!
1,
b10101111 ?
1B
1I
1P
#1770000
0!
b10110001 +
0,
0B
0I
0P
b10101111 W
#1775000
1!
1,
b10110000 ?
1B
1I
1P
#1780000
0!
b10110010 +
0,
0B
0I
0P
b10110000 W
#1785000
1!
1,
b10110001 ?
1B
1I
1P
#1790000
0!
b10110011 +
0,
0B
0I
0P
b10110001 W
#1795000
1!
1,
b10110010 ?
1B
1I
1P
#1800000
0!
b10110100 +
0,
0B
0I
0P
b10110010 W
#1805000
1!
1,
b10110011 ?
1B
1I
1P
#1810000
0!
b10110101 +
0,
0B
0I
0P
b10110011 W
#1815000
1!
1,
b10110100 ?
1B
1I
1P
#1820000
0!
b10110110 +
0,
0B
0I
0P
b10110100 W
#1825000
1!
1,
b10110101 ?
1B
1I
1P
#1830000
0!
b10110111 +
0,
0B
0I
0P
b10110101 W
#1835000
1!
1,
b10110110 ?
1B
1I
1P
#1840000
0!
b10111000 +
0,
0B
0I
0P
b10110110 W
#1845000
1!
1,
b10110111 ?
1B
1I
1P
#1850000
0!
b10111001 +
0,
0B
0I
0P
b10110111 W
#1855000
1!
1,
b10111000 ?
1B
1I
1P
#1860000
0!
b10111010 +
0,
0B
0I
0P
b10111000 W
#1865000
1!
1,
b10111001 ?
1B
1I
1P
#1870000
0!
b10111011 +
0,
0B
0I
0P
b10111001 W
#1875000
1!
1,
b10111010 ?
1B
1I
1P
#1880000
0!
b10111100 +
0,
0B
0I
0P
b10111010 W
#1885000
1!
1,
b10111011 ?
1B
1I
1P
#1890000
0!
b10111101 +
0,
0B
0I
0P
b10111011 W
#1895000
1!
1,
b10111100 ?
1B
1I
1P
#1900000
0!
b10111110 +
0,
0B
0I
0P
b10111100 W
#1905000
1!
1,
b10111101 ?
1B
1I
1P
#1910000
0!
b10111111 +
0,
0B
0I
0P
b10111101 W
#1915000
1!
1,
b10111110 ?
1B
1I
1P
#1920000
0!
b11000000 +
0,
0B
0I
0P
b10111110 W
#1925000
1!
1,
b10111111 ?
1B
1I
1P
#1930000
0!
b11000001 +
0,
0B
0I
0P
b10111111 W
#1935000
1!
1,
b11000000 ?
1B
1I
1P
#1940000
0!
b11000010 +
0,
0B
0I
0P
b11000000 W
#1945000
1!
1,
b11000001 ?
1B
1I
1P
#1950000
0!
b11000011 +
0,
0B
0I
0P
b11000001 W
#1955000
1!
1,
b11000010 ?
1B
1I
1P
#1960000
0!
b11000100 +
0,
0B
0I
0P
b11000010 W
#1965000
1!
1,
b11000011 ?
1B
1I
1P
#1970000
0!
b11000101 +
0,
0B
0I
0P
b11000011 W
#1975000
1!
1,
b11000100 ?
1B
1I
1P
#1980000
0!
b11000110 +
0,
0B
0I
0P
b11000100 W
#1985000
1!
1,
b11000101 ?
1B
1I
1P
#1990000
0!
b11000111 +
0,
0B
0I
0P
b11000101 W
#1995000
1!
1,
b11000110 ?
1B
1I
1P
#2000000
0!
b11001000 +
0,
0B
0I
0P
b11000110 W
#2005000
1!
1,
b11000111 ?
1B
1I
1P
#2010000
0!
b11001001 +
0,
0B
0I
0P
b11000111 W
#2015000
1!
1,
b11001000 ?
1B
1I
1P
#2020000
0!
b11001010 +
0,
0B
0I
0P
b11001000 W
#2025000
1!
1,
b11001001 ?
1B
1I
1P
#2030000
0!
b11001011 +
0,
0B
0I
0P
b11001001 W
#2035000
1!
1,
b11001010 ?
1B
1I
1P
#2040000
0!
b11001100 +
0,
0B
0I
0P
b11001010 W
#2045000
1!
1,
b11001011 ?
1B
1I
1P
#2050000
0!
b11001101 +
0,
0B
0I
0P
b11001011 W
#2055000
1!
1,
b11001100 ?
1B
1I
1P
#2060000
0!
b11001110 +
0,
0B
0I
0P
b11001100 W
#2065000
1!
1,
b11001101 ?
1B
1I
1P
#2070000
0!
b11001111 +
0,
0B
0I
0P
b11001101 W
#2075000
1!
1,
b11001110 ?
1B
1I
1P
#2080000
0!
b11010000 +
0,
0B
0I
0P
b11001110 W
#2085000
1!
1,
b11001111 ?
1B
1I
1P
#2090000
0!
b11010001 +
0,
0B
0I
0P
b11001111 W
#2095000
1!
1,
b11010000 ?
1B
1I
1P
#2100000
0!
b11010010 +
0,
0B
0I
0P
b11010000 W
#2105000
1!
1,
b11010001 ?
1B
1I
1P
#2110000
0!
b11010011 +
0,
0B
0I
0P
b11010001 W
#2115000
1!
1,
b11010010 ?
1B
1I
1P
#2120000
0!
b11010100 +
0,
0B
0I
0P
b11010010 W
#2125000
1!
1,
b11010011 ?
1B
1I
1P
#2130000
0!
b11010101 +
0,
0B
0I
0P
b11010011 W
#2135000
1!
1,
b11010100 ?
1B
1I
1P
#2140000
0!
b11010110 +
0,
0B
0I
0P
b11010100 W
#2145000
1!
1,
b11010101 ?
1B
1I
1P
#2150000
0!
b11010111 +
0,
0B
0I
0P
b11010101 W
#2155000
1!
1,
b11010110 ?
1B
1I
1P
#2160000
0!
b11011000 +
0,
0B
0I
0P
b11010110 W
#2165000
1!
1,
b11010111 ?
1B
1I
1P
#2170000
0!
b11011001 +
0,
0B
0I
0P
b11010111 W
#2175000
1!
1,
b11011000 ?
1B
1I
1P
#2180000
0!
b11011010 +
0,
0B
0I
0P
b11011000 W
#2185000
1!
1,
b11011001 ?
1B
1I
1P
#2190000
0!
b11011011 +
0,
0B
0I
0P
b11011001 W
#2195000
1!
1,
b11011010 ?
1B
1I
1P
