Archives/Lab 5/image_sprite.vcd
$date
	Thu Oct 12 20:09:38 2023
$end
$version
	Icarus Verilog
$end
$timescale
	1ps
$end
$scope module image_sprite_tb $end
$var wire 8 ! red_out [7:0] $end
$var wire 8 " green_out [7:0] $end
$var wire 8 # blue_out [7:0] $end
$var reg 11 $ hcount_in [10:0] $end
$var reg 1 % pixel_clk_in $end
$var reg 1 & rst_in $end
$scope module uut $end
$var wire 11 ' hcount_in [10:0] $end
$var wire 1 ( in_sprite $end
$var wire 1 % pixel_clk_in $end
$var wire 1 & rst_in $end
$var wire 10 ) vcount_in [9:0] $end
$var wire 11 * x_in [10:0] $end
$var wire 10 + y_in [9:0] $end
$var wire 24 , rgb [23:0] $end
$var wire 8 - red_out [7:0] $end
$var wire 32 . palette_address [31:0] $end
$var wire 16 / image_addr [15:0] $end
$var wire 8 0 green_out [7:0] $end
$var wire 8 1 blue_out [7:0] $end
$var parameter 32 2 HEIGHT $end
$var parameter 32 3 WIDTH $end
$scope module image $end
$var wire 16 4 addra [15:0] $end
$var wire 1 % clka $end
$var wire 8 5 dina [7:0] $end
$var wire 1 6 ena $end
$var wire 1 7 regcea $end
$var wire 1 & rsta $end
$var wire 1 8 wea $end
$var wire 8 9 douta [7:0] $end
$var parameter 112 : INIT_FILE $end
$var parameter 64 ; RAM_DEPTH $end
$var parameter 128 < RAM_PERFORMANCE $end
$var parameter 32 = RAM_WIDTH $end
$var reg 8 > ram_data [7:0] $end
$scope function clogb2 $end
$var integer 32 ? depth [31:0] $end
$upscope $end
$scope begin output_register $end
$var reg 8 @ douta_reg [7:0] $end
$upscope $end
$scope begin use_init_file $end
$upscope $end
$upscope $end
$scope module palette $end
$var wire 8 A addra [7:0] $end
$var wire 1 % clka $end
$var wire 24 B dina [23:0] $end
$var wire 1 C ena $end
$var wire 1 D regcea $end
$var wire 1 & rsta $end
$var wire 1 E wea $end
$var wire 24 F douta [23:0] $end
$var parameter 128 G INIT_FILE $end
$var parameter 32 H RAM_DEPTH $end
$var parameter 128 I RAM_PERFORMANCE $end
$var parameter 32 J RAM_WIDTH $end
$var reg 24 K ram_data [23:0] $end
$scope function clogb2 $end
$var integer 32 L depth [31:0] $end
$upscope $end
$scope begin output_register $end
$var reg 24 M douta_reg [23:0] $end
$upscope $end
$scope begin use_init_file $end
$upscope $end
$upscope $end
$upscope $end
$upscope $end
$enddefinitions $end
$comment Show the parameter values. $end
$dumpall
b11000 J
b1001000010010010100011101001000010111110101000001000101010100100100011001001111010100100100110101000001010011100100001101000101 I
b100000000 H
b1100100011000010111010001100001001011110111000001100001011011000110010101110100011101000110010100101110011011010110010101101101 G
b1000 =
b1001000010010010100011101001000010111110101000001000101010100100100011001001111010100100100110101000001010011100100001101000101 <
b10000000000000000 ;
b110010001100001011101000110000100101111011010010110110101100001011001110110010100101110011011010110010101101101 :
b100000000 3
b100000000 2
$end
#0
$dumpvars
b0 M
bx L
b0 K
b0 F
0E
1D
1C
b0 B
b0 A
b0 @
bx ?
b0 >
b0 9
08
17
16
b0 5
b111101100000000 4
b0 1
b0 0
b111101100000000 /
b0 .
b0 -
b0 ,
b100000000 +
b100000000 *
b101111100 )
0(
b0 '
0&
0%
b0 $
b0 #
b0 "
b0 !
$end
#5000
b11011 >
b111011111110010011010111 K
1%
#10000
0%
1&
#15000
1%
#20000
0%
0&
#25000
b11011 A
b11011 .
b11011 9
b11011 @
b111011111110010011010111 ,
b111011111110010011010111 F
b111011111110010011010111 M
1%
#30000
0%
#35000
b110011001011101010011110 K
1%
#40000
b111101100000001 /
b111101100000001 4
0%
b1 $
b1 '
#45000
b110011001011101010011110 ,
b110011001011101010011110 F
b110011001011101010011110 M
1%
#50000
b111101100000010 /
b111101100000010 4
0%
b10 $
b10 '
#55000
1%
#60000
b111101100000011 /
b111101100000011 4
0%
b11 $
b11 '
#65000
1%
#70000
b111101100000100 /
b111101100000100 4
0%
b100 $
b100 '
#75000
1%
#80000
b111101100000101 /
b111101100000101 4
0%
b101 $
b101 '
#85000
1%
#90000
b111101100000110 /
b111101100000110 4
0%
b110 $
b110 '
#95000
1%
#100000
b111101100000111 /
b111101100000111 4
0%
b111 $
b111 '
#105000
1%
#110000
b111101100001000 /
b111101100001000 4
0%
b1000 $
b1000 '
#115000
1%
#120000
b111101100001001 /
b111101100001001 4
0%
b1001 $
b1001 '
#125000
1%
#130000
b111101100001010 /
b111101100001010 4
0%
b1010 $
b1010 '
#135000
1%
#140000
b111101100001011 /
b111101100001011 4
0%
b1011 $
b1011 '
#145000
1%
#150000
b111101100001100 /
b111101100001100 4
0%
b1100 $
b1100 '
#155000
1%
#160000
b111101100001101 /
b111101100001101 4
0%
b1101 $
b1101 '
#165000
1%
#170000
b111101100001110 /
b111101100001110 4
0%
b1110 $
b1110 '
#175000
1%
#180000
b111101100001111 /
b111101100001111 4
0%
b1111 $
b1111 '
#185000
1%
#190000
b111101100010000 /
b111101100010000 4
0%
b10000 $
b10000 '
#195000
1%
#200000
b111101100010001 /
b111101100010001 4
0%
b10001 $
b10001 '
#205000
1%
#210000
b111101100010010 /
b111101100010010 4
0%
b10010 $
b10010 '
#215000
1%
#220000
b111101100010011 /
b111101100010011 4
0%
b10011 $
b10011 '
#225000
1%
#230000
b111101100010100 /
b111101100010100 4
0%
b10100 $
b10100 '
#235000
1%
#240000
b111101100010101 /
b111101100010101 4
0%
b10101 $
b10101 '
#245000
1%
#250000
b111101100010110 /
b111101100010110 4
0%
b10110 $
b10110 '
#255000
1%
#260000
b111101100010111 /
b111101100010111 4
0%
b10111 $
b10111 '
#265000
1%
#270000
b111101100011000 /
b111101100011000 4
0%
b11000 $
b11000 '
#275000
1%
#280000
b111101100011001 /
b111101100011001 4
0%
b11001 $
b11001 '
#285000
1%
#290000
b111101100011010 /
b111101100011010 4
0%
b11010 $
b11010 '
#295000
1%
#300000
b111101100011011 /
b111101100011011 4
0%
b11011 $
b11011 '
#305000
1%
#310000
b111101100011100 /
b111101100011100 4
0%
b11100 $
b11100 '
#315000
1%
#320000
b111101100011101 /
b111101100011101 4
0%
b11101 $
b11101 '
#325000
1%
#330000
b111101100011110 /
b111101100011110 4
0%
b11110 $
b11110 '
#335000
1%
#340000
b111101100011111 /
b111101100011111 4
0%
b11111 $
b11111 '
#345000
1%
#350000
b111101100100000 /
b111101100100000 4
0%
b100000 $
b100000 '
#355000
1%
#360000
b111101100100001 /
b111101100100001 4
0%
b100001 $
b100001 '
#365000
1%
#370000
b111101100100010 /
b111101100100010 4
0%
b100010 $
b100010 '
#375000
1%
#380000
b111101100100011 /
b111101100100011 4
0%
b100011 $
b100011 '
#385000
1%
#390000
b111101100100100 /
b111101100100100 4
0%
b100100 $
b100100 '
#395000
1%
#400000
b111101100100101 /
b111101100100101 4
0%
b100101 $
b100101 '
#405000
1%
#410000
b111101100100110 /
b111101100100110 4
0%
b100110 $
b100110 '
#415000
1%
#420000
b111101100100111 /
b111101100100111 4
0%
b100111 $
b100111 '
#425000
1%
#430000
b111101100101000 /
b111101100101000 4
0%
b101000 $
b101000 '
#435000
1%
#440000
b111101100101001 /
b111101100101001 4
0%
b101001 $
b101001 '
#445000
b11100 >
1%
#450000
b111101100101010 /
b111101100101010 4
0%
b101010 $
b101010 '
#455000
b11100 A
b101010 >
b11100 .
b11100 9
b11100 @
1%
#460000
b111101100101011 /
b111101100101011 4
0%
b101011 $
b101011 '
#465000
b101010 A
b101010 .
b101010 9
b101010 @
b1000100 >
b110010111011101010011110 K
1%
#470000
b111101100101100 /
b111101100101100 4
0%
b101100 $
b101100 '
#475000
b1000100 A
b110010101011001110011010 K
b110010111011101010011110 ,
b110010111011101010011110 F
b110010111011101010011110 M
b1010100 >
b1000100 .
b1000100 9
b1000100 @
1%
#480000
b111101100101101 /
b111101100101101 4
0%
b101101 $
b101101 '
#485000
b1010100 A
b1010100 .
b1010100 9
b1010100 @
b1011111 >
b110010101011001110011010 ,
b110010101011001110011010 F
b110010101011001110011010 M
b110000011010101110010001 K
1%
#490000
b111101100101110 /
b111101100101110 4
0%
b101110 $
b101110 '
#495000
b1011111 A
b101110011001111110001001 K
b110000011010101110010001 ,
b110000011010101110010001 F
b110000011010101110010001 M
b1101110 >
b1011111 .
b1011111 9
b1011111 @
1%
#500000
b111101100101111 /
b111101100101111 4
0%
b101111 $
b101111 '
#505000
b1101110 A
b1101110 .
b1101110 9
b1101110 @
b10010010 >
b101110011001111110001001 ,
b101110011001111110001001 F
b101110011001111110001001 M
b101011001001000101111010 K
1%
#510000
b111101100110000 /
b111101100110000 4
0%
b110000 $
b110000 '
#515000
b10010010 A
b101001101000101001110010 K
b101011001001000101111010 ,
b101011001001000101111010 F
b101011001001000101111010 M
b11000101 >
b10010010 .
b10010010 9
b10010010 @
1%
#520000
b111101100110001 /
b111101100110001 4
0%
b110001 $
b110001 '
#525000
b11000101 A
b11000101 .
b11000101 9
b11000101 @
b11010010 >
b101001101000101001110010 ,
b101001101000101001110010 F
b101001101000101001110010 M
b100101010111100001100011 K
1%
#530000
b111101100110010 /
b111101100110010 4
0%
b110010 $
b110010 '
#535000
b11010010 A
b100000110110001101001101 K
b100101010111100001100011 ,
b100101010111100001100011 F
b100101010111100001100011 M
b11010110 >
b11010010 .
b11010010 9
b11010010 @
1%
#540000
b111101100110011 /
b111101100110011 4
0%
b110011 $
b110011 '
#545000
b11010110 A
b11010110 .
b11010110 9
b11010110 @
b11010111 >
b100000110110001101001101 ,
b100000110110001101001101 F
b100000110110001101001101 M
b11101110101011001000001 K
1%
#550000
b111101100110100 /
b111101100110100 4
0%
b110100 $
b110100 '
#555000
b11010111 A
b11001100100101100110111 K
b11101110101011001000001 ,
b11101110101011001000001 F
b11101110101011001000001 M
b11011000 >
b11010111 .
b11010111 9
b11010111 @
1%
#560000
b111101100110101 /
b111101100110101 4
0%
b110101 $
b110101 '
#565000
b11011000 A
b11011000 .
b11011000 9
b11011000 @
b11001100100101100110111 ,
b11001100100101100110111 F
b11001100100101100110111 M
b11001100100011000110100 K
1%
#570000
b111101100110110 /
b111101100110110 4
0%
b110110 $
b110110 '
#575000
b10111000100001100101110 K
b11001100100011000110100 ,
b11001100100011000110100 F
b11001100100011000110100 M
1%
#580000
b111101100110111 /
b111101100110111 4
0%
b110111 $
b110111 '
#585000
b10111000100001100101110 ,
b10111000100001100101110 F
b10111000100001100101110 M
1%
#590000
b111101100111000 /
b111101100111000 4
0%
b111000 $
b111000 '
#595000
1%
#600000
b111101100111001 /
b111101100111001 4
0%
b111001 $
b111001 '
#605000
1%
#610000
b111101100111010 /
b111101100111010 4
0%
b111010 $
b111010 '
#615000
1%
#620000
b111101100111011 /
b111101100111011 4
0%
b111011 $
b111011 '
#625000
1%
#630000
b111101100111100 /
b111101100111100 4
0%
b111100 $
b111100 '
#635000
1%
#640000
b111101100111101 /
b111101100111101 4
0%
b111101 $
b111101 '
#645000
1%
#650000
b111101100111110 /
b111101100111110 4
0%
b111110 $
b111110 '
#655000
1%
#660000
b111101100111111 /
b111101100111111 4
0%
b111111 $
b111111 '
#665000
1%
#670000
b111101101000000 /
b111101101000000 4
0%
b1000000 $
b1000000 '
#675000
1%
#680000
b111101101000001 /
b111101101000001 4
0%
b1000001 $
b1000001 '
#685000
b11011101 >
1%
#690000
b111101101000010 /
b111101101000010 4
0%
b1000010 $
b1000010 '
#695000
b11011101 A
b11011101 .
b11011101 9
b11011101 @
1%
#700000
b111101101000011 /
b111101101000011 4
0%
b1000011 $
b1000011 '
#705000
b10110010011110000101000 K
1%
#710000
b111101101000100 /
b111101101000100 4
0%
b1000100 $
b1000100 '
#715000
b10110010011110000101000 ,
b10110010011110000101000 F
b10110010011110000101000 M
b11011110 >
1%
#720000
b111101101000101 /
b111101101000101 4
0%
b1000101 $
b1000101 '
#725000
b11011110 A
b11011110 .
b11011110 9
b11011110 @
1%
#730000
b111101101000110 /
b111101101000110 4
0%
b1000110 $
b1000110 '
#735000
b10100010011011000100100 K
b11011111 >
1%
#740000
b111101101000111 /
b111101101000111 4
0%
b1000111 $
b1000111 '
#745000
b11011111 A
b11011111 .
b11011111 9
b11011111 @
b10100010011011000100100 ,
b10100010011011000100100 F
b10100010011011000100100 M
1%
#750000
b111101101001000 /
b111101101001000 4
0%
b1001000 $
b1001000 '
#755000
b10100000010111100100010 K
b11100000 >
1%
#760000
b111101101001001 /
b111101101001001 4
0%
b1001001 $
b1001001 '
#765000
b11100000 A
b11100000 .
b11100000 9
b11100000 @
b10100000010111100100010 ,
b10100000010111100100010 F
b10100000010111100100010 M
1%
#770000
b111101101001010 /
b111101101001010 4
0%
b1001010 $
b1001010 '
#775000
b10001010010101100011010 K
1%
#780000
b111101101001011 /
b111101101001011 4
0%
b1001011 $
b1001011 '
#785000
b10001010010101100011010 ,
b10001010010101100011010 F
b10001010010101100011010 M
1%
#790000
b111101101001100 /
b111101101001100 4
0%
b1001100 $
b1001100 '
#795000
b11011110 >
1%
#800000
b111101101001101 /
b111101101001101 4
0%
b1001101 $
b1001101 '
#805000
b11011110 A
b11011110 .
b11011110 9
b11011110 @
b11011101 >
1%
#810000
b111101101001110 /
b111101101001110 4
0%
b1001110 $
b1001110 '
#815000
b11011101 A
b10100010011011000100100 K
b11010111 >
b11011101 .
b11011101 9
b11011101 @
1%
#820000
b111101101001111 /
b111101101001111 4
0%
b1001111 $
b1001111 '
#825000
b11010111 A
b11010111 .
b11010111 9
b11010111 @
b11010110 >
b10100010011011000100100 ,
b10100010011011000100100 F
b10100010011011000100100 M
b10110010011110000101000 K
1%
#830000
b111101101010000 /
b111101101010000 4
0%
b1010000 $
b1010000 '
#835000
b11010110 A
b11001100100011000110100 K
b10110010011110000101000 ,
b10110010011110000101000 F
b10110010011110000101000 M
b11010010 >
b11010110 .
b11010110 9
b11010110 @
1%
#840000
b111101101010001 /
b111101101010001 4
0%
b1010001 $
b1010001 '
#845000
b11010010 A
b11010010 .
b11010010 9
b11010010 @
b11001111 >
b11001100100011000110100 ,
b11001100100011000110100 F
b11001100100011000110100 M
b11001100100101100110111 K
1%
#850000
b111101101010010 /
b111101101010010 4
0%
b1010010 $
b1010010 '
#855000
b11001111 A
b11101110101011001000001 K
b11001100100101100110111 ,
b11001100100101100110111 F
b11001100100101100110111 M
b11000101 >
b11001111 .
b11001111 9
b11001111 @
1%
#860000
b111101101010011 /
b111101101010011 4
0%
b1010011 $
b1010011 '
#865000
b11000101 A
b11000101 .
b11000101 9
b11000101 @
b10101101 >
b11101110101011001000001 ,
b11101110101011001000001 F
b11101110101011001000001 M
b11110110101110101000110 K
1%
#870000
b111101101010100 /
b111101101010100 4
0%
b1010100 $
b1010100 '
#875000
b10101101 A
b100000110110001101001101 K
b11110110101110101000110 ,
b11110110101110101000110 F
b11110110101110101000110 M
b10011100 >
b10101101 .
b10101101 9
b10101101 @
1%
#880000
b111101101010101 /
b111101101010101 4
0%
b1010101 $
b1010101 '
#885000
b10011100 A
b10011100 .
b10011100 9
b10011100 @
b10001100 >
b100000110110001101001101 ,
b100000110110001101001101 F
b100000110110001101001101 M
b100010100110101101010101 K
1%
#890000
b111101101010110 /
b111101101010110 4
0%
b1010110 $
b1010110 '
#895000
b10001100 A
b100100100111001101011100 K
b100010100110101101010101 ,
b100010100110101101010101 F
b100010100110101101010101 M
b10000010 >
b10001100 .
b10001100 9
b10001100 @
1%
#900000
b111101101010111 /
b111101101010111 4
0%
b1010111 $
b1010111 '
#905000
b10000010 A
b10000010 .
b10000010 9
b10000010 @
b1111010 >
b100100100111001101011100 ,
b100100100111001101011100 F
b100100100111001101011100 M
b100110000111100101100001 K
1%
#910000
b111101101011000 /
b111101101011000 4
0%
b1011000 $
b1011000 '
#915000
b1111010 A
b100111100111111101100100 K
b100110000111100101100001 ,
b100110000111100101100001 F
b100110000111100101100001 M
b1110110 >
b1111010 .
b1111010 9
b1111010 @
1%
#920000
b111101101011001 /
b111101101011001 4
0%
b1011001 $
b1011001 '
#925000
b1110110 A
b1110110 .
b1110110 9
b1110110 @
b1110101 >
b100111100111111101100100 ,
b100111100111111101100100 F
b100111100111111101100100 M
b101000011000001101101000 K
1%
#930000
b111101101011010 /
b111101101011010 4
0%
b1011010 $
b1011010 '
#935000
b1110101 A
b101000111000010101101100 K
b101000011000001101101000 ,
b101000011000001101101000 F
b101000011000001101101000 M
b1110101 .
b1110101 9
b1110101 @
1%
#940000
b111101101011011 /
b111101101011011 4
0%
b1011011 $
b1011011 '
#945000
b1111001 >
b101000111000010101101100 ,
b101000111000010101101100 F
b101000111000010101101100 M
b101000111000011001101110 K
1%
#950000
b111101101011100 /
b111101101011100 4
0%
b1011100 $
b1011100 '
#955000
b1111001 A
b101000111000011001101110 ,
b101000111000011001101110 F
b101000111000011001101110 M
b1111001 .
b1111001 9
b1111001 @
1%
#960000
b111101101011101 /
b111101101011101 4
0%
b1011101 $
b1011101 '
#965000
b10000001 >
b101000011000001001101101 K
1%
#970000
b111101101011110 /
b111101101011110 4
0%
b1011110 $
b1011110 '
#975000
b10000001 A
b101000011000001001101101 ,
b101000011000001001101101 F
b101000011000001001101101 M
b10000111 >
b10000001 .
b10000001 9
b10000001 @
1%
#980000
b111101101011111 /
b111101101011111 4
0%
b1011111 $
b1011111 '
#985000
b10000111 A
b10000111 .
b10000111 9
b10000111 @
b10001000 >
b100111100111111001101001 K
1%
#990000
b111101101100000 /
b111101101100000 4
0%
b1100000 $
b1100000 '
#995000
b10001000 A
b100111000111110001100111 K
b100111100111111001101001 ,
b100111100111111001101001 F
b100111100111111001101001 M
b10001100 >
b10001000 .
b10001000 9
b10001000 @
1%
#1000000
b111101101100001 /
b111101101100001 4
0%
b1100001 $
b1100001 '
#1005000
b10001100 A
b10001100 .
b10001100 9
b10001100 @
b10011000 >
b100111000111110001100111 ,
b100111000111110001100111 F
b100111000111110001100111 M
b100110110111101101100111 K
1%
#1010000
b111101101100010 /
b111101101100010 4
0%
b1100010 $
b1100010 '
#1015000
b10011000 A
b100110000111100101100001 K
b100110110111101101100111 ,
b100110110111101101100111 F
b100110110111101101100111 M
b10011111 >
b10011000 .
b10011000 9
b10011000 @
1%
#1020000
b111101101100011 /
b111101101100011 4
0%
b1100011 $
b1100011 '
#1025000
b10011111 A
b10011111 .
b10011111 9
b10011111 @
b100110000111100101100001 ,
b100110000111100101100001 F
b100110000111100101100001 M
b100101010111010001100001 K
1%
#1030000
b111101101100100 /
b111101101100100 4
0%
b1100100 $
b1100100 '
#1035000
b100101010111000101011100 K
b100101010111010001100001 ,
b100101010111010001100001 F
b100101010111010001100001 M
b10100100 >
1%
#1040000
b111101101100101 /
b111101101100101 4
0%
b1100101 $
b1100101 '
#1045000
b10100100 A
b10100100 .
b10100100 9
b10100100 @
b100101010111000101011100 ,
b100101010111000101011100 F
b100101010111000101011100 M
1%
#1050000
b111101101100110 /
b111101101100110 4
0%
b1100110 $
b1100110 '
#1055000
b100100010110111001011100 K
1%
#1060000
b111101101100111 /
b111101101100111 4
0%
b1100111 $
b1100111 '
#1065000
b10101100 >
b100100010110111001011100 ,
b100100010110111001011100 F
b100100010110111001011100 M
1%
#1070000
b111101101101000 /
b111101101101000 4
0%
b1101000 $
b1101000 '
#1075000
b10101100 A
b11000100 >
b10101100 .
b10101100 9
b10101100 @
1%
#1080000
b111101101101001 /
b111101101101001 4
0%
b1101001 $
b1101001 '
#1085000
b11000100 A
b11000100 .
b11000100 9
b11000100 @
b11010101 >
b100010100110101001011011 K
1%
#1090000
b111101101101010 /
b111101101101010 4
0%
b1101010 $
b1101010 '
#1095000
b11010101 A
b100001000110010001010011 K
b100010100110101001011011 ,
b100010100110101001011011 F
b100010100110101001011011 M
b11011010 >
b11010101 .
b11010101 9
b11010101 @
1%
#1100000
b111101101101011 /
b111101101101011 4
0%
b1101011 $
b1101011 '
#1105000
b11011010 A
b11011010 .
b11011010 9
b11011010 @
b11011111 >
b100001000110010001010011 ,
b100001000110010001010011 F
b100001000110010001010011 M
b11011100101000100111101 K
1%
#1110000
b111101101101100 /
b111101101101100 4
0%
b1101100 $
b1101100 '
#1115000
b11011111 A
b11001100011110000110010 K
b11011100101000100111101 ,
b11011100101000100111101 F
b11011100101000100111101 M
b11100100 >
b11011111 .
b11011111 9
b11011111 @
1%
#1120000
b111101101101101 /
b111101101101101 4
0%
b1101101 $
b1101101 '
#1125000
b11100100 A
b11100100 .
b11100100 9
b11100100 @
b11101000 >
b11001100011110000110010 ,
b11001100011110000110010 F
b11001100011110000110010 M
b10100000010111100100010 K
1%
#1130000
b111101101101110 /
b111101101101110 4
0%
b1101110 $
b1101110 '
#1135000
b11101000 A
b10001110010000000011000 K
b10100000010111100100010 ,
b10100000010111100100010 F
b10100000010111100100010 M
b11110010 >
b11101000 .
b11101000 9
b11101000 @
1%
#1140000
b111101101101111 /
b111101101101111 4
0%
b1101111 $
b1101111 '
#1145000
b11110010 A
b11110010 .
b11110010 9
b11110010 @
b11110111 >
b10001110010000000011000 ,
b10001110010000000011000 F
b10001110010000000011000 M
b1110100001010100010010 K
1%
#1150000
b111101101110000 /
b111101101110000 4
0%
b1110000 $
b1110000 '
#1155000
b11110111 A
b1100110001000100001111 K
b1110100001010100010010 ,
b1110100001010100010010 F
b1110100001010100010010 M
b11111001 >
b11110111 .
b11110111 9
b11110111 @
1%
#1160000
b111101101110001 /
b111101101110001 4
0%
b1110001 $
b1110001 '
#1165000
b11111001 A
b11111001 .
b11111001 9
b11111001 @
b1100110001000100001111 ,
b1100110001000100001111 F
b1100110001000100001111 M
b1011000000110100001001 K
1%
#1170000
b111101101110010 /
b111101101110010 4
0%
b1110010 $
b1110010 '
#1175000
b1010010000101000000101 K
b1011000000110100001001 ,
b1011000000110100001001 F
b1011000000110100001001 M
1%
#1180000
b111101101110011 /
b111101101110011 4
0%
b1110011 $
b1110011 '
#1185000
b1010010000101000000101 ,
b1010010000101000000101 F
b1010010000101000000101 M
1%
#1190000
b111101101110100 /
b111101101110100 4
0%
b1110100 $
b1110100 '
#1195000
1%
#1200000
b111101101110101 /
b111101101110101 4
0%
b1110101 $
b1110101 '
#1205000
1%
#1210000
b111101101110110 /
b111101101110110 4
0%
b1110110 $
b1110110 '
#1215000
1%
#1220000
b111101101110111 /
b111101101110111 4
0%
b1110111 $
b1110111 '
#1225000
1%
#1230000
b111101101111000 /
b111101101111000 4
0%
b1111000 $
b1111000 '
#1235000
b11111000 >
1%
#1240000
b111101101111001 /
b111101101111001 4
0%
b1111001 $
b1111001 '
#1245000
b11111000 A
b11111000 .
b11111000 9
b11111000 @
1%
#1250000
b111101101111010 /
b111101101111010 4
0%
b1111010 $
b1111010 '
#1255000
b1010100000101100000111 K
1%
#1260000
b111101101111011 /
b111101101111011 4
0%
b1111011 $
b1111011 '
#1265000
b11110111 >
b1010100000101100000111 ,
b1010100000101100000111 F
b1010100000101100000111 M
1%
#1270000
b111101101111100 /
b111101101111100 4
0%
b1111100 $
b1111100 '
#1275000
b11110111 A
b11110111 .
b11110111 9
b11110111 @
1%
#1280000
b111101101111101 /
b111101101111101 4
0%
b1111101 $
b1111101 '
#1285000
b1011000000110100001001 K
1%
#1290000
b111101101111110 /
b111101101111110 4
0%
b1111110 $
b1111110 '
#1295000
b1011000000110100001001 ,
b1011000000110100001001 F
b1011000000110100001001 M
b11110101 >
1%
#1300000
b111101101111111 /
b111101101111111 4
0%
b1111111 $
b1111111 '
#1305000
b11110101 A
b11110101 .
b11110101 9
b11110101 @
b11110110 >
1%
#1310000
b111101110000000 /
b111101110000000 4
0%
b10000000 $
b10000000 '
#1315000
b11110110 A
b1100000000111100001100 K
b11110110 .
b11110110 9
b11110110 @
1%
#1320000
b111101110000001 /
b111101110000001 4
0%
b10000001 $
b10000001 '
#1325000
b1100000000111100001100 ,
b1100000000111100001100 F
b1100000000111100001100 M
b1011100000111000001011 K
1%
#1330000
b111101110000010 /
b111101110000010 4
0%
b10000010 $
b10000010 '
#1335000
b1011100000111000001011 ,
b1011100000111000001011 F
b1011100000111000001011 M
1%
#1340000
b111101110000011 /
b111101110000011 4
0%
b10000011 $
b10000011 '
#1345000
1%
#1350000
b111101110000100 /
b111101110000100 4
0%
b10000100 $
b10000100 '
#1355000
b11110101 >
1%
#1360000
b111101110000101 /
b111101110000101 4
0%
b10000101 $
b10000101 '
#1365000
b11110101 A
b11110101 .
b11110101 9
b11110101 @
1%
#1370000
b111101110000110 /
b111101110000110 4
0%
b10000110 $
b10000110 '
#1375000
b1100000000111100001100 K
1%
#1380000
b111101110000111 /
b111101110000111 4
0%
b10000111 $
b10000111 '
#1385000
b11110100 >
b1100000000111100001100 ,
b1100000000111100001100 F
b1100000000111100001100 M
1%
#1390000
b111101110001000 /
b111101110001000 4
0%
b10001000 $
b10001000 '
#1395000
b11110100 A
b11110001 >
b11110100 .
b11110100 9
b11110100 @
1%
#1400000
b111101110001001 /
b111101110001001 4
0%
b10001001 $
b10001001 '
#1405000
b11110001 A
b11110001 .
b11110001 9
b11110001 @
b11110100 >
b1100100001000000001110 K
1%
#1410000
b111101110001010 /
b111101110001010 4
0%
b10001010 $
b10001010 '
#1415000
b11110100 A
b1100110001000100010000 K
b1100100001000000001110 ,
b1100100001000000001110 F
b1100100001000000001110 M
b11110100 .
b11110100 9
b11110100 @
1%
#1420000
b111101110001011 /
b111101110001011 4
0%
b10001011 $
b10001011 '
#1425000
b1100110001000100010000 ,
b1100110001000100010000 F
b1100110001000100010000 M
b1100100001000000001110 K
1%
#1430000
b111101110001100 /
b111101110001100 4
0%
b10001100 $
b10001100 '
#1435000
b1100100001000000001110 ,
b1100100001000000001110 F
b1100100001000000001110 M
b11110001 >
1%
#1440000
b111101110001101 /
b111101110001101 4
0%
b10001101 $
b10001101 '
#1445000
b11110001 A
b11110001 .
b11110001 9
b11110001 @
1%
#1450000
b111101110001110 /
b111101110001110 4
0%
b10001110 $
b10001110 '
#1455000
b1100110001000100010000 K
1%
#1460000
b111101110001111 /
b111101110001111 4
0%
b10001111 $
b10001111 '
#1465000
b1100110001000100010000 ,
b1100110001000100010000 F
b1100110001000100010000 M
1%
#1470000
b111101110010000 /
b111101110010000 4
0%
b10010000 $
b10010000 '
#1475000
1%
#1480000
b111101110010001 /
b111101110010001 4
0%
b10010001 $
b10010001 '
#1485000
1%
#1490000
b111101110010010 /
b111101110010010 4
0%
b10010010 $
b10010010 '
#1495000
b11110100 >
1%
#1500000
b111101110010011 /
b111101110010011 4
0%
b10010011 $
b10010011 '
#1505000
b11110100 A
b11110100 .
b11110100 9
b11110100 @
b11110001 >
1%
#1510000
b111101110010100 /
b111101110010100 4
0%
b10010100 $
b10010100 '
#1515000
b11110001 A
b1100100001000000001110 K
b11110001 .
b11110001 9
b11110001 @
1%
#1520000
b111101110010101 /
b111101110010101 4
0%
b10010101 $
b10010101 '
#1525000
b1100100001000000001110 ,
b1100100001000000001110 F
b1100100001000000001110 M
b1100110001000100010000 K
1%
#1530000
b111101110010110 /
b111101110010110 4
0%
b10010110 $
b10010110 '
#1535000
b1100110001000100010000 ,
b1100110001000100010000 F
b1100110001000100010000 M
b11110100 >
1%
#1540000
b111101110010111 /
b111101110010111 4
0%
b10010111 $
b10010111 '
#1545000
b11110100 A
b11110100 .
b11110100 9
b11110100 @
1%
#1550000
b111101110011000 /
b111101110011000 4
0%
b10011000 $
b10011000 '
#1555000
b1100100001000000001110 K
1%
#1560000
b111101110011001 /
b111101110011001 4
0%
b10011001 $
b10011001 '
#1565000
b11110001 >
b1100100001000000001110 ,
b1100100001000000001110 F
b1100100001000000001110 M
1%
#1570000
b111101110011010 /
b111101110011010 4
0%
b10011010 $
b10011010 '
#1575000
b11110001 A
b11110001 .
b11110001 9
b11110001 @
1%
#1580000
b111101110011011 /
b111101110011011 4
0%
b10011011 $
b10011011 '
#1585000
b1100110001000100010000 K
1%
#1590000
b111101110011100 /
b111101110011100 4
0%
b10011100 $
b10011100 '
#1595000
b1100110001000100010000 ,
b1100110001000100010000 F
b1100110001000100010000 M
1%
#1600000
b111101110011101 /
b111101110011101 4
0%
b10011101 $
b10011101 '
#1605000
b11110000 >
1%
#1610000
b111101110011110 /
b111101110011110 4
0%
b10011110 $
b10011110 '
#1615000
b11110000 A
b11110000 .
b11110000 9
b11110000 @
1%
#1620000
b111101110011111 /
b111101110011111 4
0%
b10011111 $
b10011111 '
#1625000
b1101000001000100010000 K
1%
#1630000
b111101110100000 /
b111101110100000 4
0%
b10100000 $
b10100000 '
#1635000
b1101000001000100010000 ,
b1101000001000100010000 F
b1101000001000100010000 M
1%
#1640000
b111101110100001 /
b111101110100001 4
0%
b10100001 $
b10100001 '
#1645000
b11101110 >
1%
#1650000
b111101110100010 /
b111101110100010 4
0%
b10100010 $
b10100010 '
#1655000
b11101110 A
b11110000 >
b11101110 .
b11101110 9
b11101110 @
1%
#1660000
b111101110100011 /
b111101110100011 4
0%
b10100011 $
b10100011 '
#1665000
b11110000 A
b11110000 .
b11110000 9
b11110000 @
b1101100001001000010000 K
1%
#1670000
b111101110100100 /
b111101110100100 4
0%
b10100100 $
b10100100 '
#1675000
b1101000001000100010000 K
b1101100001001000010000 ,
b1101100001001000010000 F
b1101100001001000010000 M
1%
#1680000
b111101110100101 /
b111101110100101 4
0%
b10100101 $
b10100101 '
#1685000
b1101000001000100010000 ,
b1101000001000100010000 F
b1101000001000100010000 M
1%
#1690000
b111101110100110 /
b111101110100110 4
0%
b10100110 $
b10100110 '
#1695000
b11110001 >
1%
#1700000
b111101110100111 /
b111101110100111 4
0%
b10100111 $
b10100111 '
#1705000
b11110001 A
b11110001 .
b11110001 9
b11110001 @
1%
#1710000
b111101110101000 /
b111101110101000 4
0%
b10101000 $
b10101000 '
#1715000
b1100110001000100010000 K
b11110000 >
1%
