Archives/Week 2/lab02/sim/spi_rx.vcd
$date
	Wed Sep 13 21:05:47 2023
$end
$version
	Icarus Verilog
$end
$timescale
	1ps
$end
$scope module spi_rx_tb $end
$var wire 1 ! sel_out $end
$var wire 1 " s_sel_out $end
$var wire 1 # s_data_out $end
$var wire 1 $ s_data_clk_out $end
$var wire 16 % rx_out [15:0] $end
$var wire 1 & new_data_out $end
$var wire 1 ' data_out $end
$var wire 1 ( data_clk_out $end
$var reg 1 ) clk_in $end
$var reg 16 * data_in [15:0] $end
$var reg 32 + data_period_in [31:0] $end
$var reg 1 , rst_in $end
$var reg 1 - trigger_in $end
$scope module s1 $end
$var wire 1 ) clk_in $end
$var wire 1 , rst_in $end
$var wire 1 ' us_in $end
$var wire 1 # s_out $end
$var reg 2 . sync [1:0] $end
$scope begin $ivl_for_loop2 $end
$var integer 32 / i [31:0] $end
$upscope $end
$upscope $end
$scope module s2 $end
$var wire 1 ) clk_in $end
$var wire 1 , rst_in $end
$var wire 1 ( us_in $end
$var wire 1 $ s_out $end
$var reg 2 0 sync [1:0] $end
$scope begin $ivl_for_loop2 $end
$var integer 32 1 i [31:0] $end
$upscope $end
$upscope $end
$scope module s3 $end
$var wire 1 ) clk_in $end
$var wire 1 , rst_in $end
$var wire 1 ! us_in $end
$var wire 1 " s_out $end
$var reg 2 2 sync [1:0] $end
$scope begin $ivl_for_loop2 $end
$var integer 32 3 i [31:0] $end
$upscope $end
$upscope $end
$scope module uut $end
$var wire 1 ) clk_in $end
$var wire 16 4 data_in [15:0] $end
$var wire 1 , rst_in $end
$var wire 1 ! sel_out $end
$var wire 1 - trigger_in $end
$var wire 1 ' data_out $end
$var reg 4 5 bit_counter [3:0] $end
$var reg 4 6 bit_dur_counter [3:0] $end
$var reg 16 7 data_buffer [15:0] $end
$var reg 1 ( data_clk_out $end
$var reg 1 8 status $end
$upscope $end
$scope module uut2 $end
$var wire 1 ) clk_in $end
$var wire 1 $ data_clk_in $end
$var wire 1 # data_in $end
$var wire 1 , rst_in $end
$var wire 1 " sel_in $end
$var reg 5 9 bit_counter [4:0] $end
$var reg 16 : data_buffer [15:0] $end
$var reg 16 ; data_out [15:0] $end
$var reg 1 & new_data_out $end
$var reg 1 < old_data_clk $end
$var reg 1 = status $end
$upscope $end
$scope begin $ivl_for_loop0 $end
$var integer 32 > i [31:0] $end
$upscope $end
$scope begin $ivl_for_loop1 $end
$var integer 32 ? i [31:0] $end
$upscope $end
$upscope $end
$enddefinitions $end
#0
$dumpvars
b0 ?
b0 >
x=
x<
bx ;
bx :
bx 9
x8
bx 7
bx 6
bx 5
b1011111011101111 4
b0 3
bx 2
b0 1
bx 0
b0 /
bx .
0-
0,
b1010 +
b1011111011101111 *
0)
x(
x'
x&
bx %
x$
x#
x"
x!
$end
#5000
b10 3
b10 1
b10 /
1)
#10000
0)
1,
#15000
1!
1'
0=
b0 %
b0 ;
0&
b0 9
b0 :
b0 5
b0 6
0(
08
b1111111111111111 7
1)
#20000
0)
0,
#25000
b1x 2
b0x 0
b1x .
b10 /
b10 1
b10 3
1)
#30000
0)
#35000
1#
0$
1"
b11 .
b0 0
b11 2
b10 /
b10 1
b10 3
1)
#40000
0)
#45000
0<
b10 /
b10 1
b10 3
1)
#50000
0)
#55000
b10 /
b10 1
b10 3
1)
#60000
0)
#65000
b10 /
b10 1
b10 3
1)
#70000
0)
#75000
b10 /
b10 1
b10 3
1)
#80000
0)
#85000
b10 /
b10 1
b10 3
1)
#90000
0)
#95000
b10 /
b10 1
b10 3
1)
#100000
0)
#105000
b10 /
b10 1
b10 3
1)
#110000
0)
#115000
b10 /
b10 1
b10 3
1)
#120000
0)
#125000
b10 /
b10 1
b10 3
1)
#130000
0)
#135000
b10 /
b10 1
b10 3
1)
#140000
0)
#145000
b10 /
b10 1
b10 3
1)
#150000
0)
#155000
b10 /
b10 1
b10 3
1)
#160000
0)
#165000
b10 /
b10 1
b10 3
1)
#170000
0)
#175000
b10 /
b10 1
b10 3
1)
#180000
0)
#185000
b10 /
b10 1
b10 3
1)
#190000
0)
#195000
b10 /
b10 1
b10 3
1)
#200000
0)
#205000
b10 /
b10 1
b10 3
1)
#210000
0)
#215000
b10 /
b10 1
b10 3
1)
#220000
0)
#225000
b10 /
b10 1
b10 3
1)
#230000
0)
#235000
b10 /
b10 1
b10 3
1)
#240000
0)
#245000
b10 /
b10 1
b10 3
1)
#250000
0)
#255000
b10 /
b10 1
b10 3
1)
#260000
0)
#265000
b10 /
b10 1
b10 3
1)
#270000
0)
#275000
b10 /
b10 1
b10 3
1)
#280000
0)
#285000
b10 /
b10 1
b10 3
1)
#290000
0)
#295000
b10 /
b10 1
b10 3
1)
#300000
0)
#305000
b10 /
b10 1
b10 3
1)
#310000
0)
#315000
b10 /
b10 1
b10 3
1)
#320000
0)
#325000
b10 /
b10 1
b10 3
1)
#330000
0)
#335000
b10 /
b10 1
b10 3
1)
#340000
0)
#345000
b10 /
b10 1
b10 3
1)
#350000
0)
#355000
b10 /
b10 1
b10 3
1)
#360000
0)
#365000
b10 /
b10 1
b10 3
1)
#370000
0)
#375000
b10 /
b10 1
b10 3
1)
#380000
0)
#385000
b10 /
b10 1
b10 3
1)
#390000
0)
#395000
b10 /
b10 1
b10 3
1)
#400000
0)
#405000
b10 /
b10 1
b10 3
1)
#410000
0)
#415000
b10 /
b10 1
b10 3
1)
#420000
0)
#425000
b10 /
b10 1
b10 3
1)
#430000
0)
#435000
b10 /
b10 1
b10 3
1)
#440000
0)
#445000
b10 /
b10 1
b10 3
1)
#450000
0)
#455000
b10 /
b10 1
b10 3
1)
#460000
0)
#465000
b10 /
b10 1
b10 3
1)
#470000
0)
#475000
b10 /
b10 1
b10 3
1)
#480000
0)
#485000
b10 /
b10 1
b10 3
1)
#490000
0)
#495000
b10 /
b10 1
b10 3
1)
#500000
0)
#505000
b10 /
b10 1
b10 3
1)
#510000
0)
#515000
b10 /
b10 1
b10 3
1)
#520000
0)
1-
#525000
0!
18
b1011111011101111 7
b10 /
b10 1
b10 3
1)
#530000
0)
0-
#535000
b1 6
b1 2
b10 /
b10 1
b10 3
1)
#540000
0)
b1 >
#545000
0"
b0 2
b10 6
b10 /
b10 1
b10 3
1)
#550000
0)
b10 >
#555000
b11 6
b10 /
b10 1
b10 3
1)
#560000
0)
b11 >
#565000
b100 6
b10 /
b10 1
b10 3
1)
#570000
0)
b100 >
#575000
b101 6
1(
b10 /
b10 1
b10 3
1)
#580000
0)
b101 >
#585000
b110 6
b10 0
b10 /
b10 1
b10 3
1)
#590000
0)
b110 >
#595000
1$
b11 0
b111 6
b10 /
b10 1
b10 3
1)
#600000
0)
b111 >
#605000
b1000 6
1<
b1 9
1=
b1 :
b10 /
b10 1
b10 3
1)
#610000
0)
b1000 >
#615000
b1001 6
b10 /
b10 1
b10 3
1)
#620000
0)
b1001 >
#625000
0'
b111110111011110 7
b0 6
0(
b1 5
b10 /
b10 1
b10 3
1)
#630000
0)
b1010 >
#635000
b1 6
b1 0
b1 .
b10 /
b10 1
b10 3
1)
#640000
0)
b1011 >
#645000
0#
0$
b0 .
b0 0
b10 6
b10 /
b10 1
b10 3
1)
#650000
0)
b1100 >
#655000
0<
b11 6
b10 /
b10 1
b10 3
1)
#660000
0)
b1101 >
#665000
b100 6
b10 /
b10 1
b10 3
1)
#670000
0)
b1110 >
#675000
b101 6
1(
b10 /
b10 1
b10 3
1)
#680000
0)
b1111 >
#685000
b110 6
b10 0
b10 /
b10 1
b10 3
1)
#690000
0)
b10000 >
#695000
1$
b11 0
b111 6
b10 /
b10 1
b10 3
1)
#700000
0)
b10001 >
#705000
b1000 6
1<
b10 9
b10 :
b10 /
b10 1
b10 3
1)
#710000
0)
b10010 >
#715000
b1001 6
b10 /
b10 1
b10 3
1)
#720000
0)
b10011 >
#725000
1'
b1111101110111100 7
b0 6
0(
b10 5
b10 /
b10 1
b10 3
1)
#730000
0)
b10100 >
#735000
b1 6
b1 0
b10 .
b10 /
b10 1
b10 3
1)
#740000
0)
b10101 >
#745000
1#
0$
b11 .
b0 0
b10 6
b10 /
b10 1
b10 3
1)
#750000
0)
b10110 >
#755000
0<
b11 6
b10 /
b10 1
b10 3
1)
#760000
0)
b10111 >
#765000
b100 6
b10 /
b10 1
b10 3
1)
#770000
0)
b11000 >
#775000
b101 6
1(
b10 /
b10 1
b10 3
1)
#780000
0)
b11001 >
#785000
b110 6
b10 0
b10 /
b10 1
b10 3
1)
#790000
0)
b11010 >
#795000
1$
b11 0
b111 6
b10 /
b10 1
b10 3
1)
#800000
0)
b11011 >
#805000
b1000 6
1<
b11 9
b101 :
b10 /
b10 1
b10 3
1)
#810000
0)
b11100 >
#815000
b1001 6
b10 /
b10 1
b10 3
1)
#820000
0)
b11101 >
#825000
b1111011101111000 7
b0 6
0(
b11 5
b10 /
b10 1
b10 3
1)
#830000
0)
b11110 >
#835000
b1 6
b1 0
b10 /
b10 1
b10 3
1)
#840000
0)
b11111 >
#845000
0$
b0 0
b10 6
b10 /
b10 1
b10 3
1)
#850000
0)
b100000 >
#855000
0<
b11 6
b10 /
b10 1
b10 3
1)
#860000
0)
b100001 >
#865000
b100 6
b10 /
b10 1
b10 3
1)
#870000
0)
b100010 >
#875000
b101 6
1(
b10 /
b10 1
b10 3
1)
#880000
0)
b100011 >
#885000
b110 6
b10 0
b10 /
b10 1
b10 3
1)
#890000
0)
b100100 >
#895000
1$
b11 0
b111 6
b10 /
b10 1
b10 3
1)
#900000
0)
b100101 >
#905000
b1000 6
1<
b100 9
b1011 :
b10 /
b10 1
b10 3
1)
#910000
0)
b100110 >
#915000
b1001 6
b10 /
b10 1
b10 3
1)
#920000
0)
b100111 >
#925000
b1110111011110000 7
b0 6
0(
b100 5
b10 /
b10 1
b10 3
1)
#930000
0)
b101000 >
#935000
b1 6
b1 0
b10 /
b10 1
b10 3
1)
#940000
0)
b101001 >
#945000
0$
b0 0
b10 6
b10 /
b10 1
b10 3
1)
#950000
0)
b101010 >
#955000
0<
b11 6
b10 /
b10 1
b10 3
1)
#960000
0)
b101011 >
#965000
b100 6
b10 /
b10 1
b10 3
1)
#970000
0)
b101100 >
#975000
b101 6
1(
b10 /
b10 1
b10 3
1)
#980000
0)
b101101 >
#985000
b110 6
b10 0
b10 /
b10 1
b10 3
1)
#990000
0)
b101110 >
#995000
1$
b11 0
b111 6
b10 /
b10 1
b10 3
1)
#1000000
0)
b101111 >
#1005000
b1000 6
1<
b101 9
b10111 :
b10 /
b10 1
b10 3
1)
#1010000
0)
b110000 >
#1015000
b1001 6
b10 /
b10 1
b10 3
1)
#1020000
0)
b110001 >
#1025000
b1101110111100000 7
b0 6
0(
b101 5
b10 /
b10 1
b10 3
1)
#1030000
0)
b110010 >
#1035000
b1 6
b1 0
b10 /
b10 1
b10 3
1)
#1040000
0)
b110011 >
#1045000
0$
b0 0
b10 6
b10 /
b10 1
b10 3
1)
#1050000
0)
b110100 >
#1055000
0<
b11 6
b10 /
b10 1
b10 3
1)
#1060000
0)
b110101 >
#1065000
b100 6
b10 /
b10 1
b10 3
1)
#1070000
0)
b110110 >
#1075000
b101 6
1(
b10 /
b10 1
b10 3
1)
#1080000
0)
b110111 >
#1085000
b110 6
b10 0
b10 /
b10 1
b10 3
1)
#1090000
0)
b111000 >
#1095000
1$
b11 0
b111 6
b10 /
b10 1
b10 3
1)
#1100000
0)
b111001 >
#1105000
b1000 6
1<
b110 9
b101111 :
b10 /
b10 1
b10 3
1)
#1110000
0)
b111010 >
#1115000
b1001 6
b10 /
b10 1
b10 3
1)
#1120000
0)
b111011 >
#1125000
b1011101111000000 7
b0 6
0(
b110 5
b10 /
b10 1
b10 3
1)
#1130000
0)
b111100 >
#1135000
b1 6
b1 0
b10 /
b10 1
b10 3
1)
#1140000
0)
b111101 >
#1145000
0$
b0 0
b10 6
b10 /
b10 1
b10 3
1)
#1150000
0)
b111110 >
#1155000
0<
b11 6
b10 /
b10 1
b10 3
1)
#1160000
0)
b111111 >
#1165000
b100 6
b10 /
b10 1
b10 3
1)
#1170000
0)
b1000000 >
#1175000
b101 6
1(
b10 /
b10 1
b10 3
1)
#1180000
0)
b1000001 >
#1185000
b110 6
b10 0
b10 /
b10 1
b10 3
1)
#1190000
0)
b1000010 >
#1195000
1$
b11 0
b111 6
b10 /
b10 1
b10 3
1)
#1200000
0)
b1000011 >
#1205000
b1000 6
1<
b111 9
b1011111 :
b10 /
b10 1
b10 3
1)
#1210000
0)
b1000100 >
#1215000
b1001 6
b10 /
b10 1
b10 3
1)
#1220000
0)
b1000101 >
#1225000
0'
b111011110000000 7
b0 6
0(
b111 5
b10 /
b10 1
b10 3
1)
#1230000
0)
b1000110 >
#1235000
b1 6
b1 0
b1 .
b10 /
b10 1
b10 3
1)
#1240000
0)
b1000111 >
#1245000
0#
0$
b0 .
b0 0
b10 6
b10 /
b10 1
b10 3
1)
#1250000
0)
b1001000 >
#1255000
0<
b11 6
b10 /
b10 1
b10 3
1)
#1260000
0)
b1001001 >
#1265000
b100 6
b10 /
b10 1
b10 3
1)
#1270000
0)
b1001010 >
#1275000
b101 6
1(
b10 /
b10 1
b10 3
1)
#1280000
0)
b1001011 >
#1285000
b110 6
b10 0
b10 /
b10 1
b10 3
1)
#1290000
0)
b1001100 >
#1295000
1$
b11 0
b111 6
b10 /
b10 1
b10 3
1)
#1300000
0)
b1001101 >
#1305000
b1000 6
1<
b1000 9
b10111110 :
b10 /
b10 1
b10 3
1)
#1310000
0)
b1001110 >
#1315000
b1001 6
b10 /
b10 1
b10 3
1)
#1320000
0)
b1001111 >
#1325000
1'
b1110111100000000 7
b0 6
0(
b1000 5
b10 /
b10 1
b10 3
1)
#1330000
0)
b1010000 >
#1335000
b1 6
b1 0
b10 .
b10 /
b10 1
b10 3
1)
#1340000
0)
b1010001 >
#1345000
1#
0$
b11 .
b0 0
b10 6
b10 /
b10 1
b10 3
1)
#1350000
0)
b1010010 >
#1355000
0<
b11 6
b10 /
b10 1
b10 3
1)
#1360000
0)
b1010011 >
#1365000
b100 6
b10 /
b10 1
b10 3
1)
#1370000
0)
b1010100 >
#1375000
b101 6
1(
b10 /
b10 1
b10 3
1)
#1380000
0)
b1010101 >
#1385000
b110 6
b10 0
b10 /
b10 1
b10 3
1)
#1390000
0)
b1010110 >
#1395000
1$
b11 0
b111 6
b10 /
b10 1
b10 3
1)
#1400000
0)
b1010111 >
#1405000
b1000 6
1<
b1001 9
b101111101 :
b10 /
b10 1
b10 3
1)
#1410000
0)
b1011000 >
#1415000
b1001 6
b10 /
b10 1
b10 3
1)
#1420000
0)
b1011001 >
#1425000
b1101111000000000 7
b0 6
0(
b1001 5
b10 /
b10 1
b10 3
1)
#1430000
0)
b1011010 >
#1435000
b1 6
b1 0
b10 /
b10 1
b10 3
1)
#1440000
0)
b1011011 >
#1445000
0$
b0 0
b10 6
b10 /
b10 1
b10 3
1)
#1450000
0)
b1011100 >
#1455000
0<
b11 6
b10 /
b10 1
b10 3
1)
#1460000
0)
b1011101 >
#1465000
b100 6
b10 /
b10 1
b10 3
1)
#1470000
0)
b1011110 >
#1475000
b101 6
1(
b10 /
b10 1
b10 3
1)
#1480000
0)
b1011111 >
#1485000
b110 6
b10 0
b10 /
b10 1
b10 3
1)
#1490000
0)
b1100000 >
#1495000
1$
b11 0
b111 6
b10 /
b10 1
b10 3
1)
#1500000
0)
b1100001 >
#1505000
b1000 6
1<
b1010 9
b1011111011 :
b10 /
b10 1
b10 3
1)
#1510000
0)
b1100010 >
#1515000
b1001 6
b10 /
b10 1
b10 3
1)
#1520000
0)
b1100011 >
#1525000
b1011110000000000 7
b0 6
0(
b1010 5
b10 /
b10 1
b10 3
1)
#1530000
0)
b1100100 >
#1535000
b1 6
b1 0
b10 /
b10 1
b10 3
1)
#1540000
0)
b1100101 >
#1545000
0$
b0 0
b10 6
b10 /
b10 1
b10 3
1)
#1550000
0)
b1100110 >
#1555000
0<
b11 6
b10 /
b10 1
b10 3
1)
#1560000
0)
b1100111 >
#1565000
b100 6
b10 /
b10 1
b10 3
1)
#1570000
0)
b1101000 >
#1575000
b101 6
1(
b10 /
b10 1
b10 3
1)
#1580000
0)
b1101001 >
#1585000
b110 6
b10 0
b10 /
b10 1
b10 3
1)
#1590000
0)
b1101010 >
#1595000
1$
b11 0
b111 6
b10 /
b10 1
b10 3
1)
#1600000
0)
b1101011 >
#1605000
b1000 6
1<
b1011 9
b10111110111 :
b10 /
b10 1
b10 3
1)
#1610000
0)
b1101100 >
#1615000
b1001 6
b10 /
b10 1
b10 3
1)
#1620000
0)
b1101101 >
#1625000
0'
b111100000000000 7
b0 6
0(
b1011 5
b10 /
b10 1
b10 3
1)
#1630000
0)
b1101110 >
#1635000
b1 6
b1 0
b1 .
b10 /
b10 1
b10 3
1)
#1640000
0)
b1101111 >
#1645000
0#
0$
b0 .
b0 0
b10 6
b10 /
b10 1
b10 3
1)
#1650000
0)
b1110000 >
#1655000
0<
b11 6
b10 /
b10 1
b10 3
1)
#1660000
0)
b1110001 >
#1665000
b100 6
b10 /
b10 1
b10 3
1)
#1670000
0)
b1110010 >
#1675000
b101 6
1(
b10 /
b10 1
b10 3
1)
#1680000
0)
b1110011 >
#1685000
b110 6
b10 0
b10 /
b10 1
b10 3
1)
#1690000
0)
b1110100 >
#1695000
1$
b11 0
b111 6
b10 /
b10 1
b10 3
1)
#1700000
0)
b1110101 >
#1705000
b1000 6
1<
b1100 9
b101111101110 :
b10 /
b10 1
b10 3
1)
#1710000
0)
b1110110 >
#1715000
b1001 6
b10 /
b10 1
b10 3
1)
#1720000
0)
b1110111 >
#1725000
1'
b1111000000000000 7
b0 6
0(
b1100 5
b10 /
b10 1
b10 3
1)
#1730000
0)
b1111000 >
#1735000
b1 6
b1 0
b10 .
b10 /
b10 1
b10 3
1)
#1740000
0)
b1111001 >
#1745000
1#
0$
b11 .
b0 0
b10 6
b10 /
b10 1
b10 3
1)
#1750000
0)
b1111010 >
#1755000
0<
b11 6
b10 /
b10 1
b10 3
1)
#1760000
0)
b1111011 >
#1765000
b100 6
b10 /
b10 1
b10 3
1)
#1770000
0)
b1111100 >
#1775000
b101 6
1(
b10 /
b10 1
b10 3
1)
#1780000
0)
b1111101 >
#1785000
b110 6
b10 0
b10 /
b10 1
b10 3
1)
#1790000
0)
b1111110 >
#1795000
1$
b11 0
b111 6
b10 /
b10 1
b10 3
1)
#1800000
0)
b1111111 >
#1805000
b1000 6
1<
b1101 9
b1011111011101 :
b10 /
b10 1
b10 3
1)
#1810000
0)
b10000000 >
#1815000
b1001 6
b10 /
b10 1
b10 3
1)
#1820000
0)
b10000001 >
#1825000
b1110000000000000 7
b0 6
0(
b1101 5
b10 /
b10 1
b10 3
1)
#1830000
0)
b10000010 >
#1835000
b1 6
b1 0
b10 /
b10 1
b10 3
1)
#1840000
0)
b10000011 >
#1845000
0$
b0 0
b10 6
b10 /
b10 1
b10 3
1)
#1850000
0)
b10000100 >
#1855000
0<
b11 6
b10 /
b10 1
b10 3
1)
#1860000
0)
b10000101 >
#1865000
b100 6
b10 /
b10 1
b10 3
1)
#1870000
0)
b10000110 >
#1875000
b101 6
1(
b10 /
b10 1
b10 3
1)
#1880000
0)
b10000111 >
#1885000
b110 6
b10 0
b10 /
b10 1
b10 3
1)
#1890000
0)
b10001000 >
#1895000
1$
b11 0
b111 6
b10 /
b10 1
b10 3
1)
#1900000
0)
b10001001 >
#1905000
b1000 6
1<
b1110 9
b10111110111011 :
b10 /
b10 1
b10 3
1)
#1910000
0)
b10001010 >
#1915000
b1001 6
b10 /
b10 1
b10 3
1)
#1920000
0)
b10001011 >
#1925000
b1100000000000000 7
b0 6
0(
b1110 5
b10 /
b10 1
b10 3
1)
#1930000
0)
b10001100 >
#1935000
b1 6
b1 0
b10 /
b10 1
b10 3
1)
#1940000
0)
b10001101 >
#1945000
0$
b0 0
b10 6
b10 /
b10 1
b10 3
1)
#1950000
0)
b10001110 >
#1955000
0<
b11 6
b10 /
b10 1
b10 3
1)
#1960000
0)
b10001111 >
#1965000
b100 6
b10 /
b10 1
b10 3
1)
#1970000
0)
b10010000 >
#1975000
b101 6
1(
b10 /
b10 1
b10 3
1)
#1980000
0)
b10010001 >
#1985000
b110 6
b10 0
b10 /
b10 1
b10 3
1)
#1990000
0)
b10010010 >
#1995000
1$
b11 0
b111 6
b10 /
b10 1
b10 3
1)
#2000000
0)
b10010011 >
#2005000
b1000 6
1<
b1111 9
b101111101110111 :
b10 /
b10 1
b10 3
1)
#2010000
0)
b10010100 >
#2015000
b1001 6
b10 /
b10 1
b10 3
1)
#2020000
0)
b10010101 >
#2025000
b1000000000000000 7
b0 6
0(
b1111 5
b10 /
b10 1
b10 3
1)
#2030000
0)
b10010110 >
#2035000
b1 6
b1 0
b10 /
b10 1
b10 3
1)
#2040000
0)
b10010111 >
#2045000
0$
b0 0
b10 6
b10 /
b10 1
b10 3
1)
#2050000
0)
b10011000 >
#2055000
0<
b11 6
b10 /
b10 1
b10 3
1)
#2060000
0)
b10011001 >
#2065000
b100 6
b10 /
b10 1
b10 3
1)
#2070000
0)
b10011010 >
#2075000
b101 6
1(
b10 /
b10 1
b10 3
1)
#2080000
0)
b10011011 >
#2085000
b110 6
b10 0
b10 /
b10 1
b10 3
1)
#2090000
0)
b10011100 >
#2095000
1$
b11 0
b111 6
b10 /
b10 1
b10 3
1)
#2100000
0)
b10011101 >
#2105000
b1000 6
1<
b1011111011101111 %
b1011111011101111 ;
1&
b0 9
0=
b10 /
b10 1
b10 3
1)
#2110000
0)
b10011110 >
#2115000
0&
b1001 6
b10 /
b10 1
b10 3
1)
#2120000
0)
b10011111 >
#2125000
1!
08
b10 /
b10 1
b10 3
1)
#2130000
0)
b10100000 >
#2135000
0(
b10 2
b10 /
b10 1
b10 3
1)
#2140000
0)
b10100001 >
#2145000
1"
b11 2
b1 0
b10 /
b10 1
b10 3
1)
#2150000
0)
b10100010 >
#2155000
0$
b0 0
b10 /
b10 1
b10 3
1)
#2160000
0)
b10100011 >
#2165000
0<
b10 /
b10 1
b10 3
1)
#2170000
0)
b10100100 >
#2175000
b10 /
b10 1
b10 3
1)
#2180000
0)
b10100101 >
#2185000
b10 /
b10 1
b10 3
1)
#2190000
0)
b10100110 >
#2195000
b10 /
b10 1
b10 3
1)
#2200000
0)
b10100111 >
#2205000
b10 /
b10 1
b10 3
1)
#2210000
0)
b10101000 >
#2215000
b10 /
b10 1
b10 3
1)
#2220000
0)
b10101001 >
#2225000
b10 /
b10 1
b10 3
1)
#2230000
0)
b10101010 >
#2235000
b10 /
b10 1
b10 3
1)
#2240000
0)
b10101011 >
#2245000
b10 /
b10 1
b10 3
1)
#2250000
0)
b10101100 >
#2255000
b10 /
b10 1
b10 3
1)
#2260000
0)
b10101101 >
#2265000
b10 /
b10 1
b10 3
1)
#2270000
0)
b10101110 >
#2275000
b10 /
b10 1
b10 3
1)
#2280000
0)
b10101111 >
#2285000
b10 /
b10 1
b10 3
1)
#2290000
0)
b10110000 >
#2295000
b10 /
b10 1
b10 3
1)
#2300000
0)
b10110001 >
#2305000
b10 /
b10 1
b10 3
1)
#2310000
0)
b10110010 >
#2315000
b10 /
b10 1
b10 3
1)
#2320000
0)
b10110011 >
#2325000
b10 /
b10 1
b10 3
1)
#2330000
0)
b10110100 >
#2335000
b10 /
b10 1
b10 3
1)
#2340000
0)
b10110101 >
#2345000
b10 /
b10 1
b10 3
1)
#2350000
0)
b10110110 >
#2355000
b10 /
b10 1
b10 3
1)
#2360000
0)
b10110111 >
#2365000
b10 /
b10 1
b10 3
1)
#2370000
0)
b10111000 >
#2375000
b10 /
b10 1
b10 3
1)
#2380000
0)
b10111001 >
#2385000
b10 /
b10 1
b10 3
1)
#2390000
0)
b10111010 >
#2395000
b10 /
b10 1
b10 3
1)
#2400000
0)
b10111011 >
#2405000
b10 /
b10 1
b10 3
1)
#2410000
0)
b10111100 >
#2415000
b10 /
b10 1
b10 3
1)
#2420000
0)
b10111101 >
#2425000
b10 /
b10 1
b10 3
1)
#2430000
0)
b10111110 >
#2435000
b10 /
b10 1
b10 3
1)
#2440000
0)
b10111111 >
#2445000
b10 /
b10 1
b10 3
1)
#2450000
0)
b11000000 >
#2455000
b10 /
b10 1
b10 3
1)
#2460000
0)
b11000001 >
#2465000
b10 /
b10 1
b10 3
1)
#2470000
0)
b11000010 >
#2475000
b10 /
b10 1
b10 3
1)
#2480000
0)
b11000011 >
#2485000
b10 /
b10 1
b10 3
1)
#2490000
0)
b11000100 >
#2495000
b10 /
b10 1
b10 3
1)
#2500000
0)
b11000101 >
#2505000
b10 /
b10 1
b10 3
1)
#2510000
0)
b11000110 >
#2515000
b10 /
b10 1
b10 3
1)
#2520000
0)
b11000111 >
#2525000
b10 /
b10 1
b10 3
1)
#2530000
0)
b11001000 >
#2535000
b10 /
b10 1
b10 3
1)
#2540000
0)
b11001001 >
#2545000
b10 /
b10 1
b10 3
1)
#2550000
0)
b11001010 >
#2555000
b10 /
b10 1
b10 3
1)
#2560000
0)
b11001011 >
#2565000
b10 /
b10 1
b10 3
1)
#2570000
0)
b11001100 >
#2575000
b10 /
b10 1
b10 3
1)
#2580000
0)
b11001101 >
#2585000
b10 /
b10 1
b10 3
1)
#2590000
0)
b11001110 >
#2595000
b10 /
b10 1
b10 3
1)
#2600000
0)
b11001111 >
#2605000
b10 /
b10 1
b10 3
1)
#2610000
0)
b11010000 >
#2615000
b10 /
b10 1
b10 3
1)
#2620000
0)
b11010001 >
#2625000
b10 /
b10 1
b10 3
1)
#2630000
0)
b11010010 >
#2635000
b10 /
b10 1
b10 3
1)
#2640000
0)
b11010011 >
#2645000
b10 /
b10 1
b10 3
1)
#2650000
0)
b11010100 >
#2655000
b10 /
b10 1
b10 3
1)
#2660000
0)
b11010101 >
#2665000
b10 /
b10 1
b10 3
1)
#2670000
0)
b11010110 >
#2675000
b10 /
b10 1
b10 3
1)
#2680000
0)
b11010111 >
#2685000
b10 /
b10 1
b10 3
1)
#2690000
0)
b11011000 >
#2695000
b10 /
b10 1
b10 3
1)
#2700000
0)
b11011001 >
#2705000
b10 /
b10 1
b10 3
1)
#2710000
0)
b11011010 >
#2715000
b10 /
b10 1
b10 3
1)
#2720000
0)
b11011011 >
#2725000
b10 /
b10 1
b10 3
1)
#2730000
0)
b11011100 >
#2735000
b10 /
b10 1
b10 3
1)
#2740000
0)
b11011101 >
#2745000
b10 /
b10 1
b10 3
1)
#2750000
0)
b11011110 >
#2755000
b10 /
b10 1
b10 3
1)
#2760000
0)
b11011111 >
#2765000
b10 /
b10 1
b10 3
1)
#2770000
0)
b11100000 >
#2775000
b10 /
b10 1
b10 3
1)
#2780000
0)
b11100001 >
#2785000
b10 /
b10 1
b10 3
1)
#2790000
0)
b11100010 >
#2795000
b10 /
b10 1
b10 3
1)
#2800000
0)
b11100011 >
#2805000
b10 /
b10 1
b10 3
1)
#2810000
0)
b11100100 >
#2815000
b10 /
b10 1
b10 3
1)
#2820000
0)
b11100101 >
#2825000
b10 /
b10 1
b10 3
1)
#2830000
0)
b11100110 >
#2835000
b10 /
b10 1
b10 3
1)
#2840000
0)
b11100111 >
#2845000
b10 /
b10 1
b10 3
1)
#2850000
0)
b11101000 >
#2855000
b10 /
b10 1
b10 3
1)
#2860000
0)
b11101001 >
#2865000
b10 /
b10 1
b10 3
1)
#2870000
0)
b11101010 >
#2875000
b10 /
b10 1
b10 3
1)
#2880000
0)
b11101011 >
#2885000
b10 /
b10 1
b10 3
1)
#2890000
0)
b11101100 >
#2895000
b10 /
b10 1
b10 3
1)
#2900000
0)
b11101101 >
#2905000
b10 /
b10 1
b10 3
1)
#2910000
0)
b11101110 >
#2915000
b10 /
b10 1
b10 3
1)
#2920000
0)
b11101111 >
#2925000
b10 /
b10 1
b10 3
1)
#2930000
0)
b11110000 >
#2935000
b10 /
b10 1
b10 3
1)
#2940000
0)
b11110001 >
#2945000
b10 /
b10 1
b10 3
1)
#2950000
0)
b11110010 >
#2955000
b10 /
b10 1
b10 3
1)
#2960000
0)
b11110011 >
#2965000
b10 /
b10 1
b10 3
1)
#2970000
0)
b11110100 >
#2975000
b10 /
b10 1
b10 3
1)
#2980000
0)
b11110101 >
#2985000
b10 /
b10 1
b10 3
1)
#2990000
0)
b11110110 >
#2995000
b10 /
b10 1
b10 3
1)
#3000000
0)
b11110111 >
#3005000
b10 /
b10 1
b10 3
1)
#3010000
0)
b11111000 >
#3015000
b10 /
b10 1
b10 3
1)
#3020000
0)
b11111001 >
#3025000
b10 /
b10 1
b10 3
1)
#3030000
0)
b11111010 >
#3035000
b10 /
b10 1
b10 3
1)
#3040000
0)
b11111011 >
#3045000
b10 /
b10 1
b10 3
1)
#3050000
0)
b11111100 >
#3055000
b10 /
b10 1
b10 3
1)
#3060000
0)
b11111101 >
#3065000
b10 /
b10 1
b10 3
1)
#3070000
0)
b11111110 >
#3075000
b10 /
b10 1
b10 3
1)
#3080000
0)
b11111111 >
#3085000
b10 /
b10 1
b10 3
1)
#3090000
0)
b100000000 >
#3095000
b10 /
b10 1
b10 3
1)
#3100000
0)
b100000001 >
#3105000
b10 /
b10 1
b10 3
1)
#3110000
0)
b100000010 >
#3115000
b10 /
b10 1
b10 3
1)
#3120000
0)
b100000011 >
#3125000
b10 /
b10 1
b10 3
1)
#3130000
0)
b100000100 >
#3135000
b10 /
b10 1
b10 3
1)
#3140000
0)
b100000101 >
#3145000
b10 /
b10 1
b10 3
1)
#3150000
0)
b100000110 >
#3155000
b10 /
b10 1
b10 3
1)
#3160000
0)
b100000111 >
#3165000
b10 /
b10 1
b10 3
1)
#3170000
0)
b100001000 >
#3175000
b10 /
b10 1
b10 3
1)
#3180000
0)
b100001001 >
