ip_4_tb/ip_4_tb.sim/sim_1/behav/xsim/fsm_tb.vcd
$date
   Tue Dec 12 16:24:44 2023
$end
$version
  2023.1
$end
$timescale
  1ps
$end
$scope module fsm_tb $end
$var reg 1 ! clk_in $end
$var reg 1 " rst_in $end
$var reg 1 # fft_out_valid $end
$var reg 1 $ fft_out_last $end
$var reg 32 % fft_out_data [31:0] $end
$var reg 3 & tone_ident [2:0] $end
$var reg 1 ' fft_out_ready $end
$var reg 1 ( tone_valid $end
$var reg 1 ) fft_valid $end
$var reg 32 * fft_length [31:0] $end
$var reg 11 + fft_data_count [10:0] $end
$scope module tone_detection $end
$var wire 1 , clk_in $end
$var wire 1 - rst_in $end
$var wire 1 . external_valid $end
$var wire 1 / valid_in_signal $end
$var wire 1 0 fft_last $end
$var wire 1 1 recording_length $end
$var wire 32 2 fft_data [31:0] $end
$var reg 3 & tone_ident [2:0] $end
$var reg 1 ' ready_signal $end
$var reg 1 ( valid_signal $end
$var reg 32 3 fft_data_reg_1 [31:0] $end
$var reg 32 4 fft_data_reg_2 [31:0] $end
$var reg 32 5 fft_data_reg_3 [31:0] $end
$var reg 32 6 fft_data_reg_4 [31:0] $end
$var reg 33 7 change_1 [32:0] $end
$var reg 33 8 change_2 [32:0] $end
$var reg 33 9 change_3 [32:0] $end
$var reg 62 : quo_1 [61:0] $end
$var reg 62 ; quo_2 [61:0] $end
$var reg 62 < quo_3 [61:0] $end
$var reg 6 = tone [5:0] $end
$var reg 11 > fft_counter [10:0] $end
$var reg 32 ? cycle_counter [31:0] $end
$var reg 1 @ ready_to_div $end
$var reg 32 A state $end
$scope module first_div $end
$var wire 1 B aclk $end
$var wire 1 C s_axis_divisor_tvalid $end
$var wire 32 D s_axis_divisor_tdata $end
$var wire 1 E s_axis_dividend_tvalid $end
$var wire 32 F s_axis_dividend_tdata $end
$var wire 1 G m_axis_dout_tvalid $end
$var wire 64 H m_axis_dout_tdata $end
$upscope $end
$scope module second_div $end
$var wire 1 I aclk $end
$var wire 1 J s_axis_divisor_tvalid $end
$var wire 32 K s_axis_divisor_tdata $end
$var wire 1 L s_axis_dividend_tvalid $end
$var wire 32 M s_axis_dividend_tdata $end
$var wire 1 N m_axis_dout_tvalid $end
$var wire 64 O m_axis_dout_tdata $end
$upscope $end
$scope module third_div $end
$var wire 1 P aclk $end
$var wire 1 Q s_axis_divisor_tvalid $end
$var wire 32 R s_axis_divisor_tdata $end
$var wire 1 S s_axis_dividend_tvalid $end
$var wire 32 T s_axis_dividend_tdata $end
$var wire 1 U m_axis_dout_tvalid $end
$var wire 64 V m_axis_dout_tdata $end
$upscope $end
$upscope $end
$scope begin Block73_5 $end
$var reg 32 W i [31:0] $end
$upscope $end
$scope begin Block77_6 $end
$var reg 32 X i [31:0] $end
$upscope $end
$scope begin Block81_7 $end
$var reg 32 Y i [31:0] $end
$upscope $end
$upscope $end
$enddefinitions $end
#0
$dumpvars
0!
0"
0#
0$
b0 %
b111 &
0'
0(
0)
bx *
b0 +
0,
0-
0.
0/
00
x1
b0 2
bx 3
bx 4
bx 5
bx 6
bx 7
bx 8
bx 9
b0 :
b0 ;
b0 <
bx =
bx >
bx ?
x@
b0 A
0B
1C
bx D
xE
bx F
0G
b0 H
0I
1J
bx K
xL
bx M
0N
b0 O
0P
1Q
bx R
xS
bx T
0U
b0 V
b0 W
b0 X
b0 Y
$end
#5000
1!
1,
1B
1I
1P
#10000
0!
1"
b1 +
0,
1-
0B
0I
0P
#15000
1!
b0 &
1'
1,
b0 3
b0 =
b0 >
b0 ?
0@
1B
b0 D
1I
1P
#20000
0!
0"
b111111111111 %
b1100001101010 *
b10 +
0,
0-
01
b111111111111 2
0B
0I
0P
#25000
1!
1,
b1 ?
1B
1I
1P
#30000
0!
b11 +
0,
0B
0I
0P
b1 W
#35000
1!
1,
b10 ?
1B
1I
1P
#40000
0!
b100 +
0,
0B
0I
0P
b10 W
#45000
1!
1,
b11 ?
1B
1I
1P
#50000
0!
b101 +
0,
0B
0I
0P
b11 W
#55000
1!
1,
b100 ?
1B
1I
1P
#60000
0!
b110 +
0,
0B
0I
0P
b100 W
#65000
1!
1,
b101 ?
1B
1I
1P
#70000
0!
b111 +
0,
0B
0I
0P
b101 W
#75000
1!
1,
b110 ?
1B
1I
1P
#80000
0!
b1000 +
0,
0B
0I
0P
b110 W
#85000
1!
1,
b111 ?
1B
1I
1P
#90000
0!
b1001 +
0,
0B
0I
0P
b111 W
#95000
1!
1,
b1000 ?
1B
1I
1P
#100000
0!
b1010 +
0,
0B
0I
0P
b1000 W
#105000
1!
1,
b1001 ?
1B
1I
1P
#110000
0!
b1011 +
0,
0B
0I
0P
b1001 W
#115000
1!
1,
b1010 ?
1B
1I
1P
#120000
0!
b1100 +
0,
0B
0I
0P
b1010 W
#125000
1!
1,
b1011 ?
1B
1I
1P
#130000
0!
b1101 +
0,
0B
0I
0P
b1011 W
#135000
1!
1,
b1100 ?
1B
1I
1P
#140000
0!
b1110 +
0,
0B
0I
0P
b1100 W
#145000
1!
1,
b1101 ?
1B
1I
1P
#150000
0!
b1111 +
0,
0B
0I
0P
b1101 W
#155000
1!
1,
b1110 ?
1B
1I
1P
#160000
0!
b10000 +
0,
0B
0I
0P
b1110 W
#165000
1!
1,
b1111 ?
1B
1I
1P
#170000
0!
b10001 +
0,
0B
0I
0P
b1111 W
#175000
1!
1,
b10000 ?
1B
1I
1P
#180000
0!
b10010 +
0,
0B
0I
0P
b10000 W
#185000
1!
1,
b10001 ?
1B
1I
1P
#190000
0!
b10011 +
0,
0B
0I
0P
b10001 W
#195000
1!
1,
b10010 ?
1B
1I
1P
#200000
0!
b10100 +
0,
0B
0I
0P
b10010 W
#205000
1!
1,
b10011 ?
1B
1I
1P
#210000
0!
b10101 +
0,
0B
0I
0P
b10011 W
#215000
1!
1,
b10100 ?
1B
1I
1P
#220000
0!
b10110 +
0,
0B
0I
0P
b10100 W
#225000
1!
1,
b10101 ?
1B
1I
1P
#230000
0!
b10111 +
0,
0B
0I
0P
b10101 W
#235000
1!
1,
b10110 ?
1B
1I
1P
#240000
0!
b11000 +
0,
0B
0I
0P
b10110 W
#245000
1!
1,
b10111 ?
1B
1I
1P
#250000
0!
b11001 +
0,
0B
0I
0P
b10111 W
#255000
1!
1,
b11000 ?
1B
1I
1P
#260000
0!
b11010 +
0,
0B
0I
0P
b11000 W
#265000
1!
1,
b11001 ?
1B
1I
1P
#270000
0!
b11011 +
0,
0B
0I
0P
b11001 W
#275000
1!
1,
b11010 ?
1B
1I
1P
#280000
0!
b11100 +
0,
0B
0I
0P
b11010 W
#285000
1!
1,
b11011 ?
1B
1I
1P
#290000
0!
b11101 +
0,
0B
0I
0P
b11011 W
#295000
1!
1,
b11100 ?
1B
1I
1P
#300000
0!
b11110 +
0,
0B
0I
0P
b11100 W
#305000
1!
1,
b11101 ?
1B
1I
1P
#310000
0!
b11111 +
0,
0B
0I
0P
b11101 W
#315000
1!
1,
b11110 ?
1B
1I
1P
#320000
0!
b100000 +
0,
0B
0I
0P
b11110 W
#325000
1!
1,
b11111 ?
1B
1I
1P
#330000
0!
b100001 +
0,
0B
0I
0P
b11111 W
#335000
1!
1,
b100000 ?
1B
1I
1P
#340000
0!
b100010 +
0,
0B
0I
0P
b100000 W
#345000
1!
1,
b100001 ?
1B
1I
1P
#350000
0!
b100011 +
0,
0B
0I
0P
b100001 W
#355000
1!
1,
b100010 ?
1B
1I
1P
#360000
0!
b100100 +
0,
0B
0I
0P
b100010 W
#365000
1!
1,
b100011 ?
1B
1I
1P
#370000
0!
b100101 +
0,
0B
0I
0P
b100011 W
#375000
1!
1,
b100100 ?
1B
1I
1P
#380000
0!
b100110 +
0,
0B
0I
0P
b100100 W
#385000
1!
1,
b100101 ?
1B
1I
1P
#390000
0!
b100111 +
0,
0B
0I
0P
b100101 W
#395000
1!
1,
b100110 ?
1B
1I
1P
#400000
0!
b101000 +
0,
0B
0I
0P
b100110 W
#405000
1!
1,
b100111 ?
1B
1I
1P
#410000
0!
b101001 +
0,
0B
0I
0P
b100111 W
#415000
1!
1,
b101000 ?
1B
1I
1P
#420000
0!
b101010 +
0,
0B
0I
0P
b101000 W
#425000
1!
1,
b101001 ?
1B
1I
1P
#430000
0!
b101011 +
0,
0B
0I
0P
b101001 W
#435000
1!
1,
b101010 ?
1B
1I
1P
#440000
0!
b101100 +
0,
0B
0I
0P
b101010 W
#445000
1!
1,
b101011 ?
1B
1I
1P
#450000
0!
b101101 +
0,
0B
0I
0P
b101011 W
#455000
1!
1,
b101100 ?
1B
1I
1P
#460000
0!
b101110 +
0,
0B
0I
0P
b101100 W
#465000
1!
1,
b101101 ?
1B
1I
1P
#470000
0!
b101111 +
0,
0B
0I
0P
b101101 W
#475000
1!
1,
b101110 ?
1B
1I
1P
#480000
0!
b110000 +
0,
0B
0I
0P
b101110 W
#485000
1!
1,
b101111 ?
1B
1I
1P
#490000
0!
b110001 +
0,
0B
0I
0P
b101111 W
#495000
1!
1,
b110000 ?
1B
1I
1P
#500000
0!
b110010 +
0,
0B
0I
0P
b110000 W
#505000
1!
1,
b110001 ?
1B
1I
1P
#510000
0!
b110011 +
0,
0B
0I
0P
b110001 W
#515000
1!
1,
b110010 ?
1B
1I
1P
#520000
0!
b110100 +
0,
0B
0I
0P
b110010 W
#525000
1!
1,
b110011 ?
1B
1I
1P
#530000
0!
b110101 +
0,
0B
0I
0P
b110011 W
#535000
1!
1,
b110100 ?
1B
1I
1P
#540000
0!
b110110 +
0,
0B
0I
0P
b110100 W
#545000
1!
1,
b110101 ?
1B
1I
1P
#550000
0!
b110111 +
0,
0B
0I
0P
b110101 W
#555000
1!
1,
b110110 ?
1B
1I
1P
#560000
0!
b111000 +
0,
0B
0I
0P
b110110 W
#565000
1!
1,
b110111 ?
1B
1I
1P
#570000
0!
b111001 +
0,
0B
0I
0P
b110111 W
#575000
1!
1,
b111000 ?
1B
1I
1P
#580000
0!
b111010 +
0,
0B
0I
0P
b111000 W
#585000
1!
1,
b111001 ?
1B
1I
1P
#590000
0!
b111011 +
0,
0B
0I
0P
b111001 W
#595000
1!
1,
b111010 ?
1B
1I
1P
#600000
0!
b111100 +
0,
0B
0I
0P
b111010 W
#605000
1!
1,
b111011 ?
1B
1I
1P
#610000
0!
b111101 +
0,
0B
0I
0P
b111011 W
#615000
1!
1,
b111100 ?
1B
1I
1P
#620000
0!
b111110 +
0,
0B
0I
0P
b111100 W
#625000
1!
1,
b111101 ?
1B
1I
1P
#630000
0!
b111111 +
0,
0B
0I
0P
b111101 W
#635000
1!
1,
b111110 ?
1B
1I
1P
#640000
0!
b1000000 +
0,
0B
0I
0P
b111110 W
#645000
1!
1,
b111111 ?
1B
1I
1P
#650000
0!
b1000001 +
0,
0B
0I
0P
b111111 W
#655000
1!
1,
b1000000 ?
1B
1I
1P
#660000
0!
b1000010 +
0,
0B
0I
0P
b1000000 W
#665000
1!
1,
b1000001 ?
1B
1I
1P
#670000
0!
b1000011 +
0,
0B
0I
0P
b1000001 W
#675000
1!
1,
bx :
bx ;
bx <
b1000010 ?
1B
bx H
1I
bx O
1P
bx V
#680000
0!
b1000100 +
0,
0B
0I
0P
b1000010 W
#685000
1!
1,
b1000011 ?
1B
1I
1P
#690000
0!
b1000101 +
0,
0B
0I
0P
b1000011 W
#695000
1!
1,
b1000100 ?
1B
1I
1P
#700000
0!
b1000110 +
0,
0B
0I
0P
b1000100 W
#705000
1!
1,
b1000101 ?
1B
1I
1P
#710000
0!
b1000111 +
0,
0B
0I
0P
b1000101 W
#715000
1!
1,
b1000110 ?
1B
1I
1P
#720000
0!
b1001000 +
0,
0B
0I
0P
b1000110 W
#725000
1!
1,
b1000111 ?
1B
1I
1P
#730000
0!
b1001001 +
0,
0B
0I
0P
b1000111 W
#735000
1!
1,
b1001000 ?
1B
1I
1P
#740000
0!
b1001010 +
0,
0B
0I
0P
b1001000 W
#745000
1!
1,
b1001001 ?
1B
1I
1P
#750000
0!
b1001011 +
0,
0B
0I
0P
b1001001 W
#755000
1!
1,
b1001010 ?
1B
1I
1P
#760000
0!
b1001100 +
0,
0B
0I
0P
b1001010 W
#765000
1!
1,
b1001011 ?
1B
1I
1P
#770000
0!
b1001101 +
0,
0B
0I
0P
b1001011 W
#775000
1!
1,
b1001100 ?
1B
1I
1P
#780000
0!
b1001110 +
0,
0B
0I
0P
b1001100 W
#785000
1!
1,
b1001101 ?
1B
1I
1P
#790000
0!
b1001111 +
0,
0B
0I
0P
b1001101 W
#795000
1!
1,
b1001110 ?
1B
1I
1P
#800000
0!
b1010000 +
0,
0B
0I
0P
b1001110 W
#805000
1!
1,
b1001111 ?
1B
1I
1P
#810000
0!
b1010001 +
0,
0B
0I
0P
b1001111 W
#815000
1!
1,
b1010000 ?
1B
1I
1P
#820000
0!
b1010010 +
0,
0B
0I
0P
b1010000 W
#825000
1!
1,
b1010001 ?
1B
1I
1P
#830000
0!
b1010011 +
0,
0B
0I
0P
b1010001 W
#835000
1!
1,
b1010010 ?
1B
1I
1P
#840000
0!
b1010100 +
0,
0B
0I
0P
b1010010 W
#845000
1!
1,
b1010011 ?
1B
1I
1P
#850000
0!
b1010101 +
0,
0B
0I
0P
b1010011 W
#855000
1!
1,
b1010100 ?
1B
1I
1P
#860000
0!
b1010110 +
0,
0B
0I
0P
b1010100 W
#865000
1!
1,
b1010101 ?
1B
1I
1P
#870000
0!
b1010111 +
0,
0B
0I
0P
b1010101 W
#875000
1!
1,
b1010110 ?
1B
1I
1P
#880000
0!
b1011000 +
0,
0B
0I
0P
b1010110 W
#885000
1!
1,
b1010111 ?
1B
1I
1P
#890000
0!
b1011001 +
0,
0B
0I
0P
b1010111 W
#895000
1!
1,
b1011000 ?
1B
1I
1P
#900000
0!
b1011010 +
0,
0B
0I
0P
b1011000 W
#905000
1!
1,
b1011001 ?
1B
1I
1P
#910000
0!
b1011011 +
0,
0B
0I
0P
b1011001 W
#915000
1!
1,
b1011010 ?
1B
1I
1P
#920000
0!
b1011100 +
0,
0B
0I
0P
b1011010 W
#925000
1!
1,
b1011011 ?
1B
1I
1P
#930000
0!
b1011101 +
0,
0B
0I
0P
b1011011 W
#935000
1!
1,
b1011100 ?
1B
1I
1P
#940000
0!
b1011110 +
0,
0B
0I
0P
b1011100 W
#945000
1!
1,
b1011101 ?
1B
1I
1P
#950000
0!
b1011111 +
0,
0B
0I
0P
b1011101 W
#955000
1!
1,
b1011110 ?
1B
1I
1P
#960000
0!
b1100000 +
0,
0B
0I
0P
b1011110 W
#965000
1!
1,
b1011111 ?
1B
1I
1P
#970000
0!
b1100001 +
0,
0B
0I
0P
b1011111 W
#975000
1!
1,
b1100000 ?
1B
1I
1P
#980000
0!
b1100010 +
0,
0B
0I
0P
b1100000 W
#985000
1!
1,
b1100001 ?
1B
1I
1P
#990000
0!
b1100011 +
0,
0B
0I
0P
b1100001 W
#995000
1!
1,
b1100010 ?
1B
1I
1P
#1000000
0!
b1100100 +
0,
0B
0I
0P
b1100010 W
