ip_5_tb/ip_5_tb.sim/sim_1/behav/xsim/top_level_tb.vcd
$date
   Thu Dec 14 10:45:07 2023
$end
$version
  2023.1
$end
$timescale
  1ps
$end
$scope module top_level_tb $end
$var reg 8 ! single_audio [7:0] $end
$var reg 32 " length [31:0] $end
$var reg 1 # valid_audio $end
$var reg 3 $ tone_ident [2:0] $end
$var reg 62 % div_out [61:0] $end
$var reg 32 & fft_length [31:0] $end
$var reg 1 ' fft_valid $end
$var reg 1 ( fft_last $end
$var reg 1 ) fft_ready $end
$var reg 1 * fft_out_last $end
$var reg 1 + fft_out_valid $end
$var reg 1 , fft_out_ready $end
$var reg 32 - fft_data [31:0] $end
$var reg 32 . fft_out_data [31:0] $end
$var reg 11 / fft_data_count [10:0] $end
$var reg 1 0 tone_valid $end
$var reg 1 1 sys_rst $end
$var reg 1 2 clk_0 $end
$var reg 1 3 record $end
$var reg 1 4 audio_sample_valid $end
$var reg 8 5 mic_audio [7:0] $end
$var reg 9 6 m_clock_counter [8:0] $end
$var reg 1 7 mic_data $end
$var reg 8 8 pdm_tally [7:0] $end
$var reg 9 9 pdm_counter [8:0] $end
$var reg 1 : old_mic_clk $end
$var reg 1 ; mic_clk $end
$var reg 1 < sampled_mic_data $end
$var reg 1 = pdm_signal_valid $end
$var reg 2 > pwm_counter [1:0] $end
$var reg 1 ? pwm_step $end
$scope module recorder $end
$var wire 1 @ clk_in $end
$var wire 1 A rst_in $end
$var wire 8 B audio_in [7:0] $end
$var wire 1 C record_in $end
$var wire 1 D audio_valid_in $end
$var reg 8 ! single_out [7:0] $end
$var reg 1 # finish $end
$var reg 16 E w_address [15:0] $end
$var reg 16 F r_address [15:0] $end
$var reg 16 G cycle_delay [15:0] $end
$var reg 16 H delay [15:0] $end
$var reg 16 I single_address [15:0] $end
$var reg 16 J largest_address [15:0] $end
$var reg 8 K out [7:0] $end
$var reg 8 L single [7:0] $end
$scope module audio_buffer $end
$var wire 15 M addra [14:0] $end
$var wire 15 N addrb [14:0] $end
$var wire 8 B dina [7:0] $end
$var wire 8 O dinb [7:0] $end
$var wire 1 @ clka $end
$var wire 1 @ clkb $end
$var wire 1 P wea $end
$var wire 1 Q web $end
$var wire 1 R ena $end
$var wire 1 S enb $end
$var wire 1 A rsta $end
$var wire 1 A rstb $end
$var wire 1 T regcea $end
$var wire 1 U regceb $end
$var wire 8 V douta [7:0] $end
$var wire 8 W doutb [7:0] $end
$var reg 8 X ram_data_a [7:0] $end
$var reg 8 Y ram_data_b [7:0] $end
$var integer 32 Z \init_bram_to_zero.ram_index  [31:0] $end
$var integer 32 [ idx [31:0] $end
$var reg 8 \ \output_register.douta_reg  [7:0] $end
$var reg 8 ] \output_register.doutb_reg  [7:0] $end
$upscope $end
$upscope $end
$scope module fft_spacing $end
$var wire 1 ^ aclk $end
$var wire 1 _ s_axis_divisor_tvalid $end
$var wire 32 ` s_axis_divisor_tdata $end
$var wire 1 a s_axis_dividend_tvalid $end
$var wire 32 b s_axis_dividend_tdata $end
$var wire 1 c m_axis_dout_tvalid $end
$var wire 64 d m_axis_dout_tdata $end
$upscope $end
$scope module fft $end
$var wire 1 e aclk $end
$var wire 16 f s_axis_config_tdata $end
$var wire 1 g s_axis_config_tvalid $end
$var wire 1 h s_axis_config_tready $end
$var wire 32 i s_axis_data_tdata $end
$var wire 1 j s_axis_data_tvalid $end
$var wire 1 k s_axis_data_tready $end
$var wire 1 l s_axis_data_tlast $end
$var wire 32 m m_axis_data_tdata $end
$var wire 1 n m_axis_data_tvalid $end
$var wire 1 o m_axis_data_tready $end
$var wire 1 p m_axis_data_tlast $end
$var wire 1 q event_frame_started $end
$var wire 1 r event_tlast_unexpected $end
$var wire 1 s event_tlast_missing $end
$var wire 1 t event_status_channel_halt $end
$var wire 1 u event_data_in_channel_halt $end
$var wire 1 v event_data_out_channel_halt $end
$upscope $end
$scope module tone_detection $end
$var wire 1 w clk_in $end
$var wire 1 x rst_in $end
$var wire 1 y external_valid $end
$var wire 1 z valid_in_signal $end
$var wire 1 { fft_last $end
$var wire 32 | recording_length [31:0] $end
$var wire 32 } fft_data [31:0] $end
$var reg 3 $ tone_ident [2:0] $end
$var reg 1 , ready_signal $end
$var reg 1 0 valid_signal $end
$var reg 32 ~ fft_data_reg_1 [31:0] $end
$var reg 32 !! fft_data_reg_2 [31:0] $end
$var reg 32 "! fft_data_reg_3 [31:0] $end
$var reg 32 #! fft_data_reg_4 [31:0] $end
$var reg 33 $! change_1 [32:0] $end
$var reg 33 %! change_2 [32:0] $end
$var reg 33 &! change_3 [32:0] $end
$var reg 62 '! quo_1 [61:0] $end
$var reg 62 (! quo_2 [61:0] $end
$var reg 62 )! quo_3 [61:0] $end
$var reg 6 *! tone [5:0] $end
$var reg 3 +! fft_counter [2:0] $end
$var reg 32 ,! cycle_counter [31:0] $end
$var reg 1 -! ready_to_div $end
$var reg 32 .! state $end
$scope module first_div $end
$var wire 1 /! aclk $end
$var wire 1 0! s_axis_divisor_tvalid $end
$var wire 32 1! s_axis_divisor_tdata $end
$var wire 1 2! s_axis_dividend_tvalid $end
$var wire 32 3! s_axis_dividend_tdata $end
$var wire 1 4! m_axis_dout_tvalid $end
$var wire 64 5! m_axis_dout_tdata $end
$upscope $end
$scope module second_div $end
$var wire 1 6! aclk $end
$var wire 1 7! s_axis_divisor_tvalid $end
$var wire 32 8! s_axis_divisor_tdata $end
$var wire 1 9! s_axis_dividend_tvalid $end
$var wire 32 :! s_axis_dividend_tdata $end
$var wire 1 ;! m_axis_dout_tvalid $end
$var wire 64 <! m_axis_dout_tdata $end
$upscope $end
$scope module third_div $end
$var wire 1 =! aclk $end
$var wire 1 >! s_axis_divisor_tvalid $end
$var wire 32 ?! s_axis_divisor_tdata $end
$var wire 1 @! s_axis_dividend_tvalid $end
$var wire 32 A! s_axis_dividend_tdata $end
$var wire 1 B! m_axis_dout_tvalid $end
$var wire 64 C! m_axis_dout_tdata $end
$upscope $end
$upscope $end
$scope begin Block195_14 $end
$var reg 32 D! i [31:0] $end
$upscope $end
$upscope $end
$enddefinitions $end
#0
$dumpvars
bx !
bx !!
b0 "
bx "!
0#
bx #!
b111 $
bx $!
b0 %
bx %!
b0 &
bx &!
0'
b0 '!
0(
b0 (!
0)
b0 )!
0*
bx *!
0+
bx +!
0,
bx ,!
b0 -
x-!
b0 .
b0 .!
b0 /
0/!
00
10!
11
bx 1!
02
x2!
03
bx 3!
04
04!
b0 5
b0 5!
bx 6
06!
x7
17!
bx 8
bx 8!
bx 9
x9!
x:
bx :!
x;
0;!
x<
b0 <!
x=
0=!
bx >
1>!
x?
bx ?!
0@
x@!
1A
bx A!
b0 B
0B!
0C
b0 C!
0D
b0 D!
bx E
bx F
bx G
bx H
bx I
bx J
b0 K
bx L
bx M
bx N
bz O
0P
0Q
1R
1S
1T
1U
b0 V
b0 W
b0 X
b0 Y
b100011001010000 Z
b100011001010000 [
b0 \
b0 ]
0^
1_
b100 `
xa
b0 b
0c
b0 d
0e
b0 f
0g
0h
b0 i
0j
0k
0l
b0 m
0n
0o
0p
0q
0r
0s
0t
0u
0v
0w
1x
0y
0z
0{
b0 |
b0 }
bx ~
$end
#5000
1)
b0 *!
b0 +!
1,
b0 ,!
0-!
1/!
b0 1!
12
16!
1=!
1@
b0 E
b0 F
b0 G
b0 H
b0 I
b0 J
b0 M
b0 N
bx X
bx Y
1^
1e
1h
1k
1o
1w
b0 ~
#10000
0/!
01
02
13
06!
07
0=!
0@
0A
1C
0^
0e
0w
0x
#15000
1/!
12
16!
1=!
1@
bx K
bx V
bx W
b0 X
b0 Y
bx \
bx ]
1^
1e
1w
#20000
b1 &
0/!
02
04
06!
17
0=!
0@
b1 D!
0^
0e
0w
b1 |
#25000
b1 ,!
1/!
12
16!
1=!
1@
b0 K
b0 V
b0 W
b0 \
b0 ]
1^
1e
1w
#30000
b10 &
0/!
02
04
06!
07
0=!
0@
b10 D!
0^
0e
0w
b10 |
#35000
b10 ,!
1/!
12
16!
1=!
1@
1^
1e
1w
#40000
b11 &
0/!
02
04
06!
17
0=!
0@
b11 D!
0^
0e
0w
b11 |
#45000
b11 ,!
1/!
12
16!
1=!
1@
1^
1e
1w
#50000
b100 &
0/!
02
04
06!
07
0=!
0@
b100 D!
0^
0e
0w
b100 |
#55000
b100 ,!
1/!
12
16!
1=!
1@
1^
1e
1w
#60000
b101 &
0/!
02
04
06!
17
0=!
0@
b101 D!
0^
0e
0w
b101 |
#65000
b101 ,!
1/!
12
16!
1=!
1@
1^
1e
1w
#70000
b110 &
0/!
02
04
06!
07
0=!
0@
b110 D!
0^
0e
0w
b110 |
#75000
b110 ,!
1/!
12
16!
1=!
1@
1^
1e
1w
#80000
b111 &
0/!
02
04
06!
17
0=!
0@
b111 D!
0^
0e
0w
b111 |
#85000
b111 ,!
1/!
12
16!
1=!
1@
1^
1e
1w
#90000
b1000 &
0/!
02
04
06!
07
0=!
0@
b1000 D!
0^
0e
0w
b1000 |
#95000
b1000 ,!
1/!
12
16!
1=!
1@
1^
1e
1w
#100000
b1001 &
0/!
02
04
06!
17
0=!
0@
b1001 D!
0^
0e
0w
b1001 |
#105000
b1001 ,!
1/!
12
16!
1=!
1@
1^
1e
1w
#110000
b1010 &
0/!
02
04
06!
07
0=!
0@
b1010 D!
0^
0e
0w
b1010 |
#115000
b1010 ,!
1/!
12
16!
1=!
1@
1^
1e
1w
#120000
b1011 &
0/!
02
04
06!
17
0=!
0@
b1011 D!
0^
0e
0w
b1011 |
#125000
b1011 ,!
1/!
12
16!
1=!
1@
1^
1e
1w
#130000
b1100 &
0/!
02
04
06!
07
0=!
0@
b1100 D!
0^
0e
0w
b1100 |
#135000
b1100 ,!
1/!
12
16!
1=!
1@
1^
1e
1w
#140000
b1101 &
0/!
02
04
06!
17
0=!
0@
b1101 D!
0^
0e
0w
b1101 |
#145000
b1101 ,!
1/!
12
16!
1=!
1@
1^
1e
1w
#150000
b1110 &
0/!
02
04
06!
07
0=!
0@
b1110 D!
0^
0e
0w
b1110 |
#155000
b1110 ,!
1/!
12
16!
1=!
1@
1^
1e
1w
#160000
b1111 &
0/!
02
04
06!
17
0=!
0@
b1111 D!
0^
0e
0w
b1111 |
#165000
b1111 ,!
1/!
12
16!
1=!
1@
1^
1e
1w
#170000
b10000 &
0/!
02
04
06!
07
0=!
0@
b10000 D!
0^
0e
0w
b10000 |
#175000
b10000 ,!
1/!
12
16!
1=!
1@
1^
1e
1w
#180000
b10001 &
0/!
02
04
06!
17
0=!
0@
b10001 D!
0^
0e
0w
b10001 |
#185000
b10001 ,!
1/!
12
16!
1=!
1@
1^
1e
1w
#190000
b10010 &
0/!
02
04
06!
07
0=!
0@
b10010 D!
0^
0e
0w
b10010 |
#195000
b10010 ,!
1/!
12
16!
1=!
1@
1^
1e
1w
#200000
b10011 &
0/!
02
04
06!
17
0=!
0@
b10011 D!
0^
0e
0w
b10011 |
#205000
b10011 ,!
1/!
12
16!
1=!
1@
1^
1e
1w
#210000
b10100 &
0/!
02
04
06!
07
0=!
0@
b10100 D!
0^
0e
0w
b10100 |
#215000
b10100 ,!
1/!
12
16!
1=!
1@
1^
1e
1w
#220000
b10101 &
0/!
02
04
06!
17
0=!
0@
b10101 D!
0^
0e
0w
b10101 |
#225000
b10101 ,!
1/!
12
16!
1=!
1@
1^
1e
1w
#230000
b10110 &
0/!
02
04
06!
07
0=!
0@
b10110 D!
0^
0e
0w
b10110 |
#235000
b10110 ,!
1/!
12
16!
1=!
1@
1^
1e
1w
#240000
b10111 &
0/!
02
04
06!
17
0=!
0@
b10111 D!
0^
0e
0w
b10111 |
#245000
b10111 ,!
1/!
12
16!
1=!
1@
1^
1e
1w
#250000
b11000 &
0/!
02
04
06!
07
0=!
0@
b11000 D!
0^
0e
0w
b11000 |
#255000
b11000 ,!
1/!
12
16!
1=!
1@
1^
1e
1w
#260000
b11001 &
0/!
02
04
06!
17
0=!
0@
b11001 D!
0^
0e
0w
b11001 |
#265000
b11001 ,!
1/!
12
16!
1=!
1@
1^
1e
1w
#270000
b11010 &
0/!
02
04
06!
07
0=!
0@
b11010 D!
0^
0e
0w
b11010 |
#275000
b11010 ,!
1/!
12
16!
1=!
1@
1^
1e
1w
#280000
b11011 &
0/!
02
04
06!
17
0=!
0@
b11011 D!
0^
0e
0w
b11011 |
#285000
b11011 ,!
1/!
12
16!
1=!
1@
1^
1e
1w
#290000
b11100 &
0/!
02
04
06!
07
0=!
0@
b11100 D!
0^
0e
0w
b11100 |
#295000
b11100 ,!
1/!
12
16!
1=!
1@
1^
1e
1w
#300000
b11101 &
0/!
02
04
06!
17
0=!
0@
b11101 D!
0^
0e
0w
b11101 |
#305000
b11101 ,!
1/!
12
16!
1=!
1@
1^
1e
1w
#310000
b11110 &
0/!
02
04
06!
07
0=!
0@
b11110 D!
0^
0e
0w
b11110 |
#315000
b11110 ,!
1/!
12
16!
1=!
1@
1^
1e
1w
#320000
b11111 &
0/!
02
04
06!
17
0=!
0@
b11111 D!
0^
0e
0w
b11111 |
#325000
b11111 ,!
1/!
12
16!
1=!
1@
1^
1e
1w
#330000
b100000 &
0/!
02
04
06!
07
0=!
0@
b100000 D!
0^
0e
0w
b100000 |
#335000
b100000 ,!
1/!
12
16!
1=!
1@
1^
1e
1w
#340000
b100001 &
0/!
02
04
06!
17
0=!
0@
b100001 D!
0^
0e
0w
b100001 |
#345000
b100001 ,!
1/!
12
16!
1=!
1@
1^
1e
1w
#350000
b100010 &
0/!
02
04
06!
07
0=!
0@
b100010 D!
0^
0e
0w
b100010 |
#355000
b100010 ,!
1/!
12
16!
1=!
1@
1^
1e
1w
#360000
b100011 &
0/!
02
04
06!
17
0=!
0@
b100011 D!
0^
0e
0w
b100011 |
#365000
b100011 ,!
1/!
12
16!
1=!
1@
1^
1e
1w
#370000
b100100 &
0/!
02
04
06!
07
0=!
0@
b100100 D!
0^
0e
0w
b100100 |
#375000
b100100 ,!
1/!
12
16!
1=!
1@
1^
1e
1w
#380000
b100101 &
0/!
02
04
06!
17
0=!
0@
b100101 D!
0^
0e
0w
b100101 |
#385000
b100101 ,!
1/!
12
16!
1=!
1@
1^
1e
1w
#390000
b100110 &
0/!
02
04
06!
07
0=!
0@
b100110 D!
0^
0e
0w
b100110 |
#395000
b100110 ,!
1/!
12
16!
1=!
1@
1^
1e
1w
#400000
b100111 &
0/!
02
04
06!
17
0=!
0@
b100111 D!
0^
0e
0w
b100111 |
#405000
b100111 ,!
1/!
12
16!
1=!
1@
1^
1e
1w
#410000
b101000 &
0/!
02
04
06!
07
0=!
0@
b101000 D!
0^
0e
0w
b101000 |
#415000
b101000 ,!
1/!
12
16!
1=!
1@
1^
1e
1w
#420000
b101001 &
0/!
02
04
06!
17
0=!
0@
b101001 D!
0^
0e
0w
b101001 |
#425000
b101001 ,!
1/!
12
16!
1=!
1@
1^
1e
1w
#430000
b101010 &
0/!
02
04
06!
07
0=!
0@
b101010 D!
0^
0e
0w
b101010 |
#435000
b101010 ,!
1/!
12
16!
1=!
1@
1^
1e
1w
#440000
b101011 &
0/!
02
04
06!
17
0=!
0@
b101011 D!
0^
0e
0w
b101011 |
#445000
b101011 ,!
1/!
12
16!
1=!
1@
1^
1e
1w
#450000
b101100 &
0/!
02
04
06!
07
0=!
0@
b101100 D!
0^
0e
0w
b101100 |
#455000
b101100 ,!
1/!
12
16!
1=!
1@
1^
1e
1w
#460000
b101101 &
0/!
02
04
06!
17
0=!
0@
b101101 D!
0^
0e
0w
b101101 |
#465000
b101101 ,!
1/!
12
16!
1=!
1@
1^
1e
1w
#470000
b101110 &
0/!
02
04
06!
07
0=!
0@
b101110 D!
0^
0e
0w
b101110 |
#475000
b101110 ,!
1/!
12
16!
1=!
1@
1^
1e
1w
#480000
b101111 &
0/!
02
04
06!
17
0=!
0@
b101111 D!
0^
0e
0w
b101111 |
#485000
b101111 ,!
1/!
12
16!
1=!
1@
1^
1e
1w
#490000
b110000 &
0/!
02
04
06!
07
0=!
0@
b110000 D!
0^
0e
0w
b110000 |
#495000
b110000 ,!
1/!
12
16!
1=!
1@
1^
1e
1w
#500000
b110001 &
0/!
02
04
06!
17
0=!
0@
b110001 D!
0^
0e
0w
b110001 |
#505000
b110001 ,!
1/!
12
16!
1=!
1@
1^
1e
1w
#510000
b110010 &
0/!
02
04
06!
07
0=!
0@
b110010 D!
0^
0e
0w
b110010 |
#515000
b110010 ,!
1/!
12
16!
1=!
1@
1^
1e
1w
#520000
b110011 &
0/!
02
04
06!
17
0=!
0@
b110011 D!
0^
0e
0w
b110011 |
#525000
b110011 ,!
1/!
12
16!
1=!
1@
1^
1e
1w
#530000
b110100 &
0/!
02
04
06!
07
0=!
0@
b110100 D!
0^
0e
0w
b110100 |
#535000
b110100 ,!
1/!
12
16!
1=!
1@
1^
1e
1w
#540000
b110101 &
0/!
02
04
06!
17
0=!
0@
b110101 D!
0^
0e
0w
b110101 |
#545000
b110101 ,!
1/!
12
16!
1=!
1@
1^
1e
1w
#550000
b110110 &
0/!
02
04
06!
07
0=!
0@
b110110 D!
0^
0e
0w
b110110 |
#555000
b110110 ,!
1/!
12
16!
1=!
1@
1^
1e
1w
#560000
b110111 &
0/!
02
04
06!
17
0=!
0@
b110111 D!
0^
0e
0w
b110111 |
#565000
b110111 ,!
1/!
12
16!
1=!
1@
1^
1e
1w
#570000
b111000 &
0/!
02
04
06!
07
0=!
0@
b111000 D!
0^
0e
0w
b111000 |
#575000
b111000 ,!
1/!
12
16!
1=!
1@
1^
1e
1w
#580000
b111001 &
0/!
02
04
06!
17
0=!
0@
b111001 D!
0^
0e
0w
b111001 |
#585000
b111001 ,!
1/!
12
16!
1=!
1@
1^
1e
1w
#590000
b111010 &
0/!
02
04
06!
07
0=!
0@
b111010 D!
0^
0e
0w
b111010 |
#595000
b111010 ,!
1/!
12
16!
1=!
1@
1^
1e
1w
#600000
b111011 &
0/!
02
04
06!
17
0=!
0@
b111011 D!
0^
0e
0w
b111011 |
#605000
b111011 ,!
1/!
12
16!
1=!
1@
1^
1e
1w
#610000
b111100 &
0/!
02
04
06!
07
0=!
0@
b111100 D!
0^
0e
0w
b111100 |
#615000
b111100 ,!
1/!
12
16!
1=!
1@
1^
1e
1w
#620000
b111101 &
0/!
02
04
06!
17
0=!
0@
b111101 D!
0^
0e
0w
b111101 |
#625000
b111101 ,!
1/!
12
16!
1=!
1@
1^
1e
1w
#630000
b111110 &
0/!
02
04
06!
07
0=!
0@
b111110 D!
0^
0e
0w
b111110 |
#635000
b111110 ,!
1/!
12
16!
1=!
1@
1^
1e
1w
#640000
b111111 &
0/!
02
04
06!
17
0=!
0@
b111111 D!
0^
0e
0w
b111111 |
#645000
b111111 ,!
1/!
12
16!
1=!
1@
1^
1e
1w
#650000
b1000000 &
0/!
02
04
06!
07
0=!
0@
b1000000 D!
0^
0e
0w
b1000000 |
#655000
b1000000 ,!
1/!
12
16!
1=!
1@
1^
1e
1w
#660000
b1000001 &
0/!
02
04
06!
17
0=!
0@
b1000001 D!
0^
0e
0w
b1000001 |
#665000
b1000001 ,!
1/!
12
16!
1=!
1@
1^
1e
1w
#670000
b1000010 &
0/!
02
04
06!
07
0=!
0@
b1000010 D!
0^
0e
0w
b1000010 |
#675000
bx '!
bx (!
bx )!
b1000010 ,!
1/!
12
bx 5!
16!
bx <!
1=!
1@
bx C!
1^
1e
1w
#680000
b1000011 &
0/!
02
04
06!
17
0=!
0@
b1000011 D!
0^
0e
0w
b1000011 |
#685000
b1000011 ,!
1/!
12
16!
1=!
1@
1^
1e
1w
#690000
b1000100 &
0/!
02
04
06!
07
0=!
0@
b1000100 D!
0^
0e
0w
b1000100 |
#695000
b100000000000000000000000000000 %
b1000100 ,!
1/!
12
16!
1=!
1@
1^
1e
1w
#700000
b1000101 &
0/!
02
04
06!
17
0=!
0@
b1000101 D!
0^
0e
0w
b1000101 |
#705000
b1000000000000000000000000000000 %
b1000101 ,!
1/!
12
16!
1=!
1@
1^
1e
1w
#710000
b1000110 &
0/!
02
04
06!
07
0=!
0@
b1000110 D!
0^
0e
0w
b1000110 |
#715000
b1100000000000000000000000000000 %
b1000110 ,!
1/!
12
16!
1=!
1@
1^
1e
1w
#720000
b1000111 &
0/!
02
04
06!
17
0=!
0@
b1000111 D!
0^
0e
0w
b1000111 |
#725000
b100000000000000000000000000000000 %
b1000111 ,!
1/!
12
16!
1=!
1@
1^
1e
1w
#730000
b1001000 &
0/!
02
04
06!
07
0=!
0@
b1001000 D!
0^
0e
0w
b1001000 |
#735000
b100100000000000000000000000000000 %
b1001000 ,!
1/!
12
16!
1=!
1@
1^
1e
1w
#740000
b1001001 &
0/!
02
04
06!
17
0=!
0@
b1001001 D!
0^
0e
0w
b1001001 |
#745000
b101000000000000000000000000000000 %
b1001001 ,!
1/!
12
16!
1=!
1@
1^
1e
1w
#750000
b1001010 &
0/!
02
04
06!
07
0=!
0@
b1001010 D!
0^
0e
0w
b1001010 |
#755000
b101100000000000000000000000000000 %
b1001010 ,!
1/!
12
16!
1=!
1@
1^
1e
1w
#760000
b1001011 &
0/!
02
04
06!
17
0=!
0@
b1001011 D!
0^
0e
0w
b1001011 |
#765000
b1000000000000000000000000000000000 %
b1001011 ,!
1/!
12
16!
1=!
1@
1^
1e
1w
#770000
b1001100 &
0/!
02
04
06!
07
0=!
0@
b1001100 D!
0^
0e
0w
b1001100 |
#775000
b1000100000000000000000000000000000 %
b1001100 ,!
1/!
12
16!
1=!
1@
1^
1e
1w
#780000
b1001101 &
0/!
02
04
06!
17
0=!
0@
b1001101 D!
0^
0e
0w
b1001101 |
#785000
b1001000000000000000000000000000000 %
b1001101 ,!
1/!
12
16!
1=!
1@
1^
1e
1w
#790000
b1001110 &
0/!
02
04
06!
07
0=!
0@
b1001110 D!
0^
0e
0w
b1001110 |
#795000
b1001100000000000000000000000000000 %
b1001110 ,!
1/!
12
16!
1=!
1@
1^
1e
1w
#800000
b1001111 &
0/!
02
04
06!
17
0=!
0@
b1001111 D!
0^
0e
0w
b1001111 |
#805000
b1100000000000000000000000000000000 %
b1001111 ,!
1/!
12
16!
1=!
1@
1^
1e
1w
#810000
b1010000 &
0/!
02
04
06!
07
0=!
0@
b1010000 D!
0^
0e
0w
b1010000 |
#815000
b1100100000000000000000000000000000 %
b1010000 ,!
1/!
12
16!
1=!
1@
1^
1e
1w
#820000
b1010001 &
0/!
02
04
06!
17
0=!
0@
b1010001 D!
0^
0e
0w
b1010001 |
#825000
b1101000000000000000000000000000000 %
b1010001 ,!
1/!
12
16!
1=!
1@
1^
1e
1w
#830000
b1010010 &
0/!
02
04
06!
07
0=!
0@
b1010010 D!
0^
0e
0w
b1010010 |
#835000
b1101100000000000000000000000000000 %
b1010010 ,!
1/!
12
16!
1=!
1@
1^
1e
1w
#840000
b1010011 &
0/!
02
04
06!
17
0=!
0@
b1010011 D!
0^
0e
0w
b1010011 |
#845000
b10000000000000000000000000000000000 %
b1010011 ,!
1/!
12
16!
1=!
1@
1^
1e
1w
#850000
b1010100 &
0/!
02
04
06!
07
0=!
0@
b1010100 D!
0^
0e
0w
b1010100 |
#855000
b10000100000000000000000000000000000 %
b1010100 ,!
1/!
12
16!
1=!
1@
1^
1e
1w
#860000
b1010101 &
0/!
02
04
06!
17
0=!
0@
b1010101 D!
0^
0e
0w
b1010101 |
#865000
b10001000000000000000000000000000000 %
b1010101 ,!
1/!
12
16!
1=!
1@
1^
1e
1w
#870000
b1010110 &
0/!
02
04
06!
07
0=!
0@
b1010110 D!
0^
0e
0w
b1010110 |
#875000
b10001100000000000000000000000000000 %
b1010110 ,!
1/!
12
16!
1=!
1@
1^
1e
1w
#880000
b1010111 &
0/!
02
04
06!
17
0=!
0@
b1010111 D!
0^
0e
0w
b1010111 |
#885000
b10100000000000000000000000000000000 %
b1010111 ,!
1/!
12
16!
1=!
1@
1^
1e
1w
#890000
b1011000 &
0/!
02
04
06!
07
0=!
0@
b1011000 D!
0^
0e
0w
b1011000 |
#895000
b10100100000000000000000000000000000 %
b1011000 ,!
1/!
12
16!
1=!
1@
1^
1e
1w
#900000
b1011001 &
0/!
02
04
06!
17
0=!
0@
b1011001 D!
0^
0e
0w
b1011001 |
#905000
b10101000000000000000000000000000000 %
b1011001 ,!
1/!
12
16!
1=!
1@
1^
1e
1w
#910000
b1011010 &
0/!
02
04
06!
07
0=!
0@
b1011010 D!
0^
0e
0w
b1011010 |
#915000
b10101100000000000000000000000000000 %
b1011010 ,!
1/!
12
16!
1=!
1@
1^
1e
1w
#920000
b1011011 &
0/!
02
04
06!
17
0=!
0@
b1011011 D!
0^
0e
0w
b1011011 |
#925000
b11000000000000000000000000000000000 %
b1011011 ,!
1/!
12
16!
1=!
1@
1^
1e
1w
#930000
b1011100 &
0/!
02
04
06!
07
0=!
0@
b1011100 D!
0^
0e
0w
b1011100 |
#935000
b11000100000000000000000000000000000 %
b1011100 ,!
1/!
12
16!
1=!
1@
1^
1e
1w
#940000
b1011101 &
0/!
02
04
06!
17
0=!
0@
b1011101 D!
0^
0e
0w
b1011101 |
#945000
b11001000000000000000000000000000000 %
b1011101 ,!
1/!
12
16!
1=!
1@
1^
1e
1w
#950000
b1011110 &
0/!
02
04
06!
07
0=!
0@
b1011110 D!
0^
0e
0w
b1011110 |
#955000
b11001100000000000000000000000000000 %
b1011110 ,!
1/!
12
16!
1=!
1@
1^
1e
1w
#960000
b1011111 &
0/!
02
04
06!
17
0=!
0@
b1011111 D!
0^
0e
0w
b1011111 |
#965000
b11100000000000000000000000000000000 %
b1011111 ,!
1/!
12
16!
1=!
1@
1^
1e
1w
#970000
b1100000 &
0/!
02
04
06!
07
0=!
0@
b1100000 D!
0^
0e
0w
b1100000 |
#975000
b11100100000000000000000000000000000 %
b1100000 ,!
1/!
12
16!
1=!
1@
1^
1e
1w
#980000
b1100001 &
0/!
02
04
06!
17
0=!
0@
b1100001 D!
0^
0e
0w
b1100001 |
#985000
b11101000000000000000000000000000000 %
b1100001 ,!
1/!
12
16!
1=!
1@
1^
1e
1w
#990000
b1100010 &
0/!
02
04
06!
07
0=!
0@
b1100010 D!
0^
0e
0w
b1100010 |
#995000
b11101100000000000000000000000000000 %
b1100010 ,!
1/!
12
16!
1=!
1@
1^
1e
1w
#1000000
b1100011 &
0/!
02
04
06!
17
0=!
0@
b1100011 D!
0^
0e
0w
b1100011 |
