ip_5_tb/ip_5_tb.sim/sim_1/behav/xsim/top_level_tb.vcd
$date
   Wed Dec 13 12:10:13 2023
$end
$version
  2023.1
$end
$timescale
  1ps
$end
$scope module top_level_tb $end
$var reg 8 ! single_audio [7:0] $end
$var reg 32 " length [31:0] $end
$var reg 1 # valid_audio $end
$var reg 3 $ tone_ident [2:0] $end
$var reg 62 % div_out [61:0] $end
$var reg 32 & fft_length [31:0] $end
$var reg 1 ' fft_valid $end
$var reg 1 ( fft_last $end
$var reg 1 ) fft_ready $end
$var reg 1 * fft_out_last $end
$var reg 1 + fft_out_valid $end
$var reg 1 , fft_out_ready $end
$var reg 32 - fft_data [31:0] $end
$var reg 32 . fft_out_data [31:0] $end
$var reg 11 / fft_data_count [10:0] $end
$var reg 1 0 tone_valid $end
$var reg 1 1 sys_rst $end
$var reg 1 2 clk_0 $end
$var reg 1 3 record $end
$var reg 1 4 audio_sample_valid $end
$var reg 8 5 mic_audio [7:0] $end
$scope module recorder $end
$var wire 1 6 clk_in $end
$var wire 1 7 rst_in $end
$var wire 8 8 audio_in [7:0] $end
$var wire 1 9 record_in $end
$var wire 1 : audio_valid_in $end
$var reg 8 ! single_out [7:0] $end
$var reg 32 " recording_length [31:0] $end
$var reg 1 # finish $end
$var reg 16 ; w_address [15:0] $end
$var reg 16 < r_address [15:0] $end
$var reg 16 = r_address_int [15:0] $end
$var reg 16 > cycle_delay [15:0] $end
$var reg 16 ? delay [15:0] $end
$var reg 32 @ single_address [31:0] $end
$var reg 32 A largest_address [31:0] $end
$var reg 8 B out [7:0] $end
$var reg 8 C single [7:0] $end
$scope module multiply $end
$var wire 1 D CLK $end
$var wire 32 E A $end
$var wire 32 F B $end
$var wire 64 G P $end
$upscope $end
$scope module audio_buffer $end
$var wire 15 H addra [14:0] $end
$var wire 15 I addrb [14:0] $end
$var wire 8 8 dina [7:0] $end
$var wire 8 J dinb [7:0] $end
$var wire 1 6 clka $end
$var wire 1 6 clkb $end
$var wire 1 K wea $end
$var wire 1 L web $end
$var wire 1 M ena $end
$var wire 1 N enb $end
$var wire 1 7 rsta $end
$var wire 1 7 rstb $end
$var wire 1 O regcea $end
$var wire 1 P regceb $end
$var wire 8 Q douta [7:0] $end
$var wire 8 R doutb [7:0] $end
$var reg 8 S ram_data_a [7:0] $end
$var reg 8 T ram_data_b [7:0] $end
$var integer 32 U \init_bram_to_zero.ram_index  [31:0] $end
$var integer 32 V idx [31:0] $end
$var reg 8 W \output_register.douta_reg  [7:0] $end
$var reg 8 X \output_register.doutb_reg  [7:0] $end
$upscope $end
$upscope $end
$scope module fft_spacing $end
$var wire 1 Y aclk $end
$var wire 1 Z s_axis_divisor_tvalid $end
$var wire 32 [ s_axis_divisor_tdata $end
$var wire 1 \ s_axis_dividend_tvalid $end
$var wire 32 ] s_axis_dividend_tdata $end
$var wire 1 ^ m_axis_dout_tvalid $end
$var wire 64 _ m_axis_dout_tdata $end
$upscope $end
$scope module fft $end
$var wire 1 ` aclk $end
$var wire 16 a s_axis_config_tdata $end
$var wire 1 b s_axis_config_tvalid $end
$var wire 1 c s_axis_config_tready $end
$var wire 32 d s_axis_data_tdata $end
$var wire 1 e s_axis_data_tvalid $end
$var wire 1 f s_axis_data_tready $end
$var wire 1 g s_axis_data_tlast $end
$var wire 32 h m_axis_data_tdata $end
$var wire 1 i m_axis_data_tvalid $end
$var wire 1 j m_axis_data_tready $end
$var wire 1 k m_axis_data_tlast $end
$var wire 1 l event_frame_started $end
$var wire 1 m event_tlast_unexpected $end
$var wire 1 n event_tlast_missing $end
$var wire 1 o event_status_channel_halt $end
$var wire 1 p event_data_in_channel_halt $end
$var wire 1 q event_data_out_channel_halt $end
$upscope $end
$scope module tone_detection $end
$var wire 1 r clk_in $end
$var wire 1 s rst_in $end
$var wire 1 t external_valid $end
$var wire 1 u valid_in_signal $end
$var wire 1 v fft_last $end
$var wire 32 w recording_length [31:0] $end
$var wire 32 x fft_data [31:0] $end
$var reg 3 $ tone_ident [2:0] $end
$var reg 1 , ready_signal $end
$var reg 1 0 valid_signal $end
$var reg 32 y fft_data_reg_1 [31:0] $end
$var reg 32 z fft_data_reg_2 [31:0] $end
$var reg 32 { fft_data_reg_3 [31:0] $end
$var reg 32 | fft_data_reg_4 [31:0] $end
$var reg 33 } change_1 [32:0] $end
$var reg 33 ~ change_2 [32:0] $end
$var reg 33 !! change_3 [32:0] $end
$var reg 62 "! quo_1 [61:0] $end
$var reg 62 #! quo_2 [61:0] $end
$var reg 62 $! quo_3 [61:0] $end
$var reg 6 %! tone [5:0] $end
$var reg 3 &! fft_counter [2:0] $end
$var reg 32 '! cycle_counter [31:0] $end
$var reg 1 (! ready_to_div $end
$var reg 32 )! state $end
$scope module first_div $end
$var wire 1 *! aclk $end
$var wire 1 +! s_axis_divisor_tvalid $end
$var wire 32 ,! s_axis_divisor_tdata $end
$var wire 1 -! s_axis_dividend_tvalid $end
$var wire 32 .! s_axis_dividend_tdata $end
$var wire 1 /! m_axis_dout_tvalid $end
$var wire 64 0! m_axis_dout_tdata $end
$upscope $end
$scope module second_div $end
$var wire 1 1! aclk $end
$var wire 1 2! s_axis_divisor_tvalid $end
$var wire 32 3! s_axis_divisor_tdata $end
$var wire 1 4! s_axis_dividend_tvalid $end
$var wire 32 5! s_axis_dividend_tdata $end
$var wire 1 6! m_axis_dout_tvalid $end
$var wire 64 7! m_axis_dout_tdata $end
$upscope $end
$scope module third_div $end
$var wire 1 8! aclk $end
$var wire 1 9! s_axis_divisor_tvalid $end
$var wire 32 :! s_axis_divisor_tdata $end
$var wire 1 ;! s_axis_dividend_tvalid $end
$var wire 32 <! s_axis_dividend_tdata $end
$var wire 1 =! m_axis_dout_tvalid $end
$var wire 64 >! m_axis_dout_tdata $end
$upscope $end
$upscope $end
$scope begin Block127_14 $end
$var reg 32 ?! i [31:0] $end
$upscope $end
$scope begin Block134_15 $end
$var reg 32 @! i [31:0] $end
$upscope $end
$scope begin Block138_16 $end
$var reg 32 A! i [31:0] $end
$upscope $end
$scope begin Block141_17 $end
$var reg 32 B! i [31:0] $end
$upscope $end
$upscope $end
$enddefinitions $end
#0
$dumpvars
b0 !
bx !!
b0 "
b0 "!
0#
b0 #!
b111 $
b0 $!
b0 %
bx %!
b0 &
bx &!
0'
bx '!
0(
x(!
0)
b0 )!
0*
0*!
0+
1+!
0,
bx ,!
b0 -
x-!
b0 .
bx .!
b0 /
0/!
00
b0 0!
11
01!
02
12!
03
bx 3!
x4
x4!
b0 5
bx 5!
06
06!
17
b0 7!
b0 8
08!
09
19!
x:
bx :!
bx ;
x;!
bx <
bx <!
bx =
0=!
bx >
b0 >!
bx ?
b0 ?!
bx @
b0 @!
bx A
b0 A!
b0 B
b0 B!
bx C
0D
bx E
b10000010001101 F
b0 G
bx H
bx I
bz J
0K
0L
1M
1N
1O
1P
b0 Q
b0 R
b0 S
b0 T
b100011001010000 U
b100011001010000 V
b0 W
b0 X
0Y
1Z
b100 [
x\
b0 ]
0^
b0 _
0`
b0 a
0b
0c
b0 d
0e
0f
0g
b0 h
0i
0j
0k
0l
0m
0n
0o
0p
0q
0r
1s
0t
0u
0v
b0 w
b0 x
bx y
bx z
bx {
bx |
bx }
bx ~
$end
#5000
bx !
bx "
b0 $
b0 %!
b0 &!
b0 '!
0(!
1)
1*!
1,
b0 ,!
11!
12
16
18!
b0 ;
b0 <
b0 =
b0 >
b0 ?
b0 @
b0 A
1D
b0 E
bx G
b0 H
b0 I
bx S
bx T
1Y
bx ]
1`
1c
1f
1j
1r
b0 y
#10000
0*!
01
01!
02
13
14
06
07
08!
19
1:
0D
1K
0Y
0`
0r
0s
#15000
b0 "
1*!
11!
12
16
18!
b1 ;
b1 =
b1 A
bx B
1D
b0 G
b1 H
bx Q
bx R
b0 S
b0 T
bx W
bx X
1Y
b0 ]
1`
1r
#20000
0*!
01!
02
b1 5
06
b1 8
08!
b1 ?!
0D
0Y
0`
0r
#25000
b10000010001101 "
1*!
11!
12
16
18!
b10 ;
b10 =
b10 A
b0 B
1D
b10 H
b0 Q
b0 R
b0 W
b0 X
1Y
1`
1r
#30000
0*!
01!
02
b10 5
06
b10 8
08!
b10 ?!
0D
0Y
0`
0r
#35000
b100000100011010 "
1*!
11!
12
16
18!
b11 ;
b11 =
b11 A
1D
b11 H
1Y
1`
1r
#40000
0*!
01!
02
b11 5
06
b11 8
08!
b11 ?!
0D
0Y
0`
0r
#45000
b110000110100111 "
1*!
11!
12
16
18!
b100 ;
b100 =
b100 A
1D
b100 H
1Y
1`
1r
#50000
0*!
01!
02
b100 5
06
b100 8
08!
b100 ?!
0D
0Y
0`
0r
#55000
b1000001000110100 "
1*!
11!
12
16
18!
b101 ;
b101 =
b101 A
1D
b101 H
1Y
1`
1r
#60000
0*!
01!
02
b101 5
06
b101 8
08!
b101 ?!
0D
0Y
0`
0r
#65000
b1010001011000001 "
1*!
11!
12
16
18!
b110 ;
b110 =
b110 A
1D
b110 H
1Y
1`
1r
#70000
0*!
01!
02
b110 5
06
b110 8
08!
b110 ?!
0D
0Y
0`
0r
#75000
b1100001101001110 "
1*!
11!
12
16
18!
b111 ;
b111 =
b111 A
1D
b111 H
1Y
1`
1r
#80000
0*!
01!
02
b111 5
06
b111 8
08!
b111 ?!
0D
0Y
0`
0r
#85000
b1110001111011011 "
1*!
11!
12
16
18!
b1000 ;
b1000 =
b1000 A
1D
b1000 H
1Y
1`
1r
#90000
0*!
01!
02
b1000 5
06
b1000 8
08!
b1000 ?!
0D
0Y
0`
0r
#95000
b10000010001101000 "
1*!
11!
12
16
18!
b1001 ;
b1001 =
b1001 A
1D
b1001 H
1Y
1`
1r
#100000
0*!
01!
02
b1001 5
06
b1001 8
08!
b1001 ?!
0D
0Y
0`
0r
#105000
b10010010011110101 "
1*!
11!
12
16
18!
b1010 ;
b1010 =
b1010 A
1D
b1010 H
1Y
1`
1r
#110000
0*!
01!
02
b1010 5
06
b1010 8
08!
b1010 ?!
0D
0Y
0`
0r
#115000
b10100010110000010 "
1*!
11!
12
16
18!
b1011 ;
b1011 =
b1011 A
1D
b1011 H
1Y
1`
1r
#120000
0*!
01!
02
b1011 5
06
b1011 8
08!
b1011 ?!
0D
0Y
0`
0r
#125000
b10110011000001111 "
1*!
11!
12
16
18!
b1100 ;
b1100 =
b1100 A
1D
b1100 H
1Y
1`
1r
#130000
0*!
01!
02
b1100 5
06
b1100 8
08!
b1100 ?!
0D
0Y
0`
0r
#135000
b11000011010011100 "
1*!
11!
12
16
18!
b1101 ;
b1101 =
b1101 A
1D
b1101 H
1Y
1`
1r
#140000
0*!
01!
02
b1101 5
06
b1101 8
08!
b1101 ?!
0D
0Y
0`
0r
#145000
b11010011100101001 "
1*!
11!
12
16
18!
b1110 ;
b1110 =
b1110 A
1D
b1110 H
1Y
1`
1r
#150000
0*!
01!
02
b1110 5
06
b1110 8
08!
b1110 ?!
0D
0Y
0`
0r
#155000
b11100011110110110 "
1*!
11!
12
16
18!
b1111 ;
b1111 =
b1111 A
1D
b1111 H
1Y
1`
1r
#160000
0*!
01!
02
b1111 5
06
b1111 8
08!
b1111 ?!
0D
0Y
0`
0r
#165000
b11110100001000011 "
1*!
11!
12
16
18!
b10000 ;
b10000 =
b10000 A
1D
b10000 H
1Y
1`
1r
#170000
0*!
01!
02
b10000 5
06
b10000 8
08!
b10000 ?!
0D
0Y
0`
0r
#175000
b100000100011010000 "
1*!
11!
12
16
18!
b10001 ;
b10001 =
b10001 A
1D
b10001 H
1Y
1`
1r
#180000
0*!
01!
02
b10001 5
06
b10001 8
08!
b10001 ?!
0D
0Y
0`
0r
#185000
b100010100101011101 "
1*!
11!
12
16
18!
b10010 ;
b10010 =
b10010 A
1D
b10010 H
1Y
1`
1r
#190000
0*!
01!
02
b10010 5
06
b10010 8
08!
b10010 ?!
0D
0Y
0`
0r
#195000
b100100100111101010 "
1*!
11!
12
16
18!
b10011 ;
b10011 =
b10011 A
1D
b10011 H
1Y
1`
1r
#200000
0*!
01!
02
b10011 5
06
b10011 8
08!
b10011 ?!
0D
0Y
0`
0r
#205000
b100110101001110111 "
1*!
11!
12
16
18!
b10100 ;
b10100 =
b10100 A
1D
b10100 H
1Y
1`
1r
#210000
0*!
01!
02
b10100 5
06
b10100 8
08!
b10100 ?!
0D
0Y
0`
0r
#215000
b101000101100000100 "
1*!
11!
12
16
18!
b10101 ;
b10101 =
b10101 A
1D
b10101 H
1Y
1`
1r
#220000
0*!
01!
02
b10101 5
06
b10101 8
08!
b10101 ?!
0D
0Y
0`
0r
#225000
b101010101110010001 "
1*!
11!
12
16
18!
b10110 ;
b10110 =
b10110 A
1D
b10110 H
1Y
1`
1r
#230000
0*!
01!
02
b10110 5
06
b10110 8
08!
b10110 ?!
0D
0Y
0`
0r
#235000
b101100110000011110 "
1*!
11!
12
16
18!
b10111 ;
b10111 =
b10111 A
1D
b10111 H
1Y
1`
1r
#240000
0*!
01!
02
b10111 5
06
b10111 8
08!
b10111 ?!
0D
0Y
0`
0r
#245000
b101110110010101011 "
1*!
11!
12
16
18!
b11000 ;
b11000 =
b11000 A
1D
b11000 H
1Y
1`
1r
#250000
0*!
01!
02
b11000 5
06
b11000 8
08!
b11000 ?!
0D
0Y
0`
0r
#255000
b110000110100111000 "
1*!
11!
12
16
18!
b11001 ;
b11001 =
b11001 A
1D
b11001 H
1Y
1`
1r
#260000
0*!
01!
02
b11001 5
06
b11001 8
08!
b11001 ?!
0D
0Y
0`
0r
#265000
b110010110111000101 "
1*!
11!
12
16
18!
b11010 ;
b11010 =
b11010 A
1D
b11010 H
1Y
1`
1r
#270000
0*!
01!
02
b11010 5
06
b11010 8
08!
b11010 ?!
0D
0Y
0`
0r
#275000
b110100111001010010 "
1*!
11!
12
16
18!
b11011 ;
b11011 =
b11011 A
1D
b11011 H
1Y
1`
1r
#280000
0*!
01!
02
b11011 5
06
b11011 8
08!
b11011 ?!
0D
0Y
0`
0r
#285000
b110110111011011111 "
1*!
11!
12
16
18!
b11100 ;
b11100 =
b11100 A
1D
b11100 H
1Y
1`
1r
#290000
0*!
01!
02
b11100 5
06
b11100 8
08!
b11100 ?!
0D
0Y
0`
0r
#295000
b111000111101101100 "
1*!
11!
12
16
18!
b11101 ;
b11101 =
b11101 A
1D
b11101 H
1Y
1`
1r
#300000
0*!
01!
02
b11101 5
06
b11101 8
08!
b11101 ?!
0D
0Y
0`
0r
#305000
b111010111111111001 "
1*!
11!
12
16
18!
b11110 ;
b11110 =
b11110 A
1D
b11110 H
1Y
1`
1r
#310000
0*!
01!
02
b11110 5
06
b11110 8
08!
b11110 ?!
0D
0Y
0`
0r
#315000
b111101000010000110 "
1*!
11!
12
16
18!
b11111 ;
b11111 =
b11111 A
1D
b11111 H
1Y
1`
1r
#320000
0*!
01!
02
b11111 5
06
b11111 8
08!
b11111 ?!
0D
0Y
0`
0r
#325000
b111111000100010011 "
1*!
11!
12
16
18!
b100000 ;
b100000 =
b100000 A
1D
b100000 H
1Y
1`
1r
#330000
0*!
01!
02
b100000 5
06
b100000 8
08!
b100000 ?!
0D
0Y
0`
0r
#335000
b1000001000110100000 "
1*!
11!
12
16
18!
b100001 ;
b100001 =
b100001 A
1D
b100001 H
1Y
1`
1r
#340000
0*!
01!
02
b100001 5
06
b100001 8
08!
b100001 ?!
0D
0Y
0`
0r
#345000
b1000011001000101101 "
1*!
11!
12
16
18!
b100010 ;
b100010 =
b100010 A
1D
b100010 H
1Y
1`
1r
#350000
0*!
01!
02
b100010 5
06
b100010 8
08!
b100010 ?!
0D
0Y
0`
0r
#355000
b1000101001010111010 "
1*!
11!
12
16
18!
b100011 ;
b100011 =
b100011 A
1D
b100011 H
1Y
1`
1r
#360000
0*!
01!
02
b100011 5
06
b100011 8
08!
b100011 ?!
0D
0Y
0`
0r
#365000
b1000111001101000111 "
1*!
11!
12
16
18!
b100100 ;
b100100 =
b100100 A
1D
b100100 H
1Y
1`
1r
#370000
0*!
01!
02
b100100 5
06
b100100 8
08!
b100100 ?!
0D
0Y
0`
0r
#375000
b1001001001111010100 "
1*!
11!
12
16
18!
b100101 ;
b100101 =
b100101 A
1D
b100101 H
1Y
1`
1r
#380000
0*!
01!
02
b100101 5
06
b100101 8
08!
b100101 ?!
0D
0Y
0`
0r
#385000
b1001011010001100001 "
1*!
11!
12
16
18!
b100110 ;
b100110 =
b100110 A
1D
b100110 H
1Y
1`
1r
#390000
0*!
01!
02
b100110 5
06
b100110 8
08!
b100110 ?!
0D
0Y
0`
0r
#395000
b1001101010011101110 "
1*!
11!
12
16
18!
b100111 ;
b100111 =
b100111 A
1D
b100111 H
1Y
1`
1r
#400000
0*!
01!
02
b100111 5
06
b100111 8
08!
b100111 ?!
0D
0Y
0`
0r
#405000
b1001111010101111011 "
1*!
11!
12
16
18!
b101000 ;
b101000 =
b101000 A
1D
b101000 H
1Y
1`
1r
#410000
0*!
01!
02
b101000 5
06
b101000 8
08!
b101000 ?!
0D
0Y
0`
0r
#415000
b1010001011000001000 "
1*!
11!
12
16
18!
b101001 ;
b101001 =
b101001 A
1D
b101001 H
1Y
1`
1r
#420000
0*!
01!
02
b101001 5
06
b101001 8
08!
b101001 ?!
0D
0Y
0`
0r
#425000
b1010011011010010101 "
1*!
11!
12
16
18!
b101010 ;
b101010 =
b101010 A
1D
b101010 H
1Y
1`
1r
#430000
0*!
01!
02
b101010 5
06
b101010 8
08!
b101010 ?!
0D
0Y
0`
0r
#435000
b1010101011100100010 "
1*!
11!
12
16
18!
b101011 ;
b101011 =
b101011 A
1D
b101011 H
1Y
1`
1r
#440000
0*!
01!
02
b101011 5
06
b101011 8
08!
b101011 ?!
0D
0Y
0`
0r
#445000
b1010111011110101111 "
1*!
11!
12
16
18!
b101100 ;
b101100 =
b101100 A
1D
b101100 H
1Y
1`
1r
#450000
0*!
01!
02
b101100 5
06
b101100 8
08!
b101100 ?!
0D
0Y
0`
0r
#455000
b1011001100000111100 "
1*!
11!
12
16
18!
b101101 ;
b101101 =
b101101 A
1D
b101101 H
1Y
1`
1r
#460000
0*!
01!
02
b101101 5
06
b101101 8
08!
b101101 ?!
0D
0Y
0`
0r
#465000
b1011011100011001001 "
1*!
11!
12
16
18!
b101110 ;
b101110 =
b101110 A
1D
b101110 H
1Y
1`
1r
#470000
0*!
01!
02
b101110 5
06
b101110 8
08!
b101110 ?!
0D
0Y
0`
0r
#475000
b1011101100101010110 "
1*!
11!
12
16
18!
b101111 ;
b101111 =
b101111 A
1D
b101111 H
1Y
1`
1r
#480000
0*!
01!
02
b101111 5
06
b101111 8
08!
b101111 ?!
0D
0Y
0`
0r
#485000
b1011111100111100011 "
1*!
11!
12
16
18!
b110000 ;
b110000 =
b110000 A
1D
b110000 H
1Y
1`
1r
#490000
0*!
01!
02
b110000 5
06
b110000 8
08!
b110000 ?!
0D
0Y
0`
0r
#495000
b1100001101001110000 "
1*!
11!
12
16
18!
b110001 ;
b110001 =
b110001 A
1D
b110001 H
1Y
1`
1r
#500000
0*!
01!
02
b110001 5
06
b110001 8
08!
b110001 ?!
0D
0Y
0`
0r
#505000
b1100011101011111101 "
1*!
11!
12
16
18!
b110010 ;
b110010 =
b110010 A
1D
b110010 H
1Y
1`
1r
#510000
0*!
01!
02
b110010 5
06
b110010 8
08!
b110010 ?!
0D
0Y
0`
0r
#515000
b1100101101110001010 "
1*!
11!
12
16
18!
b110011 ;
b110011 =
b110011 A
1D
b110011 H
1Y
1`
1r
#520000
0*!
01!
02
b110011 5
06
b110011 8
08!
b110011 ?!
0D
0Y
0`
0r
#525000
b1100111110000010111 "
1*!
11!
12
16
18!
b110100 ;
b110100 =
b110100 A
1D
b110100 H
1Y
1`
1r
#530000
0*!
01!
02
b110100 5
06
b110100 8
08!
b110100 ?!
0D
0Y
0`
0r
#535000
b1101001110010100100 "
1*!
11!
12
16
18!
b110101 ;
b110101 =
b110101 A
1D
b110101 H
1Y
1`
1r
#540000
0*!
01!
02
b110101 5
06
b110101 8
08!
b110101 ?!
0D
0Y
0`
0r
#545000
b1101011110100110001 "
1*!
11!
12
16
18!
b110110 ;
b110110 =
b110110 A
1D
b110110 H
1Y
1`
1r
#550000
0*!
01!
02
b110110 5
06
b110110 8
08!
b110110 ?!
0D
0Y
0`
0r
#555000
b1101101110110111110 "
1*!
11!
12
16
18!
b110111 ;
b110111 =
b110111 A
1D
b110111 H
1Y
1`
1r
#560000
0*!
01!
02
b110111 5
06
b110111 8
08!
b110111 ?!
0D
0Y
0`
0r
#565000
b1101111111001001011 "
1*!
11!
12
16
18!
b111000 ;
b111000 =
b111000 A
1D
b111000 H
1Y
1`
1r
#570000
0*!
01!
02
b111000 5
06
b111000 8
08!
b111000 ?!
0D
0Y
0`
0r
#575000
b1110001111011011000 "
1*!
11!
12
16
18!
b111001 ;
b111001 =
b111001 A
1D
b111001 H
1Y
1`
1r
#580000
0*!
01!
02
b111001 5
06
b111001 8
08!
b111001 ?!
0D
0Y
0`
0r
#585000
b1110011111101100101 "
1*!
11!
12
16
18!
b111010 ;
b111010 =
b111010 A
1D
b111010 H
1Y
1`
1r
#590000
0*!
01!
02
b111010 5
06
b111010 8
08!
b111010 ?!
0D
0Y
0`
0r
#595000
b1110101111111110010 "
1*!
11!
12
16
18!
b111011 ;
b111011 =
b111011 A
1D
b111011 H
1Y
1`
1r
#600000
0*!
01!
02
b111011 5
06
b111011 8
08!
b111011 ?!
0D
0Y
0`
0r
#605000
b1111000000001111111 "
1*!
11!
12
16
18!
b111100 ;
b111100 =
b111100 A
1D
b111100 H
1Y
1`
1r
#610000
0*!
01!
02
b111100 5
06
b111100 8
08!
b111100 ?!
0D
0Y
0`
0r
#615000
b1111010000100001100 "
1*!
11!
12
16
18!
b111101 ;
b111101 =
b111101 A
1D
b111101 H
1Y
1`
1r
#620000
0*!
01!
02
b111101 5
06
b111101 8
08!
b111101 ?!
0D
0Y
0`
0r
#625000
b1111100000110011001 "
1*!
11!
12
16
18!
b111110 ;
b111110 =
b111110 A
1D
b111110 H
1Y
1`
1r
#630000
0*!
01!
02
b111110 5
06
b111110 8
08!
b111110 ?!
0D
0Y
0`
0r
#635000
b1111110001000100110 "
1*!
11!
12
16
18!
b111111 ;
b111111 =
b111111 A
1D
b111111 H
1Y
1`
1r
#640000
0*!
01!
02
b111111 5
06
b111111 8
08!
b111111 ?!
0D
0Y
0`
0r
#645000
b10000000001010110011 "
1*!
11!
12
16
18!
b1000000 ;
b1000000 =
b1000000 A
1D
b1000000 H
1Y
1`
1r
#650000
0*!
01!
02
b1000000 5
06
b1000000 8
08!
b1000000 ?!
0D
0Y
0`
0r
#655000
b10000010001101000000 "
1*!
11!
12
16
18!
b1000001 ;
b1000001 =
b1000001 A
1D
b1000001 H
1Y
1`
1r
#660000
0*!
01!
02
b1000001 5
06
b1000001 8
08!
b1000001 ?!
0D
0Y
0`
0r
#665000
b10000100001111001101 "
1*!
11!
12
16
18!
b1000010 ;
b1000010 =
b1000010 A
1D
b1000010 H
1Y
1`
1r
#670000
0*!
01!
02
b1000010 5
06
b1000010 8
08!
b1000010 ?!
0D
0Y
0`
0r
#675000
b10000110010001011010 "
bx "!
bx #!
bx $!
1*!
bx 0!
11!
12
16
bx 7!
18!
b1000011 ;
b1000011 =
bx >!
b1000011 A
1D
b1000011 H
1Y
1`
1r
#680000
0*!
01!
02
b1000011 5
06
b1000011 8
08!
b1000011 ?!
0D
0Y
0`
0r
#685000
b10001000010011100111 "
bx %
b0xxxxxxxxxxxxxxxxxxxxxxxxxxxxxx &
1*!
11!
12
16
18!
b1000100 ;
b1000100 =
b1000100 A
1D
b1000100 H
1Y
bx _
1`
1r
b0xxxxxxxxxxxxxxxxxxxxxxxxxxxxxx w
#690000
0*!
01!
02
b1000100 5
06
b1000100 8
08!
b1000100 ?!
0D
0Y
0`
0r
#695000
b10001010010101110100 "
b0 %
b0 &
b1 '!
1*!
11!
12
16
18!
b1000101 ;
b1000101 =
b1000101 A
1D
b1000101 H
1Y
b0 _
1`
1r
b0 w
#700000
0*!
01!
02
b1000101 5
06
b1000101 8
08!
b1000101 ?!
0D
0Y
0`
0r
#705000
b10001100011000000001 "
b10000010001100100000000000000000000000000000 %
b100000100011 &
b0 '!
1*!
11!
12
16
18!
b1000110 ;
b1000110 =
b1000110 A
1D
b1000110 H
1Y
1`
1r
b100000100011 w
#710000
0*!
01!
02
b1000110 5
06
b1000110 8
08!
b1000110 ?!
0D
0Y
0`
0r
#715000
b10001110011010001110 "
b100000100011001000000000000000000000000000000 %
b1000001000110 &
b1 '!
1*!
11!
12
16
18!
b1000111 ;
b1000111 =
b1000111 A
1D
b1000111 H
1Y
1`
1r
b1000001000110 w
#720000
0*!
01!
02
b1000111 5
06
b1000111 8
08!
b1000111 ?!
0D
0Y
0`
0r
#725000
b10010000011100011011 "
b110000110100101100000000000000000000000000000 %
b1100001101001 &
b10 '!
1*!
11!
12
16
18!
b1001000 ;
b1001000 =
b1001000 A
1D
b1001000 H
1Y
1`
1r
b1100001101001 w
#730000
0*!
01!
02
b1001000 5
06
b1001000 8
08!
b1001000 ?!
0D
0Y
0`
0r
#735000
b10010010011110101000 "
b1000001000110100000000000000000000000000000000 %
b10000010001101 &
b11 '!
1*!
11!
12
16
18!
b1001001 ;
b1001001 =
b1001001 A
1D
b1001001 H
1Y
1`
1r
b10000010001101 w
#740000
0*!
01!
02
b1001001 5
06
b1001001 8
08!
b1001001 ?!
0D
0Y
0`
0r
#745000
b10010100100000110101 "
b1010001011000000100000000000000000000000000000 %
b10100010110000 &
b100 '!
1*!
11!
12
16
18!
b1001010 ;
b1001010 =
b1001010 A
1D
b1001010 H
1Y
1`
1r
b10100010110000 w
#750000
0*!
01!
02
b1001010 5
06
b1001010 8
08!
b1001010 ?!
0D
0Y
0`
0r
#755000
b10010110100011000010 "
b1100001101001101000000000000000000000000000000 %
b11000011010011 &
b101 '!
1*!
11!
12
16
18!
b1001011 ;
b1001011 =
b1001011 A
1D
b1001011 H
1Y
1`
1r
b11000011010011 w
#760000
0*!
01!
02
b1001011 5
06
b1001011 8
08!
b1001011 ?!
0D
0Y
0`
0r
#765000
b10011000100101001111 "
b1110001111011001100000000000000000000000000000 %
b11100011110110 &
b110 '!
1*!
11!
12
16
18!
b1001100 ;
b1001100 =
b1001100 A
1D
b1001100 H
1Y
1`
1r
b11100011110110 w
#770000
0*!
01!
02
b1001100 5
06
b1001100 8
08!
b1001100 ?!
0D
0Y
0`
0r
#775000
b10011010100111011100 "
b10000010001101000000000000000000000000000000000 %
b100000100011010 &
b111 '!
1*!
11!
12
16
18!
b1001101 ;
b1001101 =
b1001101 A
1D
b1001101 H
1Y
1`
1r
b100000100011010 w
#780000
0*!
01!
02
b1001101 5
06
b1001101 8
08!
b1001101 ?!
0D
0Y
0`
0r
#785000
b10011100101001101001 "
b10010010011110100100000000000000000000000000000 %
b100100100111101 &
b1000 '!
1*!
11!
12
16
18!
b1001110 ;
b1001110 =
b1001110 A
1D
b1001110 H
1Y
1`
1r
b100100100111101 w
#790000
0*!
01!
02
b1001110 5
06
b1001110 8
08!
b1001110 ?!
0D
0Y
0`
0r
#795000
b10011110101011110110 "
b10100010110000001000000000000000000000000000000 %
b101000101100000 &
b1001 '!
1*!
11!
12
16
18!
b1001111 ;
b1001111 =
b1001111 A
1D
b1001111 H
1Y
1`
1r
b101000101100000 w
#800000
0*!
01!
02
b1001111 5
06
b1001111 8
08!
b1001111 ?!
0D
0Y
0`
0r
#805000
b10100000101110000011 "
b10110011000001101100000000000000000000000000000 %
b101100110000011 &
b1010 '!
1*!
11!
12
16
18!
b1010000 ;
b1010000 =
b1010000 A
1D
b1010000 H
1Y
1`
1r
b101100110000011 w
#810000
0*!
01!
02
b1010000 5
06
b1010000 8
08!
b1010000 ?!
0D
0Y
0`
0r
#815000
b10100010110000010000 "
b11000011010011100000000000000000000000000000000 %
b110000110100111 &
b1011 '!
1*!
11!
12
16
18!
b1010001 ;
b1010001 =
b1010001 A
1D
b1010001 H
1Y
1`
1r
b110000110100111 w
#820000
0*!
01!
02
b1010001 5
06
b1010001 8
08!
b1010001 ?!
0D
0Y
0`
0r
#825000
b10100100110010011101 "
b11010011100101000100000000000000000000000000000 %
b110100111001010 &
b1100 '!
1*!
11!
12
16
18!
b1010010 ;
b1010010 =
b1010010 A
1D
b1010010 H
1Y
1`
1r
b110100111001010 w
#830000
0*!
01!
02
b1010010 5
06
b1010010 8
08!
b1010010 ?!
0D
0Y
0`
0r
#835000
b10100110110100101010 "
b11100011110110101000000000000000000000000000000 %
b111000111101101 &
b1101 '!
1*!
11!
12
16
18!
b1010011 ;
b1010011 =
b1010011 A
1D
b1010011 H
1Y
1`
1r
b111000111101101 w
#840000
0*!
01!
02
b1010011 5
06
b1010011 8
08!
b1010011 ?!
0D
0Y
0`
0r
#845000
b10101000110110110111 "
b11110100001000001100000000000000000000000000000 %
b111101000010000 &
b1110 '!
1*!
11!
12
16
18!
b1010100 ;
b1010100 =
b1010100 A
1D
b1010100 H
1Y
1`
1r
b111101000010000 w
#850000
0*!
01!
02
b1010100 5
06
b1010100 8
08!
b1010100 ?!
0D
0Y
0`
0r
#855000
b10101010111001000100 "
b100000100011010000000000000000000000000000000000 %
b1000001000110100 &
b1111 '!
1*!
11!
12
16
18!
b1010101 ;
b1010101 =
b1010101 A
1D
b1010101 H
1Y
1`
1r
b1000001000110100 w
#860000
0*!
01!
02
b1010101 5
06
b1010101 8
08!
b1010101 ?!
0D
0Y
0`
0r
#865000
b10101100111011010001 "
b100010100101011100100000000000000000000000000000 %
b1000101001010111 &
b10000 '!
1*!
11!
12
16
18!
b1010110 ;
b1010110 =
b1010110 A
1D
b1010110 H
1Y
1`
1r
b1000101001010111 w
