ip_3_tb/ip_3_tb.sim/sim_1/behav/xsim/recorder_tb.vcd
$date
   Wed Dec 13 12:03:08 2023
$end
$version
  2023.1
$end
$timescale
  1ps
$end
$scope module recorder_tb $end
$var reg 1 ! clk_in $end
$var reg 1 " rst_in $end
$var reg 1 # audio_valid_in $end
$var reg 1 $ record_in $end
$var reg 8 % audio_in [7:0] $end
$var reg 8 & single_out [7:0] $end
$var reg 32 ' length [31:0] $end
$var reg 1 ( finish $end
$scope module modified_recorder $end
$var wire 1 ) clk_in $end
$var wire 1 * rst_in $end
$var wire 8 + audio_in [7:0] $end
$var wire 1 , record_in $end
$var wire 1 - audio_valid_in $end
$var reg 8 & single_out [7:0] $end
$var reg 32 ' recording_length [31:0] $end
$var reg 1 ( finish $end
$var reg 16 . w_address [15:0] $end
$var reg 16 / r_address [15:0] $end
$var reg 16 0 r_address_int [15:0] $end
$var reg 16 1 cycle_delay [15:0] $end
$var reg 16 2 delay [15:0] $end
$var reg 32 3 single_address [31:0] $end
$var reg 32 4 largest_address [31:0] $end
$var reg 8 5 out [7:0] $end
$var reg 8 6 single [7:0] $end
$scope module multiply $end
$var wire 1 7 CLK $end
$var wire 32 8 A $end
$var wire 32 9 B $end
$var wire 64 : P $end
$upscope $end
$scope module audio_buffer $end
$var wire 15 ; addra [14:0] $end
$var wire 15 < addrb [14:0] $end
$var wire 8 + dina [7:0] $end
$var wire 8 = dinb [7:0] $end
$var wire 1 ) clka $end
$var wire 1 ) clkb $end
$var wire 1 > wea $end
$var wire 1 ? web $end
$var wire 1 @ ena $end
$var wire 1 A enb $end
$var wire 1 * rsta $end
$var wire 1 * rstb $end
$var wire 1 B regcea $end
$var wire 1 C regceb $end
$var wire 8 D douta [7:0] $end
$var wire 8 E doutb [7:0] $end
$var reg 8 F ram_data_a [7:0] $end
$var reg 8 G ram_data_b [7:0] $end
$var integer 32 H \init_bram_to_zero.ram_index  [31:0] $end
$var integer 32 I idx [31:0] $end
$var reg 8 J \output_register.douta_reg  [7:0] $end
$var reg 8 K \output_register.doutb_reg  [7:0] $end
$upscope $end
$upscope $end
$scope begin Block44_11 $end
$var reg 32 L i [31:0] $end
$upscope $end
$scope begin Block50_12 $end
$var reg 32 M i [31:0] $end
$upscope $end
$upscope $end
$enddefinitions $end
#0
$dumpvars
0!
0"
0#
0$
bx %
bx &
b0 '
0(
0)
0*
bx +
0,
0-
bx .
bx /
bx 0
bx 1
bx 2
bx 3
bx 4
b0 5
bx 6
07
bx 8
b10000010001101 9
b0 :
bx ;
bx <
bz =
0>
0?
1@
1A
1B
1C
b0 D
b0 E
b0 F
b0 G
b100011001010000 H
b100011001010000 I
b0 J
b0 K
b0 L
b0 M
$end
#5000
1!
bx '
1)
17
bx :
bx F
bx G
#10000
0!
1"
0)
1*
07
#15000
1!
1)
b0 .
b0 /
b0 0
b0 1
b0 2
b0 3
b0 4
17
b0 8
b0 ;
b0 <
#20000
0!
0"
1#
1$
b0 %
0)
0*
b0 +
1,
1-
07
1>
#25000
1!
b0 '
1)
b1 .
b1 0
b1 4
bx 5
17
b0 :
b1 ;
bx D
bx E
b0 F
b0 G
bx J
bx K
#30000
0!
b1 %
0)
b1 +
07
b1 L
#35000
1!
b10000010001101 '
1)
b10 .
b10 0
b10 4
b0 5
17
b10 ;
b0 D
b0 E
b0 J
b0 K
#40000
0!
b10 %
0)
b10 +
07
b10 L
#45000
1!
b100000100011010 '
1)
b11 .
b11 0
b11 4
17
b11 ;
#50000
0!
b11 %
0)
b11 +
07
b11 L
#55000
1!
b110000110100111 '
1)
b100 .
b100 0
b100 4
17
b100 ;
#60000
0!
b100 %
0)
b100 +
07
b100 L
#65000
1!
b1000001000110100 '
1)
b101 .
b101 0
b101 4
17
b101 ;
#70000
0!
b101 %
0)
b101 +
07
b101 L
#75000
1!
b1010001011000001 '
1)
b110 .
b110 0
b110 4
17
b110 ;
#80000
0!
b110 %
0)
b110 +
07
b110 L
#85000
1!
b1100001101001110 '
1)
b111 .
b111 0
b111 4
17
b111 ;
#90000
0!
b111 %
0)
b111 +
07
b111 L
#95000
1!
b1110001111011011 '
1)
b1000 .
b1000 0
b1000 4
17
b1000 ;
#100000
0!
b1000 %
0)
b1000 +
07
b1000 L
#105000
1!
b10000010001101000 '
1)
b1001 .
b1001 0
b1001 4
17
b1001 ;
#110000
0!
b1001 %
0)
b1001 +
07
b1001 L
#115000
1!
b10010010011110101 '
1)
b1010 .
b1010 0
b1010 4
17
b1010 ;
#120000
0!
b1010 %
0)
b1010 +
07
b1010 L
#125000
1!
b10100010110000010 '
1)
b1011 .
b1011 0
b1011 4
17
b1011 ;
#130000
0!
b1011 %
0)
b1011 +
07
b1011 L
#135000
1!
b10110011000001111 '
1)
b1100 .
b1100 0
b1100 4
17
b1100 ;
#140000
0!
b1100 %
0)
b1100 +
07
b1100 L
#145000
1!
b11000011010011100 '
1)
b1101 .
b1101 0
b1101 4
17
b1101 ;
#150000
0!
b1101 %
0)
b1101 +
07
b1101 L
#155000
1!
b11010011100101001 '
1)
b1110 .
b1110 0
b1110 4
17
b1110 ;
#160000
0!
b1110 %
0)
b1110 +
07
b1110 L
#165000
1!
b11100011110110110 '
1)
b1111 .
b1111 0
b1111 4
17
b1111 ;
#170000
0!
b1111 %
0)
b1111 +
07
b1111 L
#175000
1!
b11110100001000011 '
1)
b10000 .
b10000 0
b10000 4
17
b10000 ;
#180000
0!
b10000 %
0)
b10000 +
07
b10000 L
#185000
1!
b100000100011010000 '
1)
b10001 .
b10001 0
b10001 4
17
b10001 ;
#190000
0!
b10001 %
0)
b10001 +
07
b10001 L
#195000
1!
b100010100101011101 '
1)
b10010 .
b10010 0
b10010 4
17
b10010 ;
#200000
0!
b10010 %
0)
b10010 +
07
b10010 L
#205000
1!
b100100100111101010 '
1)
b10011 .
b10011 0
b10011 4
17
b10011 ;
#210000
0!
b10011 %
0)
b10011 +
07
b10011 L
#215000
1!
b100110101001110111 '
1)
b10100 .
b10100 0
b10100 4
17
b10100 ;
#220000
0!
b10100 %
0)
b10100 +
07
b10100 L
#225000
1!
b101000101100000100 '
1)
b10101 .
b10101 0
b10101 4
17
b10101 ;
#230000
0!
b10101 %
0)
b10101 +
07
b10101 L
#235000
1!
b101010101110010001 '
1)
b10110 .
b10110 0
b10110 4
17
b10110 ;
#240000
0!
b10110 %
0)
b10110 +
07
b10110 L
#245000
1!
b101100110000011110 '
1)
b10111 .
b10111 0
b10111 4
17
b10111 ;
#250000
0!
b10111 %
0)
b10111 +
07
b10111 L
#255000
1!
b101110110010101011 '
1)
b11000 .
b11000 0
b11000 4
17
b11000 ;
#260000
0!
b11000 %
0)
b11000 +
07
b11000 L
#265000
1!
b110000110100111000 '
1)
b11001 .
b11001 0
b11001 4
17
b11001 ;
#270000
0!
b11001 %
0)
b11001 +
07
b11001 L
#275000
1!
b110010110111000101 '
1)
b11010 .
b11010 0
b11010 4
17
b11010 ;
#280000
0!
b11010 %
0)
b11010 +
07
b11010 L
#285000
1!
b110100111001010010 '
1)
b11011 .
b11011 0
b11011 4
17
b11011 ;
#290000
0!
b11011 %
0)
b11011 +
07
b11011 L
#295000
1!
b110110111011011111 '
1)
b11100 .
b11100 0
b11100 4
17
b11100 ;
#300000
0!
b11100 %
0)
b11100 +
07
b11100 L
#305000
1!
b111000111101101100 '
1)
b11101 .
b11101 0
b11101 4
17
b11101 ;
#310000
0!
b11101 %
0)
b11101 +
07
b11101 L
#315000
1!
b111010111111111001 '
1)
b11110 .
b11110 0
b11110 4
17
b11110 ;
#320000
0!
b11110 %
0)
b11110 +
07
b11110 L
#325000
1!
b111101000010000110 '
1)
b11111 .
b11111 0
b11111 4
17
b11111 ;
#330000
0!
b11111 %
0)
b11111 +
07
b11111 L
#335000
1!
b111111000100010011 '
1)
b100000 .
b100000 0
b100000 4
17
b100000 ;
#340000
0!
b100000 %
0)
b100000 +
07
b100000 L
#345000
1!
b1000001000110100000 '
1)
b100001 .
b100001 0
b100001 4
17
b100001 ;
#350000
0!
b100001 %
0)
b100001 +
07
b100001 L
#355000
1!
b1000011001000101101 '
1)
b100010 .
b100010 0
b100010 4
17
b100010 ;
#360000
0!
b100010 %
0)
b100010 +
07
b100010 L
#365000
1!
b1000101001010111010 '
1)
b100011 .
b100011 0
b100011 4
17
b100011 ;
#370000
0!
b100011 %
0)
b100011 +
07
b100011 L
#375000
1!
b1000111001101000111 '
1)
b100100 .
b100100 0
b100100 4
17
b100100 ;
#380000
0!
b100100 %
0)
b100100 +
07
b100100 L
#385000
1!
b1001001001111010100 '
1)
b100101 .
b100101 0
b100101 4
17
b100101 ;
#390000
0!
b100101 %
0)
b100101 +
07
b100101 L
#395000
1!
b1001011010001100001 '
1)
b100110 .
b100110 0
b100110 4
17
b100110 ;
#400000
0!
b100110 %
0)
b100110 +
07
b100110 L
#405000
1!
b1001101010011101110 '
1)
b100111 .
b100111 0
b100111 4
17
b100111 ;
#410000
0!
b100111 %
0)
b100111 +
07
b100111 L
#415000
1!
b1001111010101111011 '
1)
b101000 .
b101000 0
b101000 4
17
b101000 ;
#420000
0!
b101000 %
0)
b101000 +
07
b101000 L
#425000
1!
b1010001011000001000 '
1)
b101001 .
b101001 0
b101001 4
17
b101001 ;
#430000
0!
b101001 %
0)
b101001 +
07
b101001 L
#435000
1!
b1010011011010010101 '
1)
b101010 .
b101010 0
b101010 4
17
b101010 ;
#440000
0!
b101010 %
0)
b101010 +
07
b101010 L
#445000
1!
b1010101011100100010 '
1)
b101011 .
b101011 0
b101011 4
17
b101011 ;
#450000
0!
b101011 %
0)
b101011 +
07
b101011 L
#455000
1!
b1010111011110101111 '
1)
b101100 .
b101100 0
b101100 4
17
b101100 ;
#460000
0!
b101100 %
0)
b101100 +
07
b101100 L
#465000
1!
b1011001100000111100 '
1)
b101101 .
b101101 0
b101101 4
17
b101101 ;
#470000
0!
b101101 %
0)
b101101 +
07
b101101 L
#475000
1!
b1011011100011001001 '
1)
b101110 .
b101110 0
b101110 4
17
b101110 ;
#480000
0!
b101110 %
0)
b101110 +
07
b101110 L
#485000
1!
b1011101100101010110 '
1)
b101111 .
b101111 0
b101111 4
17
b101111 ;
#490000
0!
b101111 %
0)
b101111 +
07
b101111 L
#495000
1!
b1011111100111100011 '
1)
b110000 .
b110000 0
b110000 4
17
b110000 ;
#500000
0!
b110000 %
0)
b110000 +
07
b110000 L
#505000
1!
b1100001101001110000 '
1)
b110001 .
b110001 0
b110001 4
17
b110001 ;
#510000
0!
b110001 %
0)
b110001 +
07
b110001 L
#515000
1!
b1100011101011111101 '
1)
b110010 .
b110010 0
b110010 4
17
b110010 ;
#520000
0!
b110010 %
0)
b110010 +
07
b110010 L
#525000
1!
b1100101101110001010 '
1)
b110011 .
b110011 0
b110011 4
17
b110011 ;
#530000
0!
b110011 %
0)
b110011 +
07
b110011 L
#535000
1!
b1100111110000010111 '
1)
b110100 .
b110100 0
b110100 4
17
b110100 ;
#540000
0!
b110100 %
0)
b110100 +
07
b110100 L
#545000
1!
b1101001110010100100 '
1)
b110101 .
b110101 0
b110101 4
17
b110101 ;
#550000
0!
b110101 %
0)
b110101 +
07
b110101 L
#555000
1!
b1101011110100110001 '
1)
b110110 .
b110110 0
b110110 4
17
b110110 ;
#560000
0!
b110110 %
0)
b110110 +
07
b110110 L
#565000
1!
b1101101110110111110 '
1)
b110111 .
b110111 0
b110111 4
17
b110111 ;
#570000
0!
b110111 %
0)
b110111 +
07
b110111 L
#575000
1!
b1101111111001001011 '
1)
b111000 .
b111000 0
b111000 4
17
b111000 ;
#580000
0!
b111000 %
0)
b111000 +
07
b111000 L
#585000
1!
b1110001111011011000 '
1)
b111001 .
b111001 0
b111001 4
17
b111001 ;
#590000
0!
b111001 %
0)
b111001 +
07
b111001 L
#595000
1!
b1110011111101100101 '
1)
b111010 .
b111010 0
b111010 4
17
b111010 ;
#600000
0!
b111010 %
0)
b111010 +
07
b111010 L
#605000
1!
b1110101111111110010 '
1)
b111011 .
b111011 0
b111011 4
17
b111011 ;
#610000
0!
b111011 %
0)
b111011 +
07
b111011 L
#615000
1!
b1111000000001111111 '
1)
b111100 .
b111100 0
b111100 4
17
b111100 ;
#620000
0!
b111100 %
0)
b111100 +
07
b111100 L
#625000
1!
b1111010000100001100 '
1)
b111101 .
b111101 0
b111101 4
17
b111101 ;
#630000
0!
b111101 %
0)
b111101 +
07
b111101 L
#635000
1!
b1111100000110011001 '
1)
b111110 .
b111110 0
b111110 4
17
b111110 ;
#640000
0!
b111110 %
0)
b111110 +
07
b111110 L
#645000
1!
b1111110001000100110 '
1)
b111111 .
b111111 0
b111111 4
17
b111111 ;
#650000
0!
b111111 %
0)
b111111 +
07
b111111 L
#655000
1!
b10000000001010110011 '
1)
b1000000 .
b1000000 0
b1000000 4
17
b1000000 ;
#660000
0!
b1000000 %
0)
b1000000 +
07
b1000000 L
#665000
1!
b10000010001101000000 '
1)
b1000001 .
b1000001 0
b1000001 4
17
b1000001 ;
#670000
0!
b1000001 %
0)
b1000001 +
07
b1000001 L
#675000
1!
b10000100001111001101 '
1)
b1000010 .
b1000010 0
b1000010 4
17
b1000010 ;
#680000
0!
b1000010 %
0)
b1000010 +
07
b1000010 L
#685000
1!
b10000110010001011010 '
1)
b1000011 .
b1000011 0
b1000011 4
17
b1000011 ;
#690000
0!
b1000011 %
0)
b1000011 +
07
b1000011 L
#695000
1!
b10001000010011100111 '
1)
b1000100 .
b1000100 0
b1000100 4
17
b1000100 ;
#700000
0!
b1000100 %
0)
b1000100 +
07
b1000100 L
#705000
1!
b10001010010101110100 '
1)
b1000101 .
b1000101 0
b1000101 4
17
b1000101 ;
#710000
0!
b1000101 %
0)
b1000101 +
07
b1000101 L
#715000
1!
b10001100011000000001 '
1)
b1000110 .
b1000110 0
b1000110 4
17
b1000110 ;
#720000
0!
b1000110 %
0)
b1000110 +
07
b1000110 L
#725000
1!
b10001110011010001110 '
1)
b1000111 .
b1000111 0
b1000111 4
17
b1000111 ;
#730000
0!
b1000111 %
0)
b1000111 +
07
b1000111 L
#735000
1!
b10010000011100011011 '
1)
b1001000 .
b1001000 0
b1001000 4
17
b1001000 ;
#740000
0!
b1001000 %
0)
b1001000 +
07
b1001000 L
#745000
1!
b10010010011110101000 '
1)
b1001001 .
b1001001 0
b1001001 4
17
b1001001 ;
#750000
0!
b1001001 %
0)
b1001001 +
07
b1001001 L
#755000
1!
b10010100100000110101 '
1)
b1001010 .
b1001010 0
b1001010 4
17
b1001010 ;
#760000
0!
b1001010 %
0)
b1001010 +
07
b1001010 L
#765000
1!
b10010110100011000010 '
1)
b1001011 .
b1001011 0
b1001011 4
17
b1001011 ;
#770000
0!
b1001011 %
0)
b1001011 +
07
b1001011 L
#775000
1!
b10011000100101001111 '
1)
b1001100 .
b1001100 0
b1001100 4
17
b1001100 ;
#780000
0!
b1001100 %
0)
b1001100 +
07
b1001100 L
#785000
1!
b10011010100111011100 '
1)
b1001101 .
b1001101 0
b1001101 4
17
b1001101 ;
#790000
0!
b1001101 %
0)
b1001101 +
07
b1001101 L
#795000
1!
b10011100101001101001 '
1)
b1001110 .
b1001110 0
b1001110 4
17
b1001110 ;
#800000
0!
b1001110 %
0)
b1001110 +
07
b1001110 L
#805000
1!
b10011110101011110110 '
1)
b1001111 .
b1001111 0
b1001111 4
17
b1001111 ;
#810000
0!
b1001111 %
0)
b1001111 +
07
b1001111 L
#815000
1!
b10100000101110000011 '
1)
b1010000 .
b1010000 0
b1010000 4
17
b1010000 ;
#820000
0!
b1010000 %
0)
b1010000 +
07
b1010000 L
#825000
1!
b10100010110000010000 '
1)
b1010001 .
b1010001 0
b1010001 4
17
b1010001 ;
#830000
0!
b1010001 %
0)
b1010001 +
07
b1010001 L
#835000
1!
b10100100110010011101 '
1)
b1010010 .
b1010010 0
b1010010 4
17
b1010010 ;
#840000
0!
b1010010 %
0)
b1010010 +
07
b1010010 L
#845000
1!
b10100110110100101010 '
1)
b1010011 .
b1010011 0
b1010011 4
17
b1010011 ;
#850000
0!
b1010011 %
0)
b1010011 +
07
b1010011 L
#855000
1!
b10101000110110110111 '
1)
b1010100 .
b1010100 0
b1010100 4
17
b1010100 ;
#860000
0!
b1010100 %
0)
b1010100 +
07
b1010100 L
#865000
1!
b10101010111001000100 '
1)
b1010101 .
b1010101 0
b1010101 4
17
b1010101 ;
#870000
0!
b1010101 %
0)
b1010101 +
07
b1010101 L
#875000
1!
b10101100111011010001 '
1)
b1010110 .
b1010110 0
b1010110 4
17
b1010110 ;
#880000
0!
b1010110 %
0)
b1010110 +
07
b1010110 L
#885000
1!
b10101110111101011110 '
1)
b1010111 .
b1010111 0
b1010111 4
17
b1010111 ;
#890000
0!
b1010111 %
0)
b1010111 +
07
b1010111 L
#895000
1!
b10110000111111101011 '
1)
b1011000 .
b1011000 0
b1011000 4
17
b1011000 ;
#900000
0!
b1011000 %
0)
b1011000 +
07
b1011000 L
#905000
1!
b10110011000001111000 '
1)
b1011001 .
b1011001 0
b1011001 4
17
b1011001 ;
#910000
0!
b1011001 %
0)
b1011001 +
07
b1011001 L
#915000
1!
b10110101000100000101 '
1)
b1011010 .
b1011010 0
b1011010 4
17
b1011010 ;
#920000
0!
b1011010 %
0)
b1011010 +
07
b1011010 L
#925000
1!
b10110111000110010010 '
1)
b1011011 .
b1011011 0
b1011011 4
17
b1011011 ;
#930000
0!
b1011011 %
0)
b1011011 +
07
b1011011 L
#935000
1!
b10111001001000011111 '
1)
b1011100 .
b1011100 0
b1011100 4
17
b1011100 ;
#940000
0!
b1011100 %
0)
b1011100 +
07
b1011100 L
#945000
1!
b10111011001010101100 '
1)
b1011101 .
b1011101 0
b1011101 4
17
b1011101 ;
#950000
0!
b1011101 %
0)
b1011101 +
07
b1011101 L
#955000
1!
b10111101001100111001 '
1)
b1011110 .
b1011110 0
b1011110 4
17
b1011110 ;
#960000
0!
b1011110 %
0)
b1011110 +
07
b1011110 L
#965000
1!
b10111111001111000110 '
1)
b1011111 .
b1011111 0
b1011111 4
17
b1011111 ;
#970000
0!
b1011111 %
0)
b1011111 +
07
b1011111 L
#975000
1!
b11000001010001010011 '
1)
b1100000 .
b1100000 0
b1100000 4
17
b1100000 ;
#980000
0!
b1100000 %
0)
b1100000 +
07
b1100000 L
#985000
1!
b11000011010011100000 '
1)
b1100001 .
b1100001 0
b1100001 4
17
b1100001 ;
#990000
0!
b1100001 %
0)
b1100001 +
07
b1100001 L
#995000
1!
b11000101010101101101 '
1)
b1100010 .
b1100010 0
b1100010 4
17
b1100010 ;
#1000000
0!
b1100010 %
0)
b1100010 +
07
b1100010 L
